M48
;DRILL file {KiCad 5.0.2-bee76a0~70~ubuntu18.04.1} date Mo 01 Apr 2019 10:49:15 CEST
;FORMAT={-:-/ absolute / metric / decimal}
FMAT,2
METRIC,TZ
T1C3.000
T2C3.500
%
G90
G05
T1
X161.036Y-52.197
X174.244Y-52.197
X141.986Y-52.197
X155.194Y-52.197
T2
X194.564Y-140.462
X83.566Y-140.462
X83.566Y-49.53
X194.564Y-49.53
T0
M30
