G04 #@! TF.GenerationSoftware,KiCad,Pcbnew,5.0.2-bee76a0~70~ubuntu18.04.1*
G04 #@! TF.CreationDate,2019-04-01T10:49:20+02:00*
G04 #@! TF.ProjectId,TeensyMIDIAudio,5465656e-7379-44d4-9944-49417564696f,rev?*
G04 #@! TF.SameCoordinates,Original*
G04 #@! TF.FileFunction,Copper,L2,Bot*
G04 #@! TF.FilePolarity,Positive*
%FSLAX46Y46*%
G04 Gerber Fmt 4.6, Leading zero omitted, Abs format (unit mm)*
G04 Created by KiCad (PCBNEW 5.0.2-bee76a0~70~ubuntu18.04.1) date Mo 01 Apr 2019 10:49:20 CEST*
%MOMM*%
%LPD*%
G01*
G04 APERTURE LIST*
G04 #@! TA.AperFunction,ComponentPad*
%ADD10C,1.998980*%
G04 #@! TD*
G04 #@! TA.AperFunction,ComponentPad*
%ADD11C,1.600000*%
G04 #@! TD*
G04 #@! TA.AperFunction,ComponentPad*
%ADD12R,1.600000X1.600000*%
G04 #@! TD*
G04 #@! TA.AperFunction,ComponentPad*
%ADD13O,1.600000X1.600000*%
G04 #@! TD*
G04 #@! TA.AperFunction,ComponentPad*
%ADD14C,3.500120*%
G04 #@! TD*
G04 #@! TA.AperFunction,ComponentPad*
%ADD15C,1.501140*%
G04 #@! TD*
G04 #@! TA.AperFunction,ComponentPad*
%ADD16O,1.700000X1.700000*%
G04 #@! TD*
G04 #@! TA.AperFunction,ComponentPad*
%ADD17R,1.700000X1.700000*%
G04 #@! TD*
G04 #@! TA.AperFunction,ComponentPad*
%ADD18C,2.500000*%
G04 #@! TD*
G04 #@! TA.AperFunction,ComponentPad*
%ADD19O,1.600000X2.400000*%
G04 #@! TD*
G04 #@! TA.AperFunction,ComponentPad*
%ADD20R,1.600000X2.400000*%
G04 #@! TD*
G04 #@! TA.AperFunction,ComponentPad*
%ADD21C,2.199640*%
G04 #@! TD*
G04 #@! TA.AperFunction,ComponentPad*
%ADD22O,2.700000X2.100000*%
G04 #@! TD*
G04 #@! TA.AperFunction,ViaPad*
%ADD23C,0.800000*%
G04 #@! TD*
G04 #@! TA.AperFunction,Conductor*
%ADD24C,0.300000*%
G04 #@! TD*
G04 APERTURE END LIST*
D10*
G04 #@! TO.P,C1,2*
G04 #@! TO.N,+5V*
X184404000Y-88138000D03*
G04 #@! TO.P,C1,1*
G04 #@! TO.N,GND*
X184404000Y-93218000D03*
G04 #@! TD*
G04 #@! TO.P,C2,2*
G04 #@! TO.N,GND*
X184404000Y-99314000D03*
G04 #@! TO.P,C2,1*
G04 #@! TO.N,Net-(C2-Pad1)*
X179324000Y-99314000D03*
G04 #@! TD*
D11*
G04 #@! TO.P,C3,2*
G04 #@! TO.N,Net-(C3-Pad2)*
X168402000Y-76220000D03*
D12*
G04 #@! TO.P,C3,1*
G04 #@! TO.N,Net-(C3-Pad1)*
X168402000Y-78720000D03*
G04 #@! TD*
D11*
G04 #@! TO.P,C4,2*
G04 #@! TO.N,Net-(C4-Pad2)*
X168148000Y-89174000D03*
D12*
G04 #@! TO.P,C4,1*
G04 #@! TO.N,Net-(C4-Pad1)*
X168148000Y-91674000D03*
G04 #@! TD*
D11*
G04 #@! TO.P,C5,2*
G04 #@! TO.N,GND*
X176022000Y-89194000D03*
D12*
G04 #@! TO.P,C5,1*
G04 #@! TO.N,Net-(C2-Pad1)*
X176022000Y-91694000D03*
G04 #@! TD*
D13*
G04 #@! TO.P,D1,2*
G04 #@! TO.N,Net-(D1-Pad2)*
X97028000Y-102870000D03*
D12*
G04 #@! TO.P,D1,1*
G04 #@! TO.N,Net-(D1-Pad1)*
X89408000Y-102870000D03*
G04 #@! TD*
D14*
G04 #@! TO.P,J1,*
G04 #@! TO.N,*
X177622200Y-55626000D03*
X189661800Y-55626000D03*
D15*
G04 #@! TO.P,J1,2*
G04 #@! TO.N,Net-(J1-Pad2)*
X184886600Y-60350400D03*
G04 #@! TO.P,J1,1*
G04 #@! TO.N,+5V*
X182397400Y-60350400D03*
G04 #@! TO.P,J1,4*
G04 #@! TO.N,GND*
X182397400Y-58343800D03*
G04 #@! TO.P,J1,3*
G04 #@! TO.N,Net-(J1-Pad3)*
X184886600Y-58343800D03*
G04 #@! TD*
D16*
G04 #@! TO.P,J3,24*
G04 #@! TO.N,A22_DAC1*
X147828000Y-110490000D03*
G04 #@! TO.P,J3,23*
G04 #@! TO.N,AGND*
X147828000Y-113030000D03*
G04 #@! TO.P,J3,22*
G04 #@! TO.N,A21_DAC0*
X145288000Y-110490000D03*
G04 #@! TO.P,J3,21*
G04 #@! TO.N,AGND*
X145288000Y-113030000D03*
G04 #@! TO.P,J3,20*
G04 #@! TO.N,39_A20*
X142748000Y-110490000D03*
G04 #@! TO.P,J3,19*
G04 #@! TO.N,AGND*
X142748000Y-113030000D03*
G04 #@! TO.P,J3,18*
G04 #@! TO.N,38_A19_PWM_SDA1*
X140208000Y-110490000D03*
G04 #@! TO.P,J3,17*
G04 #@! TO.N,AGND*
X140208000Y-113030000D03*
G04 #@! TO.P,J3,16*
G04 #@! TO.N,37_A18_PWM_SCL1*
X137668000Y-110490000D03*
G04 #@! TO.P,J3,15*
G04 #@! TO.N,AGND*
X137668000Y-113030000D03*
G04 #@! TO.P,J3,14*
G04 #@! TO.N,36_A17_PWM*
X135128000Y-110490000D03*
G04 #@! TO.P,J3,13*
G04 #@! TO.N,AGND*
X135128000Y-113030000D03*
G04 #@! TO.P,J3,12*
G04 #@! TO.N,35_A16_PWM*
X132588000Y-110490000D03*
G04 #@! TO.P,J3,11*
G04 #@! TO.N,AGND*
X132588000Y-113030000D03*
G04 #@! TO.P,J3,10*
G04 #@! TO.N,21_A7_PWM_CS0_modi1_rx1*
X130048000Y-110490000D03*
G04 #@! TO.P,J3,9*
G04 #@! TO.N,AGND*
X130048000Y-113030000D03*
G04 #@! TO.P,J3,8*
G04 #@! TO.N,20_A6_PWM_SC0_sck1*
X127508000Y-110490000D03*
G04 #@! TO.P,J3,7*
G04 #@! TO.N,AGND*
X127508000Y-113030000D03*
G04 #@! TO.P,J3,6*
G04 #@! TO.N,17_A3_PWM_sda0_Touch*
X124968000Y-110490000D03*
G04 #@! TO.P,J3,5*
G04 #@! TO.N,AGND*
X124968000Y-113030000D03*
G04 #@! TO.P,J3,4*
G04 #@! TO.N,16_A2_PWM_scl0_Touch*
X122428000Y-110490000D03*
G04 #@! TO.P,J3,3*
G04 #@! TO.N,AGND*
X122428000Y-113030000D03*
G04 #@! TO.P,J3,2*
G04 #@! TO.N,15_A1_CS0_Touch*
X119888000Y-110490000D03*
D17*
G04 #@! TO.P,J3,1*
G04 #@! TO.N,AGND*
X119888000Y-113030000D03*
G04 #@! TD*
D16*
G04 #@! TO.P,J4,8*
G04 #@! TO.N,33_A14_CAN1TX_scl0_TX5*
X163830000Y-110490000D03*
G04 #@! TO.P,J4,7*
G04 #@! TO.N,34_A15_CAN1RX_sda0_RX5*
X163830000Y-113030000D03*
G04 #@! TO.P,J4,6*
G04 #@! TO.N,32_A13_TX4_SCK1*
X161290000Y-110490000D03*
G04 #@! TO.P,J4,5*
G04 #@! TO.N,31_A12_RX4_CS1*
X161290000Y-113030000D03*
G04 #@! TO.P,J4,4*
G04 #@! TO.N,8_TX3_miso0_sda0*
X158750000Y-110490000D03*
G04 #@! TO.P,J4,3*
G04 #@! TO.N,7_RX3_mosi0_scl0*
X158750000Y-113030000D03*
G04 #@! TO.P,J4,2*
G04 #@! TO.N,MIDI_OUT*
X156210000Y-110490000D03*
D17*
G04 #@! TO.P,J4,1*
G04 #@! TO.N,MIDI_IN*
X156210000Y-113030000D03*
G04 #@! TD*
D16*
G04 #@! TO.P,J5,8*
G04 #@! TO.N,+5V*
X184404000Y-71882000D03*
G04 #@! TO.P,J5,7*
G04 #@! TO.N,GND*
X186944000Y-71882000D03*
G04 #@! TO.P,J5,6*
G04 #@! TO.N,+5V*
X184404000Y-74422000D03*
G04 #@! TO.P,J5,5*
G04 #@! TO.N,GND*
X186944000Y-74422000D03*
G04 #@! TO.P,J5,4*
G04 #@! TO.N,+5V*
X184404000Y-76962000D03*
G04 #@! TO.P,J5,3*
G04 #@! TO.N,GND*
X186944000Y-76962000D03*
G04 #@! TO.P,J5,2*
G04 #@! TO.N,+5V*
X184404000Y-79502000D03*
D17*
G04 #@! TO.P,J5,1*
G04 #@! TO.N,GND*
X186944000Y-79502000D03*
G04 #@! TD*
D16*
G04 #@! TO.P,J6,8*
G04 #@! TO.N,3.3V*
X177292000Y-71882000D03*
G04 #@! TO.P,J6,7*
G04 #@! TO.N,GND*
X179832000Y-71882000D03*
G04 #@! TO.P,J6,6*
G04 #@! TO.N,3.3V*
X177292000Y-74422000D03*
G04 #@! TO.P,J6,5*
G04 #@! TO.N,GND*
X179832000Y-74422000D03*
G04 #@! TO.P,J6,4*
G04 #@! TO.N,3.3V*
X177292000Y-76962000D03*
G04 #@! TO.P,J6,3*
G04 #@! TO.N,GND*
X179832000Y-76962000D03*
G04 #@! TO.P,J6,2*
G04 #@! TO.N,3.3V*
X177292000Y-79502000D03*
D17*
G04 #@! TO.P,J6,1*
G04 #@! TO.N,GND*
X179832000Y-79502000D03*
G04 #@! TD*
D16*
G04 #@! TO.P,J7,4*
G04 #@! TO.N,+5V*
X186436000Y-118110000D03*
G04 #@! TO.P,J7,3*
G04 #@! TO.N,19_A5_SCL0_Touch*
X183896000Y-118110000D03*
G04 #@! TO.P,J7,2*
G04 #@! TO.N,18_A4_SDA0_Touch*
X181356000Y-118110000D03*
D17*
G04 #@! TO.P,J7,1*
G04 #@! TO.N,GND*
X178816000Y-118110000D03*
G04 #@! TD*
D16*
G04 #@! TO.P,J12,4*
G04 #@! TO.N,Net-(J11-Pad1)*
X171196000Y-65786000D03*
G04 #@! TO.P,J12,3*
G04 #@! TO.N,GND*
X168656000Y-65786000D03*
G04 #@! TO.P,J12,2*
X166116000Y-65786000D03*
D17*
G04 #@! TO.P,J12,1*
G04 #@! TO.N,Net-(J11-Pad2)*
X163576000Y-65786000D03*
G04 #@! TD*
D18*
G04 #@! TO.P,J14,6*
G04 #@! TO.N,N/C*
X123618000Y-47610000D03*
X113618000Y-47610000D03*
G04 #@! TO.P,J14,5*
G04 #@! TO.N,Net-(J14-Pad5)*
X123618000Y-60110000D03*
G04 #@! TO.P,J14,1*
G04 #@! TO.N,N/C*
X111118000Y-57610000D03*
G04 #@! TO.P,J14,2*
G04 #@! TO.N,GND*
X118618000Y-57610000D03*
G04 #@! TO.P,J14,4*
G04 #@! TO.N,Net-(J14-Pad4)*
X113618000Y-60110000D03*
G04 #@! TO.P,J14,3*
G04 #@! TO.N,N/C*
X126118000Y-57610000D03*
G04 #@! TD*
G04 #@! TO.P,J15,6*
G04 #@! TO.N,N/C*
X103552000Y-47610000D03*
X93552000Y-47610000D03*
G04 #@! TO.P,J15,5*
G04 #@! TO.N,Net-(D1-Pad2)*
X103552000Y-60110000D03*
G04 #@! TO.P,J15,1*
G04 #@! TO.N,N/C*
X91052000Y-57610000D03*
G04 #@! TO.P,J15,2*
X98552000Y-57610000D03*
G04 #@! TO.P,J15,4*
G04 #@! TO.N,Net-(J15-Pad4)*
X93552000Y-60110000D03*
G04 #@! TO.P,J15,3*
G04 #@! TO.N,N/C*
X106052000Y-57610000D03*
G04 #@! TD*
D16*
G04 #@! TO.P,JP1,2*
G04 #@! TO.N,Net-(J11-Pad2)*
X156464000Y-74422000D03*
D17*
G04 #@! TO.P,JP1,1*
G04 #@! TO.N,Net-(C3-Pad2)*
X156464000Y-71882000D03*
G04 #@! TD*
D16*
G04 #@! TO.P,JP2,2*
G04 #@! TO.N,Net-(J11-Pad1)*
X153670000Y-74422000D03*
D17*
G04 #@! TO.P,JP2,1*
G04 #@! TO.N,Net-(C4-Pad2)*
X153670000Y-71882000D03*
G04 #@! TD*
D16*
G04 #@! TO.P,JP3,3*
G04 #@! TO.N,Net-(JP3-Pad3)*
X150876000Y-71882000D03*
G04 #@! TO.P,JP3,2*
G04 #@! TO.N,3.3V*
X150876000Y-74422000D03*
D17*
G04 #@! TO.P,JP3,1*
G04 #@! TO.N,Net-(JP3-Pad1)*
X150876000Y-76962000D03*
G04 #@! TD*
D13*
G04 #@! TO.P,R1,2*
G04 #@! TO.N,3.3V*
X110744000Y-74422000D03*
D11*
G04 #@! TO.P,R1,1*
G04 #@! TO.N,MIDI_IN*
X103124000Y-74422000D03*
G04 #@! TD*
D13*
G04 #@! TO.P,R2,2*
G04 #@! TO.N,Net-(C2-Pad1)*
X142748000Y-79502000D03*
D11*
G04 #@! TO.P,R2,1*
G04 #@! TO.N,Net-(JP3-Pad3)*
X142748000Y-71882000D03*
G04 #@! TD*
D13*
G04 #@! TO.P,R3,2*
G04 #@! TO.N,Net-(R3-Pad2)*
X123698000Y-78994000D03*
D11*
G04 #@! TO.P,R3,1*
G04 #@! TO.N,Net-(J14-Pad5)*
X123698000Y-71374000D03*
G04 #@! TD*
D13*
G04 #@! TO.P,R4,2*
G04 #@! TO.N,+5V*
X113538000Y-78994000D03*
D11*
G04 #@! TO.P,R4,1*
G04 #@! TO.N,Net-(J14-Pad4)*
X113538000Y-71374000D03*
G04 #@! TD*
D13*
G04 #@! TO.P,R5,2*
G04 #@! TO.N,Net-(D1-Pad1)*
X89408000Y-78994000D03*
D11*
G04 #@! TO.P,R5,1*
G04 #@! TO.N,Net-(J15-Pad4)*
X89408000Y-71374000D03*
G04 #@! TD*
D19*
G04 #@! TO.P,U1,48*
G04 #@! TO.N,+5V*
X111252000Y-122428000D03*
G04 #@! TO.P,U1,24*
G04 #@! TO.N,32_A13_TX4_SCK1*
X169672000Y-137668000D03*
G04 #@! TO.P,U1,47*
G04 #@! TO.N,AGND*
X113792000Y-122428000D03*
G04 #@! TO.P,U1,23*
G04 #@! TO.N,31_A12_RX4_CS1*
X167132000Y-137668000D03*
G04 #@! TO.P,U1,46*
G04 #@! TO.N,3.3V*
X116332000Y-122428000D03*
G04 #@! TO.P,U1,22*
G04 #@! TO.N,30_PWM_can0rx_Touch*
X164592000Y-137668000D03*
G04 #@! TO.P,U1,45*
G04 #@! TO.N,23_A9_PWM_Touch*
X118872000Y-122428000D03*
G04 #@! TO.P,U1,21*
G04 #@! TO.N,29_PWM_cano0tx_Touch*
X162052000Y-137668000D03*
G04 #@! TO.P,U1,44*
G04 #@! TO.N,22_A8_PWM_Touch*
X121412000Y-122428000D03*
G04 #@! TO.P,U1,20*
G04 #@! TO.N,D28_mosi0*
X159512000Y-137668000D03*
G04 #@! TO.P,U1,43*
G04 #@! TO.N,21_A7_PWM_CS0_modi1_rx1*
X123952000Y-122428000D03*
G04 #@! TO.P,U1,19*
G04 #@! TO.N,N/C*
X156972000Y-137668000D03*
G04 #@! TO.P,U1,42*
G04 #@! TO.N,20_A6_PWM_SC0_sck1*
X126492000Y-122428000D03*
G04 #@! TO.P,U1,18*
G04 #@! TO.N,N/C*
X154432000Y-137668000D03*
G04 #@! TO.P,U1,41*
G04 #@! TO.N,19_A5_SCL0_Touch*
X129032000Y-122428000D03*
G04 #@! TO.P,U1,17*
G04 #@! TO.N,25*
X151892000Y-137668000D03*
G04 #@! TO.P,U1,40*
G04 #@! TO.N,18_A4_SDA0_Touch*
X131572000Y-122428000D03*
G04 #@! TO.P,U1,16*
G04 #@! TO.N,24*
X149352000Y-137668000D03*
G04 #@! TO.P,U1,39*
G04 #@! TO.N,17_A3_PWM_sda0_Touch*
X134112000Y-122428000D03*
G04 #@! TO.P,U1,15*
G04 #@! TO.N,N/C*
X146812000Y-137668000D03*
G04 #@! TO.P,U1,38*
G04 #@! TO.N,16_A2_PWM_scl0_Touch*
X136652000Y-122428000D03*
G04 #@! TO.P,U1,14*
G04 #@! TO.N,12_MIDO0*
X144272000Y-137668000D03*
G04 #@! TO.P,U1,37*
G04 #@! TO.N,15_A1_CS0_Touch*
X139192000Y-122428000D03*
G04 #@! TO.P,U1,13*
G04 #@! TO.N,11_MOSI0*
X141732000Y-137668000D03*
G04 #@! TO.P,U1,36*
G04 #@! TO.N,14_A0_PWM_sck0*
X141732000Y-122428000D03*
G04 #@! TO.P,U1,12*
G04 #@! TO.N,10_PWM_TX2_CS0*
X139192000Y-137668000D03*
G04 #@! TO.P,U1,35*
G04 #@! TO.N,13_SCK0_LED*
X144272000Y-122428000D03*
G04 #@! TO.P,U1,11*
G04 #@! TO.N,9_PWM_RX2_CS0*
X136652000Y-137668000D03*
G04 #@! TO.P,U1,34*
G04 #@! TO.N,GND*
X146812000Y-122428000D03*
G04 #@! TO.P,U1,10*
G04 #@! TO.N,8_TX3_miso0_sda0*
X134112000Y-137668000D03*
G04 #@! TO.P,U1,33*
G04 #@! TO.N,A22_DAC1*
X149352000Y-122428000D03*
G04 #@! TO.P,U1,9*
G04 #@! TO.N,7_RX3_mosi0_scl0*
X131572000Y-137668000D03*
G04 #@! TO.P,U1,32*
G04 #@! TO.N,A21_DAC0*
X151892000Y-122428000D03*
G04 #@! TO.P,U1,8*
G04 #@! TO.N,6_PWM*
X129032000Y-137668000D03*
G04 #@! TO.P,U1,31*
G04 #@! TO.N,39_A20*
X154432000Y-122428000D03*
G04 #@! TO.P,U1,7*
G04 #@! TO.N,5_PWM_tx1_miso1*
X126492000Y-137668000D03*
G04 #@! TO.P,U1,30*
G04 #@! TO.N,38_A19_PWM_SDA1*
X156972000Y-122428000D03*
G04 #@! TO.P,U1,6*
G04 #@! TO.N,4_PWM_CAN0RX_SDA2*
X123952000Y-137668000D03*
G04 #@! TO.P,U1,29*
G04 #@! TO.N,37_A18_PWM_SCL1*
X159512000Y-122428000D03*
G04 #@! TO.P,U1,5*
G04 #@! TO.N,3_PWM_CAN0TX_SCL2*
X121412000Y-137668000D03*
G04 #@! TO.P,U1,28*
G04 #@! TO.N,36_A17_PWM*
X162052000Y-122428000D03*
G04 #@! TO.P,U1,4*
G04 #@! TO.N,2_PWM*
X118872000Y-137668000D03*
G04 #@! TO.P,U1,27*
G04 #@! TO.N,35_A16_PWM*
X164592000Y-122428000D03*
G04 #@! TO.P,U1,3*
G04 #@! TO.N,MIDI_OUT*
X116332000Y-137668000D03*
G04 #@! TO.P,U1,26*
G04 #@! TO.N,34_A15_CAN1RX_sda0_RX5*
X167132000Y-122428000D03*
G04 #@! TO.P,U1,2*
G04 #@! TO.N,MIDI_IN*
X113792000Y-137668000D03*
G04 #@! TO.P,U1,25*
G04 #@! TO.N,33_A14_CAN1TX_scl0_TX5*
X169672000Y-122428000D03*
D20*
G04 #@! TO.P,U1,1*
G04 #@! TO.N,GND*
X111252000Y-137668000D03*
G04 #@! TD*
D19*
G04 #@! TO.P,U2,28*
G04 #@! TO.N,N/C*
X101600000Y-83312000D03*
G04 #@! TO.P,U2,14*
G04 #@! TO.N,12_MIDO0*
X134620000Y-98552000D03*
G04 #@! TO.P,U2,27*
G04 #@! TO.N,N/C*
X104140000Y-83312000D03*
G04 #@! TO.P,U2,13*
G04 #@! TO.N,11_MOSI0*
X132080000Y-98552000D03*
G04 #@! TO.P,U2,26*
G04 #@! TO.N,Net-(JP3-Pad1)*
X106680000Y-83312000D03*
G04 #@! TO.P,U2,12*
G04 #@! TO.N,10_PWM_TX2_CS0*
X129540000Y-98552000D03*
G04 #@! TO.P,U2,25*
G04 #@! TO.N,23_A9_PWM_Touch*
X109220000Y-83312000D03*
G04 #@! TO.P,U2,11*
G04 #@! TO.N,9_PWM_RX2_CS0*
X127000000Y-98552000D03*
G04 #@! TO.P,U2,24*
G04 #@! TO.N,22_A8_PWM_Touch*
X111760000Y-83312000D03*
G04 #@! TO.P,U2,10*
G04 #@! TO.N,N/C*
X124460000Y-98552000D03*
G04 #@! TO.P,U2,23*
X114300000Y-83312000D03*
G04 #@! TO.P,U2,9*
G04 #@! TO.N,7_RX3_mosi0_scl0*
X121920000Y-98552000D03*
G04 #@! TO.P,U2,22*
G04 #@! TO.N,N/C*
X116840000Y-83312000D03*
G04 #@! TO.P,U2,8*
G04 #@! TO.N,6_PWM*
X119380000Y-98552000D03*
G04 #@! TO.P,U2,21*
G04 #@! TO.N,19_A5_SCL0_Touch*
X119380000Y-83312000D03*
G04 #@! TO.P,U2,7*
G04 #@! TO.N,N/C*
X116840000Y-98552000D03*
G04 #@! TO.P,U2,20*
G04 #@! TO.N,18_A4_SDA0_Touch*
X121920000Y-83312000D03*
G04 #@! TO.P,U2,6*
G04 #@! TO.N,N/C*
X114300000Y-98552000D03*
G04 #@! TO.P,U2,19*
X124460000Y-83312000D03*
G04 #@! TO.P,U2,5*
X111760000Y-98552000D03*
G04 #@! TO.P,U2,18*
X127000000Y-83312000D03*
G04 #@! TO.P,U2,4*
X109220000Y-98552000D03*
G04 #@! TO.P,U2,17*
X129540000Y-83312000D03*
G04 #@! TO.P,U2,3*
X106680000Y-98552000D03*
G04 #@! TO.P,U2,16*
G04 #@! TO.N,14_A0_PWM_sck0*
X132080000Y-83312000D03*
G04 #@! TO.P,U2,2*
G04 #@! TO.N,N/C*
X104140000Y-98552000D03*
G04 #@! TO.P,U2,15*
G04 #@! TO.N,13_SCK0_LED*
X134620000Y-83312000D03*
D20*
G04 #@! TO.P,U2,1*
G04 #@! TO.N,GND*
X101600000Y-98552000D03*
G04 #@! TD*
D19*
G04 #@! TO.P,U5,8*
G04 #@! TO.N,+5V*
X89154000Y-87376000D03*
G04 #@! TO.P,U5,4*
G04 #@! TO.N,N/C*
X96774000Y-94996000D03*
G04 #@! TO.P,U5,7*
X91694000Y-87376000D03*
G04 #@! TO.P,U5,3*
G04 #@! TO.N,Net-(D1-Pad2)*
X94234000Y-94996000D03*
G04 #@! TO.P,U5,6*
G04 #@! TO.N,MIDI_IN*
X94234000Y-87376000D03*
G04 #@! TO.P,U5,2*
G04 #@! TO.N,Net-(D1-Pad1)*
X91694000Y-94996000D03*
G04 #@! TO.P,U5,5*
G04 #@! TO.N,GND*
X96774000Y-87376000D03*
D20*
G04 #@! TO.P,U5,1*
G04 #@! TO.N,N/C*
X89154000Y-94996000D03*
G04 #@! TD*
D13*
G04 #@! TO.P,R6,2*
G04 #@! TO.N,3.3V*
X186749000Y-110237000D03*
D11*
G04 #@! TO.P,R6,1*
G04 #@! TO.N,Net-(JP4-Pad2)*
X179129000Y-110237000D03*
G04 #@! TD*
D13*
G04 #@! TO.P,R7,2*
G04 #@! TO.N,3.3V*
X186749000Y-113287000D03*
D11*
G04 #@! TO.P,R7,1*
G04 #@! TO.N,Net-(JP5-Pad2)*
X179129000Y-113287000D03*
G04 #@! TD*
D16*
G04 #@! TO.P,JP4,2*
G04 #@! TO.N,Net-(JP4-Pad2)*
X174037000Y-110490000D03*
D17*
G04 #@! TO.P,JP4,1*
G04 #@! TO.N,18_A4_SDA0_Touch*
X171497000Y-110490000D03*
G04 #@! TD*
D16*
G04 #@! TO.P,JP5,2*
G04 #@! TO.N,Net-(JP5-Pad2)*
X174037000Y-113284000D03*
D17*
G04 #@! TO.P,JP5,1*
G04 #@! TO.N,19_A5_SCL0_Touch*
X171497000Y-113284000D03*
G04 #@! TD*
D21*
G04 #@! TO.P,J13,*
G04 #@! TO.N,*
X136324340Y-57404040D03*
X130883660Y-57404040D03*
D15*
G04 #@! TO.P,J13,4*
G04 #@! TO.N,GND*
X133604000Y-64132500D03*
G04 #@! TO.P,J13,3*
G04 #@! TO.N,/D+*
X133604000Y-62133520D03*
G04 #@! TO.P,J13,2*
G04 #@! TO.N,/D-*
X133604000Y-60132000D03*
G04 #@! TO.P,J13,1*
G04 #@! TO.N,+5V*
X133604000Y-58133020D03*
D21*
G04 #@! TO.P,J13,*
G04 #@! TO.N,*
X130883660Y-64401740D03*
X136324340Y-64401740D03*
G04 #@! TD*
D16*
G04 #@! TO.P,J10,5*
G04 #@! TO.N,GND*
X138684000Y-69088000D03*
G04 #@! TO.P,J10,4*
X136144000Y-69088000D03*
G04 #@! TO.P,J10,3*
G04 #@! TO.N,/D+*
X133604000Y-69088000D03*
G04 #@! TO.P,J10,2*
G04 #@! TO.N,/D-*
X131064000Y-69088000D03*
D17*
G04 #@! TO.P,J10,1*
G04 #@! TO.N,+5V*
X128524000Y-69088000D03*
G04 #@! TD*
D16*
G04 #@! TO.P,J16,5*
G04 #@! TO.N,29_PWM_cano0tx_Touch*
X188976000Y-122174000D03*
G04 #@! TO.P,J16,4*
G04 #@! TO.N,D28_mosi0*
X186436000Y-122174000D03*
G04 #@! TO.P,J16,3*
G04 #@! TO.N,30_PWM_can0rx_Touch*
X183896000Y-122174000D03*
G04 #@! TO.P,J16,2*
G04 #@! TO.N,GND*
X181356000Y-122174000D03*
D17*
G04 #@! TO.P,J16,1*
X178816000Y-122174000D03*
G04 #@! TD*
D16*
G04 #@! TO.P,J17,5*
G04 #@! TO.N,2_PWM*
X100330000Y-122428000D03*
G04 #@! TO.P,J17,4*
G04 #@! TO.N,3_PWM_CAN0TX_SCL2*
X97790000Y-122428000D03*
G04 #@! TO.P,J17,3*
G04 #@! TO.N,4_PWM_CAN0RX_SDA2*
X95250000Y-122428000D03*
G04 #@! TO.P,J17,2*
G04 #@! TO.N,GND*
X92710000Y-122428000D03*
D17*
G04 #@! TO.P,J17,1*
X90170000Y-122428000D03*
G04 #@! TD*
D16*
G04 #@! TO.P,J18,5*
G04 #@! TO.N,GND*
X188214000Y-65532000D03*
G04 #@! TO.P,J18,4*
X185674000Y-65532000D03*
G04 #@! TO.P,J18,3*
G04 #@! TO.N,Net-(J1-Pad3)*
X183134000Y-65532000D03*
G04 #@! TO.P,J18,2*
G04 #@! TO.N,Net-(J1-Pad2)*
X180594000Y-65532000D03*
D17*
G04 #@! TO.P,J18,1*
G04 #@! TO.N,+5V*
X178054000Y-65532000D03*
G04 #@! TD*
D19*
G04 #@! TO.P,U4,14*
G04 #@! TO.N,+5V*
X145034000Y-92202000D03*
G04 #@! TO.P,U4,7*
G04 #@! TO.N,GND*
X160274000Y-99822000D03*
G04 #@! TO.P,U4,13*
G04 #@! TO.N,MIDI_OUT*
X147574000Y-92202000D03*
G04 #@! TO.P,U4,6*
G04 #@! TO.N,N/C*
X157734000Y-99822000D03*
G04 #@! TO.P,U4,12*
G04 #@! TO.N,Net-(U4-Pad1)*
X150114000Y-92202000D03*
G04 #@! TO.P,U4,5*
G04 #@! TO.N,GND*
X155194000Y-99822000D03*
G04 #@! TO.P,U4,11*
G04 #@! TO.N,MIDI_IN*
X152654000Y-92202000D03*
G04 #@! TO.P,U4,4*
G04 #@! TO.N,Net-(R8-Pad2)*
X152654000Y-99822000D03*
G04 #@! TO.P,U4,10*
G04 #@! TO.N,Net-(U4-Pad10)*
X155194000Y-92202000D03*
G04 #@! TO.P,U4,3*
X150114000Y-99822000D03*
G04 #@! TO.P,U4,9*
G04 #@! TO.N,GND*
X157734000Y-92202000D03*
G04 #@! TO.P,U4,2*
G04 #@! TO.N,Net-(R3-Pad2)*
X147574000Y-99822000D03*
G04 #@! TO.P,U4,8*
G04 #@! TO.N,N/C*
X160274000Y-92202000D03*
D20*
G04 #@! TO.P,U4,1*
G04 #@! TO.N,Net-(U4-Pad1)*
X145034000Y-99822000D03*
G04 #@! TD*
D16*
G04 #@! TO.P,J19,3*
G04 #@! TO.N,Net-(J19-Pad3)*
X99060000Y-68326000D03*
G04 #@! TO.P,J19,2*
G04 #@! TO.N,GND*
X96520000Y-68326000D03*
D17*
G04 #@! TO.P,J19,1*
G04 #@! TO.N,Net-(J19-Pad1)*
X93980000Y-68326000D03*
G04 #@! TD*
D13*
G04 #@! TO.P,R8,2*
G04 #@! TO.N,Net-(R8-Pad2)*
X94234000Y-78994000D03*
D11*
G04 #@! TO.P,R8,1*
G04 #@! TO.N,Net-(J19-Pad1)*
X94234000Y-71374000D03*
G04 #@! TD*
D13*
G04 #@! TO.P,R9,2*
G04 #@! TO.N,+5V*
X99060000Y-78994000D03*
D11*
G04 #@! TO.P,R9,1*
G04 #@! TO.N,Net-(J19-Pad3)*
X99060000Y-71374000D03*
G04 #@! TD*
D16*
G04 #@! TO.P,J8,4*
G04 #@! TO.N,Net-(J8-Pad4)*
X152400000Y-65786000D03*
G04 #@! TO.P,J8,3*
G04 #@! TO.N,GND*
X149860000Y-65786000D03*
G04 #@! TO.P,J8,2*
X147320000Y-65786000D03*
D17*
G04 #@! TO.P,J8,1*
G04 #@! TO.N,Net-(J8-Pad1)*
X144780000Y-65786000D03*
G04 #@! TD*
D22*
G04 #@! TO.P,J9,1*
G04 #@! TO.N,Net-(J8-Pad4)*
X152690000Y-55753000D03*
G04 #@! TO.P,J9,3*
G04 #@! TO.N,GND*
X148590000Y-51689000D03*
G04 #@! TO.P,J9,2*
G04 #@! TO.N,Net-(J8-Pad1)*
X144526000Y-54727000D03*
G04 #@! TD*
G04 #@! TO.P,J11,1*
G04 #@! TO.N,Net-(J11-Pad1)*
X171740000Y-55753000D03*
G04 #@! TO.P,J11,3*
G04 #@! TO.N,GND*
X167640000Y-51689000D03*
G04 #@! TO.P,J11,2*
G04 #@! TO.N,Net-(J11-Pad2)*
X163576000Y-54727000D03*
G04 #@! TD*
D16*
G04 #@! TO.P,J2,18*
G04 #@! TO.N,30_PWM_can0rx_Touch*
X110490000Y-110490000D03*
G04 #@! TO.P,J2,17*
G04 #@! TO.N,GND*
X110490000Y-113030000D03*
G04 #@! TO.P,J2,16*
G04 #@! TO.N,D28_mosi0*
X107950000Y-110490000D03*
G04 #@! TO.P,J2,15*
G04 #@! TO.N,GND*
X107950000Y-113030000D03*
G04 #@! TO.P,J2,14*
G04 #@! TO.N,29_PWM_cano0tx_Touch*
X105410000Y-110490000D03*
G04 #@! TO.P,J2,13*
G04 #@! TO.N,GND*
X105410000Y-113030000D03*
G04 #@! TO.P,J2,12*
G04 #@! TO.N,25*
X102870000Y-110490000D03*
G04 #@! TO.P,J2,11*
G04 #@! TO.N,GND*
X102870000Y-113030000D03*
G04 #@! TO.P,J2,10*
G04 #@! TO.N,24*
X100330000Y-110490000D03*
G04 #@! TO.P,J2,9*
G04 #@! TO.N,GND*
X100330000Y-113030000D03*
G04 #@! TO.P,J2,8*
G04 #@! TO.N,5_PWM_tx1_miso1*
X97790000Y-110490000D03*
G04 #@! TO.P,J2,7*
G04 #@! TO.N,GND*
X97790000Y-113030000D03*
G04 #@! TO.P,J2,6*
G04 #@! TO.N,4_PWM_CAN0RX_SDA2*
X95250000Y-110490000D03*
G04 #@! TO.P,J2,5*
G04 #@! TO.N,GND*
X95250000Y-113030000D03*
G04 #@! TO.P,J2,4*
G04 #@! TO.N,3_PWM_CAN0TX_SCL2*
X92710000Y-110490000D03*
G04 #@! TO.P,J2,3*
G04 #@! TO.N,GND*
X92710000Y-113030000D03*
G04 #@! TO.P,J2,2*
G04 #@! TO.N,2_PWM*
X90170000Y-110490000D03*
D17*
G04 #@! TO.P,J2,1*
G04 #@! TO.N,GND*
X90170000Y-113030000D03*
G04 #@! TD*
D15*
G04 #@! TO.P,C6,2*
G04 #@! TO.N,GND*
X189484000Y-83820000D03*
G04 #@! TO.P,C6,1*
G04 #@! TO.N,+5V*
X184404000Y-83820000D03*
G04 #@! TD*
D23*
G04 #@! TO.N,21_A7_PWM_CS0_modi1_rx1*
X125814300Y-111760000D03*
G04 #@! TO.N,18_A4_SDA0_Touch*
X120714600Y-106807300D03*
G04 #@! TO.N,19_A5_SCL0_Touch*
X121357000Y-116910500D03*
G04 #@! TO.N,13_SCK0_LED*
X151496900Y-116889300D03*
G04 #@! TD*
D24*
G04 #@! TO.N,GND*
X186944000Y-79502000D02*
X186944000Y-76962000D01*
X189484000Y-83820000D02*
X186944000Y-81280000D01*
X186944000Y-81280000D02*
X186944000Y-79502000D01*
X184404000Y-93218000D02*
X184404000Y-99314000D01*
X178242100Y-87056100D02*
X184404000Y-93218000D01*
X179832000Y-79502000D02*
X179832000Y-80702300D01*
X178242100Y-87056100D02*
X178242100Y-82292200D01*
X178242100Y-82292200D02*
X179832000Y-80702300D01*
X178242100Y-87056100D02*
X178159900Y-87056100D01*
X178159900Y-87056100D02*
X176022000Y-89194000D01*
X179832000Y-76962000D02*
X179832000Y-79502000D01*
X100330000Y-113030000D02*
X102870000Y-113030000D01*
X148590000Y-51689000D02*
X148590000Y-53089300D01*
X147320000Y-65786000D02*
X147320000Y-54359300D01*
X147320000Y-54359300D02*
X148590000Y-53089300D01*
X96774000Y-87376000D02*
X96774000Y-88926300D01*
X96774000Y-88926300D02*
X101600000Y-93752300D01*
X101600000Y-93752300D02*
X101600000Y-98552000D01*
X90170000Y-113030000D02*
X90170000Y-122428000D01*
X102870000Y-113030000D02*
X105410000Y-113030000D01*
X186944000Y-74422000D02*
X186944000Y-71882000D01*
X179832000Y-74422000D02*
X179832000Y-71882000D01*
X179832000Y-76962000D02*
X179832000Y-74422000D01*
X179832000Y-71882000D02*
X178631700Y-71882000D01*
X168656000Y-65786000D02*
X169856300Y-65786000D01*
X169856300Y-65786000D02*
X169856300Y-66161200D01*
X169856300Y-66161200D02*
X170681400Y-66986300D01*
X170681400Y-66986300D02*
X174109000Y-66986300D01*
X174109000Y-66986300D02*
X178631700Y-71509000D01*
X178631700Y-71509000D02*
X178631700Y-71882000D01*
X92710000Y-122428000D02*
X93910300Y-122428000D01*
X111252000Y-137668000D02*
X111252000Y-136117700D01*
X111252000Y-136117700D02*
X107226900Y-136117700D01*
X107226900Y-136117700D02*
X93910300Y-122801100D01*
X93910300Y-122801100D02*
X93910300Y-122428000D01*
X185674000Y-65532000D02*
X185674000Y-66732300D01*
X185674000Y-66732300D02*
X186944000Y-68002300D01*
X186944000Y-68002300D02*
X186944000Y-71882000D01*
X157734000Y-95731700D02*
X160274000Y-98271700D01*
X157734000Y-92202000D02*
X157734000Y-95731700D01*
X155194000Y-98271700D02*
X157734000Y-95731700D01*
X155194000Y-99822000D02*
X155194000Y-98271700D01*
X160274000Y-99822000D02*
X160274000Y-98271700D01*
G04 #@! TO.N,+5V*
X111252000Y-122428000D02*
X111252000Y-120877700D01*
X89154000Y-87376000D02*
X89154000Y-88926300D01*
X89154000Y-88926300D02*
X92964000Y-92736300D01*
X92964000Y-92736300D02*
X92964000Y-100452800D01*
X92964000Y-100452800D02*
X101708000Y-109196800D01*
X101708000Y-109196800D02*
X103336700Y-109196800D01*
X103336700Y-109196800D02*
X104209600Y-110069700D01*
X104209600Y-110069700D02*
X104209600Y-111003100D01*
X104209600Y-111003100D02*
X105036100Y-111829600D01*
X105036100Y-111829600D02*
X105923100Y-111829600D01*
X105923100Y-111829600D02*
X106680000Y-112586500D01*
X106680000Y-112586500D02*
X106680000Y-116305700D01*
X106680000Y-116305700D02*
X111252000Y-120877700D01*
X89154000Y-86942500D02*
X89154000Y-87376000D01*
X89154000Y-86942500D02*
X89154000Y-85825700D01*
X145034000Y-90651700D02*
X129566300Y-75184000D01*
X129566300Y-75184000D02*
X128524000Y-75184000D01*
X145034000Y-92202000D02*
X145034000Y-90651700D01*
X128524000Y-75184000D02*
X118498300Y-75184000D01*
X118498300Y-75184000D02*
X114688300Y-78994000D01*
X128524000Y-75184000D02*
X128524000Y-70288300D01*
X113538000Y-78994000D02*
X114688300Y-78994000D01*
X128524000Y-69088000D02*
X128524000Y-70288300D01*
X184404000Y-88138000D02*
X184404000Y-83820000D01*
X184404000Y-83820000D02*
X184404000Y-80702300D01*
X184404000Y-79502000D02*
X184404000Y-80702300D01*
X184404000Y-71882000D02*
X183203700Y-71882000D01*
X178054000Y-65532000D02*
X178054000Y-66732300D01*
X178054000Y-66732300D02*
X183203700Y-71882000D01*
X178054000Y-64933800D02*
X178054000Y-65532000D01*
X178054000Y-64933800D02*
X178054000Y-64331700D01*
X184404000Y-74422000D02*
X184404000Y-71882000D01*
X184404000Y-76962000D02*
X184404000Y-74422000D01*
X184404000Y-79502000D02*
X184404000Y-76962000D01*
X99060000Y-78994000D02*
X97909700Y-78994000D01*
X89154000Y-85825700D02*
X91078000Y-85825700D01*
X91078000Y-85825700D02*
X97909700Y-78994000D01*
X128524000Y-69088000D02*
X128524000Y-63213000D01*
X128524000Y-63213000D02*
X133604000Y-58133000D01*
X178054000Y-64331700D02*
X178416100Y-64331700D01*
X178416100Y-64331700D02*
X182397400Y-60350400D01*
G04 #@! TO.N,Net-(C2-Pad1)*
X142748000Y-79502000D02*
X143898300Y-79502000D01*
X176022000Y-92269100D02*
X174276500Y-90523600D01*
X174276500Y-90523600D02*
X154919900Y-90523600D01*
X154919900Y-90523600D02*
X143898300Y-79502000D01*
X176022000Y-92269100D02*
X176022000Y-92844300D01*
X176022000Y-91694000D02*
X176022000Y-92269100D01*
X176022000Y-92844300D02*
X179324000Y-96146300D01*
X179324000Y-96146300D02*
X179324000Y-99314000D01*
G04 #@! TO.N,Net-(C3-Pad2)*
X156464000Y-71882000D02*
X164064000Y-71882000D01*
X164064000Y-71882000D02*
X168402000Y-76220000D01*
G04 #@! TO.N,Net-(C4-Pad2)*
X153670000Y-71882000D02*
X153670000Y-73082300D01*
X153670000Y-73082300D02*
X154045200Y-73082300D01*
X154045200Y-73082300D02*
X154870300Y-73907400D01*
X154870300Y-73907400D02*
X154870300Y-75896300D01*
X154870300Y-75896300D02*
X168148000Y-89174000D01*
G04 #@! TO.N,Net-(D1-Pad1)*
X91694000Y-94996000D02*
X91694000Y-96546300D01*
X91694000Y-96546300D02*
X89408000Y-98832300D01*
X89408000Y-98832300D02*
X89408000Y-102870000D01*
G04 #@! TO.N,Net-(D1-Pad2)*
X94234000Y-94996000D02*
X94234000Y-93445700D01*
X103552000Y-60110000D02*
X104290100Y-60848100D01*
X104290100Y-60848100D02*
X104290100Y-76904800D01*
X104290100Y-76904800D02*
X95429300Y-85765600D01*
X95429300Y-85765600D02*
X95429300Y-92250400D01*
X95429300Y-92250400D02*
X94234000Y-93445700D01*
X97028000Y-102870000D02*
X97028000Y-101719700D01*
X94234000Y-94996000D02*
X94234000Y-98925700D01*
X94234000Y-98925700D02*
X97028000Y-101719700D01*
G04 #@! TO.N,Net-(J1-Pad3)*
X183134000Y-65532000D02*
X183134000Y-64331700D01*
X183134000Y-64331700D02*
X185995800Y-61469900D01*
X185995800Y-61469900D02*
X185995800Y-59453000D01*
X185995800Y-59453000D02*
X184886600Y-58343800D01*
G04 #@! TO.N,Net-(J1-Pad2)*
X180594000Y-65532000D02*
X180594000Y-64331700D01*
X180594000Y-64331700D02*
X180905300Y-64331700D01*
X180905300Y-64331700D02*
X184886600Y-60350400D01*
G04 #@! TO.N,2_PWM*
X101530300Y-122428000D02*
X105182300Y-122428000D01*
X105182300Y-122428000D02*
X118872000Y-136117700D01*
X100330000Y-122428000D02*
X101530300Y-122428000D01*
X118872000Y-137668000D02*
X118872000Y-136117700D01*
G04 #@! TO.N,6_PWM*
X129032000Y-137668000D02*
X129032000Y-136117700D01*
X119380000Y-98552000D02*
X119380000Y-106993500D01*
X119380000Y-106993500D02*
X121088400Y-108701900D01*
X121088400Y-108701900D02*
X121088400Y-114316100D01*
X121088400Y-114316100D02*
X122782000Y-116009700D01*
X122782000Y-116009700D02*
X122782000Y-129867700D01*
X122782000Y-129867700D02*
X129032000Y-136117700D01*
G04 #@! TO.N,MIDI_IN*
X156210000Y-113030000D02*
X156210000Y-111829700D01*
X152654000Y-92202000D02*
X152654000Y-93752300D01*
X152654000Y-93752300D02*
X148963400Y-97442900D01*
X148963400Y-97442900D02*
X148963400Y-104958200D01*
X148963400Y-104958200D02*
X155834900Y-111829700D01*
X155834900Y-111829700D02*
X156210000Y-111829700D01*
X94234000Y-87376000D02*
X94234000Y-85825700D01*
X94234000Y-85825700D02*
X103124000Y-76935700D01*
X103124000Y-76935700D02*
X103124000Y-74422000D01*
G04 #@! TO.N,MIDI_OUT*
X116332000Y-137668000D02*
X116332000Y-139218300D01*
X156210000Y-110490000D02*
X157410300Y-110490000D01*
X157410300Y-110490000D02*
X157410300Y-110114900D01*
X157410300Y-110114900D02*
X158285400Y-109239800D01*
X158285400Y-109239800D02*
X159220000Y-109239800D01*
X159220000Y-109239800D02*
X160019900Y-110039700D01*
X160019900Y-110039700D02*
X160019900Y-117952900D01*
X160019900Y-117952900D02*
X158242000Y-119730800D01*
X158242000Y-119730800D02*
X158242000Y-124793600D01*
X158242000Y-124793600D02*
X148082000Y-134953600D01*
X148082000Y-134953600D02*
X148082000Y-138485700D01*
X148082000Y-138485700D02*
X146837800Y-139729900D01*
X146837800Y-139729900D02*
X116843600Y-139729900D01*
X116843600Y-139729900D02*
X116332000Y-139218300D01*
G04 #@! TO.N,3.3V*
X110744000Y-74422000D02*
X110744000Y-75572300D01*
X116332000Y-122428000D02*
X116332000Y-120877700D01*
X116332000Y-120877700D02*
X109220000Y-113765700D01*
X109220000Y-113765700D02*
X109220000Y-100752200D01*
X109220000Y-100752200D02*
X108062800Y-99595000D01*
X108062800Y-99595000D02*
X108062800Y-78253500D01*
X108062800Y-78253500D02*
X110744000Y-75572300D01*
X177292000Y-74422000D02*
X177292000Y-71882000D01*
X177292000Y-76962000D02*
X177292000Y-74422000D01*
X177292000Y-79502000D02*
X177292000Y-76962000D01*
X186749000Y-113287000D02*
X186749000Y-110237000D01*
G04 #@! TO.N,Net-(J8-Pad1)*
X144526000Y-54727000D02*
X144526000Y-56127300D01*
X144526000Y-56127300D02*
X144780000Y-56381300D01*
X144780000Y-56381300D02*
X144780000Y-65786000D01*
G04 #@! TO.N,Net-(J11-Pad2)*
X156464000Y-74422000D02*
X156464000Y-73221700D01*
X156464000Y-73221700D02*
X155563800Y-73221700D01*
X155563800Y-73221700D02*
X155263600Y-72921500D01*
X155263600Y-72921500D02*
X155263600Y-70884900D01*
X155263600Y-70884900D02*
X160362500Y-65786000D01*
X160362500Y-65786000D02*
X163576000Y-65786000D01*
G04 #@! TO.N,Net-(J11-Pad1)*
X171196000Y-65786000D02*
X171196000Y-64585700D01*
X171740000Y-55753000D02*
X171740000Y-64041700D01*
X171740000Y-64041700D02*
X171196000Y-64585700D01*
G04 #@! TO.N,Net-(J14-Pad4)*
X113538000Y-71374000D02*
X113618000Y-71294000D01*
X113618000Y-71294000D02*
X113618000Y-60110000D01*
G04 #@! TO.N,Net-(J14-Pad5)*
X123698000Y-71374000D02*
X123698000Y-60190000D01*
X123698000Y-60190000D02*
X123618000Y-60110000D01*
G04 #@! TO.N,Net-(J15-Pad4)*
X89408000Y-71374000D02*
X89408000Y-64254000D01*
X89408000Y-64254000D02*
X93552000Y-60110000D01*
G04 #@! TO.N,11_MOSI0*
X141732000Y-137668000D02*
X141732000Y-136117700D01*
X132080000Y-98552000D02*
X132080000Y-100102300D01*
X132080000Y-100102300D02*
X136398000Y-104420300D01*
X136398000Y-104420300D02*
X136398000Y-118206800D01*
X136398000Y-118206800D02*
X137922000Y-119730800D01*
X137922000Y-119730800D02*
X137922000Y-132307700D01*
X137922000Y-132307700D02*
X141732000Y-136117700D01*
G04 #@! TO.N,3_PWM_CAN0TX_SCL2*
X121412000Y-137668000D02*
X121412000Y-136117700D01*
X97790000Y-121227700D02*
X104971700Y-121227700D01*
X104971700Y-121227700D02*
X119861700Y-136117700D01*
X119861700Y-136117700D02*
X121412000Y-136117700D01*
X97790000Y-121352800D02*
X97790000Y-121227700D01*
X97790000Y-122428000D02*
X97790000Y-121352800D01*
X92710000Y-110490000D02*
X92710000Y-111690300D01*
X92710000Y-111690300D02*
X93085200Y-111690300D01*
X93085200Y-111690300D02*
X93910300Y-112515400D01*
X93910300Y-112515400D02*
X93910300Y-117348000D01*
X93910300Y-117348000D02*
X97790000Y-121227700D01*
G04 #@! TO.N,4_PWM_CAN0RX_SDA2*
X95250000Y-122428000D02*
X95250000Y-121227700D01*
X95250000Y-110490000D02*
X94049700Y-110490000D01*
X94049700Y-110490000D02*
X94049700Y-110114900D01*
X94049700Y-110114900D02*
X93223100Y-109288300D01*
X93223100Y-109288300D02*
X92195300Y-109288300D01*
X92195300Y-109288300D02*
X91505200Y-109978400D01*
X91505200Y-109978400D02*
X91505200Y-117482900D01*
X91505200Y-117482900D02*
X95250000Y-121227700D01*
G04 #@! TO.N,5_PWM_tx1_miso1*
X97790000Y-110490000D02*
X97790000Y-111690300D01*
X97790000Y-111690300D02*
X98165200Y-111690300D01*
X98165200Y-111690300D02*
X98990300Y-112515400D01*
X98990300Y-112515400D02*
X98990300Y-113459200D01*
X98990300Y-113459200D02*
X121141800Y-135610700D01*
X121141800Y-135610700D02*
X124434700Y-135610700D01*
X124434700Y-135610700D02*
X126492000Y-137668000D01*
G04 #@! TO.N,D28_mosi0*
X159512000Y-137668000D02*
X159512000Y-139218300D01*
X186436000Y-122174000D02*
X186436000Y-123654800D01*
X186436000Y-123654800D02*
X170364200Y-139726600D01*
X170364200Y-139726600D02*
X160020300Y-139726600D01*
X160020300Y-139726600D02*
X159512000Y-139218300D01*
G04 #@! TO.N,30_PWM_can0rx_Touch*
X164592000Y-137668000D02*
X164592000Y-139218300D01*
X164592000Y-139218300D02*
X170152800Y-139218300D01*
X170152800Y-139218300D02*
X183896000Y-125475100D01*
X183896000Y-125475100D02*
X183896000Y-122174000D01*
G04 #@! TO.N,AGND*
X127508000Y-113030000D02*
X127508000Y-114230300D01*
X113792000Y-122428000D02*
X113792000Y-123978300D01*
X113792000Y-123978300D02*
X114857800Y-123978300D01*
X114857800Y-123978300D02*
X127762000Y-136882500D01*
X127762000Y-136882500D02*
X127762000Y-138441300D01*
X127762000Y-138441300D02*
X128550200Y-139229500D01*
X128550200Y-139229500D02*
X129572600Y-139229500D01*
X129572600Y-139229500D02*
X130182400Y-138619700D01*
X130182400Y-138619700D02*
X130182400Y-135081800D01*
X130182400Y-135081800D02*
X127881600Y-132781000D01*
X127881600Y-132781000D02*
X127881600Y-114603900D01*
X127881600Y-114603900D02*
X127508000Y-114230300D01*
X142748000Y-113030000D02*
X145288000Y-113030000D01*
G04 #@! TO.N,20_A6_PWM_SC0_sck1*
X127508000Y-110490000D02*
X127508000Y-111690300D01*
X126492000Y-122428000D02*
X126492000Y-120877700D01*
X126492000Y-120877700D02*
X126300500Y-120686200D01*
X126300500Y-120686200D02*
X126300500Y-112524700D01*
X126300500Y-112524700D02*
X127134900Y-111690300D01*
X127134900Y-111690300D02*
X127508000Y-111690300D01*
G04 #@! TO.N,21_A7_PWM_CS0_modi1_rx1*
X125814300Y-111760000D02*
X124531200Y-111760000D01*
X124531200Y-111760000D02*
X123767700Y-112523500D01*
X123767700Y-112523500D02*
X123767700Y-120693400D01*
X123767700Y-120693400D02*
X123952000Y-120877700D01*
X123952000Y-122428000D02*
X123952000Y-120877700D01*
G04 #@! TO.N,39_A20*
X143948300Y-110490000D02*
X143948300Y-110116900D01*
X143948300Y-110116900D02*
X145290200Y-108775000D01*
X145290200Y-108775000D02*
X148568700Y-108775000D01*
X148568700Y-108775000D02*
X150746600Y-110952900D01*
X150746600Y-110952900D02*
X150746600Y-117200000D01*
X150746600Y-117200000D02*
X154424300Y-120877700D01*
X154424300Y-120877700D02*
X154432000Y-120877700D01*
X154432000Y-122428000D02*
X154432000Y-120877700D01*
X142748000Y-110490000D02*
X143948300Y-110490000D01*
G04 #@! TO.N,A21_DAC0*
X151892000Y-120877700D02*
X150028000Y-119013700D01*
X150028000Y-119013700D02*
X150028000Y-110941800D01*
X150028000Y-110941800D02*
X148361500Y-109275300D01*
X148361500Y-109275300D02*
X147329900Y-109275300D01*
X147329900Y-109275300D02*
X146488300Y-110116900D01*
X146488300Y-110116900D02*
X146488300Y-110490000D01*
X145288000Y-110490000D02*
X146488300Y-110490000D01*
X151892000Y-122428000D02*
X151892000Y-120877700D01*
G04 #@! TO.N,A22_DAC1*
X147828000Y-110490000D02*
X147828000Y-111690300D01*
X149352000Y-122428000D02*
X149352000Y-112856300D01*
X149352000Y-112856300D02*
X148186000Y-111690300D01*
X148186000Y-111690300D02*
X147828000Y-111690300D01*
G04 #@! TO.N,7_RX3_mosi0_scl0*
X131572000Y-136117700D02*
X131572000Y-135410200D01*
X131572000Y-135410200D02*
X130182400Y-134020600D01*
X130182400Y-134020600D02*
X130182400Y-116904700D01*
X130182400Y-116904700D02*
X128778000Y-115500300D01*
X128778000Y-115500300D02*
X128778000Y-106960300D01*
X128778000Y-106960300D02*
X121920000Y-100102300D01*
X131572000Y-137668000D02*
X131572000Y-136117700D01*
X121920000Y-98552000D02*
X121920000Y-100102300D01*
G04 #@! TO.N,8_TX3_miso0_sda0*
X158750000Y-110490000D02*
X158750000Y-111690300D01*
X134112000Y-137668000D02*
X134112000Y-139218300D01*
X134112000Y-139218300D02*
X144772100Y-139218300D01*
X144772100Y-139218300D02*
X145422400Y-138568000D01*
X145422400Y-138568000D02*
X145422400Y-133637800D01*
X145422400Y-133637800D02*
X155702000Y-123358200D01*
X155702000Y-123358200D02*
X155702000Y-117185700D01*
X155702000Y-117185700D02*
X157549400Y-115338300D01*
X157549400Y-115338300D02*
X157549400Y-112517800D01*
X157549400Y-112517800D02*
X158376900Y-111690300D01*
X158376900Y-111690300D02*
X158750000Y-111690300D01*
G04 #@! TO.N,31_A12_RX4_CS1*
X167132000Y-137668000D02*
X167132000Y-136117700D01*
X167132000Y-136117700D02*
X163322000Y-132307700D01*
X163322000Y-132307700D02*
X163322000Y-116969600D01*
X163322000Y-116969600D02*
X161290000Y-114937600D01*
X161290000Y-114937600D02*
X161290000Y-113030000D01*
G04 #@! TO.N,32_A13_TX4_SCK1*
X161290000Y-110490000D02*
X161290000Y-111690300D01*
X169672000Y-137668000D02*
X169672000Y-136117700D01*
X169672000Y-136117700D02*
X165862000Y-132307700D01*
X165862000Y-132307700D02*
X165862000Y-118031100D01*
X165862000Y-118031100D02*
X162560000Y-114729100D01*
X162560000Y-114729100D02*
X162560000Y-112587300D01*
X162560000Y-112587300D02*
X161663000Y-111690300D01*
X161663000Y-111690300D02*
X161290000Y-111690300D01*
G04 #@! TO.N,34_A15_CAN1RX_sda0_RX5*
X163830000Y-113030000D02*
X163830000Y-114230300D01*
X167132000Y-122428000D02*
X167132000Y-117532300D01*
X167132000Y-117532300D02*
X163830000Y-114230300D01*
G04 #@! TO.N,33_A14_CAN1TX_scl0_TX5*
X163830000Y-110490000D02*
X163830000Y-111690300D01*
X169672000Y-122428000D02*
X169672000Y-117159300D01*
X169672000Y-117159300D02*
X164203000Y-111690300D01*
X164203000Y-111690300D02*
X163830000Y-111690300D01*
G04 #@! TO.N,18_A4_SDA0_Touch*
X121920000Y-84862300D02*
X120714600Y-86067700D01*
X120714600Y-86067700D02*
X120714600Y-106807300D01*
X121920000Y-83312000D02*
X121920000Y-84862300D01*
G04 #@! TO.N,19_A5_SCL0_Touch*
X121357000Y-116910500D02*
X118164200Y-113717700D01*
X118164200Y-113717700D02*
X118164200Y-86078100D01*
X118164200Y-86078100D02*
X119380000Y-84862300D01*
X119380000Y-83312000D02*
X119380000Y-84862300D01*
X183896000Y-118110000D02*
X182695700Y-118110000D01*
X171497000Y-113284000D02*
X172697300Y-113284000D01*
X172697300Y-113284000D02*
X172697300Y-113659200D01*
X172697300Y-113659200D02*
X173522400Y-114484300D01*
X173522400Y-114484300D02*
X179443000Y-114484300D01*
X179443000Y-114484300D02*
X182695700Y-117737000D01*
X182695700Y-117737000D02*
X182695700Y-118110000D01*
G04 #@! TO.N,9_PWM_RX2_CS0*
X136652000Y-137668000D02*
X136652000Y-136117700D01*
X127000000Y-98552000D02*
X127000000Y-100102300D01*
X127000000Y-100102300D02*
X131265700Y-104368000D01*
X131265700Y-104368000D02*
X131265700Y-119166600D01*
X131265700Y-119166600D02*
X132842000Y-120742900D01*
X132842000Y-120742900D02*
X132842000Y-132307700D01*
X132842000Y-132307700D02*
X136652000Y-136117700D01*
G04 #@! TO.N,13_SCK0_LED*
X134620000Y-84862300D02*
X142048200Y-92290500D01*
X142048200Y-92290500D02*
X142048200Y-100631300D01*
X142048200Y-100631300D02*
X151496900Y-110080000D01*
X151496900Y-110080000D02*
X151496900Y-116889300D01*
X134620000Y-83312000D02*
X134620000Y-84862300D01*
G04 #@! TO.N,10_PWM_TX2_CS0*
X139192000Y-137668000D02*
X139192000Y-136117700D01*
X129540000Y-98552000D02*
X129540000Y-100102300D01*
X129540000Y-100102300D02*
X133858000Y-104420300D01*
X133858000Y-104420300D02*
X133858000Y-118206800D01*
X133858000Y-118206800D02*
X135382000Y-119730800D01*
X135382000Y-119730800D02*
X135382000Y-132307700D01*
X135382000Y-132307700D02*
X139192000Y-136117700D01*
G04 #@! TO.N,14_A0_PWM_sck0*
X141732000Y-122428000D02*
X141732000Y-120877700D01*
X132080000Y-83312000D02*
X132080000Y-84862300D01*
X132080000Y-84862300D02*
X141451300Y-94233600D01*
X141451300Y-94233600D02*
X141451300Y-120597000D01*
X141451300Y-120597000D02*
X141732000Y-120877700D01*
G04 #@! TO.N,12_MIDO0*
X144272000Y-137668000D02*
X144272000Y-136117700D01*
X134620000Y-98552000D02*
X134620000Y-100102300D01*
X134620000Y-100102300D02*
X138875200Y-104357500D01*
X138875200Y-104357500D02*
X138875200Y-119156100D01*
X138875200Y-119156100D02*
X140462000Y-120742900D01*
X140462000Y-120742900D02*
X140462000Y-132307700D01*
X140462000Y-132307700D02*
X144272000Y-136117700D01*
G04 #@! TO.N,22_A8_PWM_Touch*
X121412000Y-122428000D02*
X121412000Y-120877700D01*
X111760000Y-83312000D02*
X111760000Y-84862300D01*
X111760000Y-84862300D02*
X115570000Y-88672300D01*
X115570000Y-88672300D02*
X115570000Y-115035700D01*
X115570000Y-115035700D02*
X121412000Y-120877700D01*
G04 #@! TO.N,23_A9_PWM_Touch*
X118872000Y-122428000D02*
X118872000Y-120877700D01*
X109220000Y-83312000D02*
X109220000Y-84862300D01*
X109220000Y-84862300D02*
X113030000Y-88672300D01*
X113030000Y-88672300D02*
X113030000Y-115035700D01*
X113030000Y-115035700D02*
X118872000Y-120877700D01*
G04 #@! TO.N,/D+*
X133604000Y-69088000D02*
X133604000Y-67887700D01*
X133604000Y-67887700D02*
X134724500Y-66767200D01*
X134724500Y-66767200D02*
X134724500Y-63254000D01*
X134724500Y-63254000D02*
X133604000Y-62133500D01*
G04 #@! TO.N,/D-*
X131064000Y-69088000D02*
X131064000Y-67887700D01*
X131064000Y-67887700D02*
X132356100Y-66595600D01*
X132356100Y-66595600D02*
X132356100Y-61379900D01*
X132356100Y-61379900D02*
X133604000Y-60132000D01*
G04 #@! TO.N,Net-(R3-Pad2)*
X147574000Y-101372300D02*
X144088400Y-101372300D01*
X144088400Y-101372300D02*
X143635800Y-100919700D01*
X143635800Y-100919700D02*
X143635800Y-90293000D01*
X143635800Y-90293000D02*
X132336800Y-78994000D01*
X132336800Y-78994000D02*
X123698000Y-78994000D01*
X147574000Y-99822000D02*
X147574000Y-101372300D01*
G04 #@! TO.N,Net-(U4-Pad1)*
X150114000Y-92202000D02*
X150114000Y-93752300D01*
X145034000Y-99822000D02*
X145034000Y-98271700D01*
X145034000Y-98271700D02*
X149553400Y-93752300D01*
X149553400Y-93752300D02*
X150114000Y-93752300D01*
G04 #@! TO.N,Net-(U4-Pad10)*
X155194000Y-92202000D02*
X155194000Y-93752300D01*
X150114000Y-99822000D02*
X150114000Y-98271700D01*
X150114000Y-98271700D02*
X154633400Y-93752300D01*
X154633400Y-93752300D02*
X155194000Y-93752300D01*
G04 #@! TO.N,Net-(J8-Pad4)*
X152690000Y-55753000D02*
X152690000Y-57153300D01*
X152690000Y-57153300D02*
X152400000Y-57443300D01*
X152400000Y-57443300D02*
X152400000Y-65786000D01*
G04 #@! TD*
M02*
