EESchema Schematic File Version 4
EELAYER 30 0
EELAYER END
$Descr A4 11693 8268
encoding utf-8
Sheet 1 1
Title "Teensy MIDI Audio"
Date "2018-07-29"
Rev "9"
Comp "parasiTstudio"
Comment1 ""
Comment2 ""
Comment3 ""
Comment4 ""
$EndDescr
Text GLabel 1850 3050 0    50   Input ~ 0
9_PWM_RX2_CS0
Text GLabel 4650 3350 2    50   Input ~ 0
13_SCK0_LED
Text GLabel 4650 3550 2    50   Input ~ 0
A22_DAC1
Wire Wire Line
	1850 3050 2050 3050
$Comp
L Device:R R2
U 1 1 5B5DC280
P 9500 2050
F 0 "R2" V 9600 2050 50  0000 C CNN
F 1 "10R" V 9500 2050 50  0000 C CNN
F 2 "Resistor_THT:R_Axial_DIN0207_L6.3mm_D2.5mm_P7.62mm_Horizontal" V 9430 2050 50  0001 C CNN
F 3 "~" H 9500 2050 50  0001 C CNN
	1    9500 2050
	-1   0    0    1   
$EndComp
$Comp
L Device:CP C5
U 1 1 5B5DC339
P 9150 1800
F 0 "C5" H 9268 1846 50  0000 L CNN
F 1 "47uF" H 9268 1755 50  0000 L CNN
F 2 "w_capacitors:CP_6.3x11mm" H 9188 1650 50  0001 C CNN
F 3 "~" H 9150 1800 50  0001 C CNN
	1    9150 1800
	1    0    0    -1  
$EndComp
$Comp
L power:GND #PWR026
U 1 1 5B5DC74B
P 8700 1950
F 0 "#PWR026" H 8700 1700 50  0001 C CNN
F 1 "GND" H 8705 1777 50  0000 C CNN
F 2 "" H 8700 1950 50  0001 C CNN
F 3 "" H 8700 1950 50  0001 C CNN
	1    8700 1950
	1    0    0    -1  
$EndComp
$Comp
L power:GND #PWR027
U 1 1 5B5DC77C
P 9150 1950
F 0 "#PWR027" H 9150 1700 50  0001 C CNN
F 1 "GND" H 9155 1777 50  0000 C CNN
F 2 "" H 9150 1950 50  0001 C CNN
F 3 "" H 9150 1950 50  0001 C CNN
	1    9150 1950
	1    0    0    -1  
$EndComp
$Comp
L Device:CP C3
U 1 1 5B5DD0B0
P 9000 1000
F 0 "C3" V 9255 1000 50  0000 C CNN
F 1 "47uF" V 9164 1000 50  0000 C CNN
F 2 "w_capacitors:CP_6.3x11mm" H 9038 850 50  0001 C CNN
F 3 "~" H 9000 1000 50  0001 C CNN
	1    9000 1000
	0    -1   -1   0   
$EndComp
$Comp
L Connector:DIN-5_180degree J15
U 1 1 5B5DDC51
P 10450 5050
F 0 "J15" V 10496 4820 50  0000 R CNN
F 1 "MIDI IN" V 10405 4820 50  0000 R CNN
F 2 "w_conn_av:din-5" H 10450 5050 50  0001 C CNN
F 3 "http://www.mouser.com/ds/2/18/40_c091_abd_e-75918.pdf" H 10450 5050 50  0001 C CNN
	1    10450 5050
	0    -1   -1   0   
$EndComp
Text GLabel 1850 2250 0    50   Input ~ 0
MIDI_OUT
Text GLabel 1850 2150 0    50   Input ~ 0
MIDI_IN
Wire Wire Line
	1850 2150 2050 2150
Wire Wire Line
	1850 2250 2050 2250
$Comp
L power:GND #PWR033
U 1 1 5B5DF371
P 10150 4150
F 0 "#PWR033" H 10150 3900 50  0001 C CNN
F 1 "GND" H 10155 3977 50  0000 C CNN
F 2 "" H 10150 4150 50  0001 C CNN
F 3 "" H 10150 4150 50  0001 C CNN
	1    10150 4150
	1    0    0    -1  
$EndComp
$Comp
L Device:R R3
U 1 1 5B5DF3C9
P 10000 3850
F 0 "R3" V 9900 3850 50  0000 C CNN
F 1 "220R" V 10000 3850 50  0000 C CNN
F 2 "Resistor_THT:R_Axial_DIN0207_L6.3mm_D2.5mm_P7.62mm_Horizontal" V 9930 3850 50  0001 C CNN
F 3 "~" H 10000 3850 50  0001 C CNN
	1    10000 3850
	0    1    1    0   
$EndComp
$Comp
L Device:R R4
U 1 1 5B5DF462
P 10000 4450
F 0 "R4" V 9900 4450 50  0000 C CNN
F 1 "220R" V 10000 4450 50  0000 C CNN
F 2 "Resistor_THT:R_Axial_DIN0207_L6.3mm_D2.5mm_P7.62mm_Horizontal" V 9930 4450 50  0001 C CNN
F 3 "~" H 10000 4450 50  0001 C CNN
	1    10000 4450
	0    1    1    0   
$EndComp
Text GLabel 8400 3850 0    50   Input ~ 0
MIDI_OUT
Wire Wire Line
	9600 3850 9850 3850
Wire Wire Line
	9600 4450 9850 4450
Text GLabel 7650 5000 0    50   Input ~ 0
MIDI_IN
$Comp
L Isolator:6N138 U5
U 1 1 5B5E2EC2
P 8850 5100
F 0 "U5" H 8850 4633 50  0000 C CNN
F 1 "6N138" H 8850 4724 50  0000 C CNN
F 2 "Package_DIP:DIP-8_W7.62mm_Socket_LongPads" H 9140 4800 50  0001 C CNN
F 3 "http://www.onsemi.com/pub/Collateral/HCPL2731-D.pdf" H 9140 4800 50  0001 C CNN
	1    8850 5100
	-1   0    0    1   
$EndComp
$Comp
L Device:D D1
U 1 1 5B5E3558
P 9550 5150
F 0 "D1" H 9550 5250 50  0000 C CNN
F 1 "1N4148" H 9550 5050 50  0000 C CNN
F 2 "Diode_THT:D_DO-35_SOD27_P7.62mm_Horizontal" H 9550 5150 50  0001 C CNN
F 3 "~" H 9550 5150 50  0001 C CNN
	1    9550 5150
	0    -1   -1   0   
$EndComp
Wire Wire Line
	9150 5000 9550 5000
Wire Wire Line
	9550 5000 9550 4750
Wire Wire Line
	9550 4750 10350 4750
$Comp
L Device:R R5
U 1 1 5B5E497E
P 9850 5350
F 0 "R5" V 9750 5350 50  0000 C CNN
F 1 "220R" V 9850 5350 50  0000 C CNN
F 2 "Resistor_THT:R_Axial_DIN0207_L6.3mm_D2.5mm_P7.62mm_Horizontal" V 9780 5350 50  0001 C CNN
F 3 "~" H 9850 5350 50  0001 C CNN
	1    9850 5350
	0    1    1    0   
$EndComp
Wire Wire Line
	10000 5350 10350 5350
$Comp
L power:GND #PWR024
U 1 1 5B5E5B58
P 8450 4900
F 0 "#PWR024" H 8450 4650 50  0001 C CNN
F 1 "GND" H 8455 4727 50  0000 C CNN
F 2 "" H 8450 4900 50  0001 C CNN
F 3 "" H 8450 4900 50  0001 C CNN
	1    8450 4900
	-1   0    0    1   
$EndComp
Wire Wire Line
	8450 4900 8550 4900
$Comp
L Device:R R1
U 1 1 5B5E82D7
P 8000 4850
F 0 "R1" V 7900 4850 50  0000 C CNN
F 1 "470R" V 8000 4850 50  0000 C CNN
F 2 "Resistor_THT:R_Axial_DIN0207_L6.3mm_D2.5mm_P7.62mm_Horizontal" V 7930 4850 50  0001 C CNN
F 3 "~" H 8000 4850 50  0001 C CNN
	1    8000 4850
	0    1    1    0   
$EndComp
Text GLabel 7650 4850 0    50   Input ~ 0
3.3V
Wire Wire Line
	7650 4850 7850 4850
Wire Wire Line
	8150 4850 8300 4850
Wire Wire Line
	8300 4850 8300 5000
Wire Wire Line
	8300 5000 8550 5000
$Comp
L TeensyMIDIAudio-rescue:USB_A-Connector J13
U 1 1 5B5F190C
P 10400 6150
F 0 "J13" H 10170 6048 50  0000 R CNN
F 1 "MIDI USB" H 10170 6139 50  0000 R CNN
F 2 "w_conn_pc:conn_usb_A-vert" H 10550 6100 50  0001 C CNN
F 3 " ~" H 10550 6100 50  0001 C CNN
	1    10400 6150
	-1   0    0    1   
$EndComp
$Comp
L Device:C C2
U 1 1 5B5F720C
P 8700 1800
F 0 "C2" H 8815 1846 50  0000 L CNN
F 1 "100nF" H 8815 1755 50  0000 L CNN
F 2 "w_capacitors:cnp_7x2mm" H 8738 1650 50  0001 C CNN
F 3 "~" H 8700 1800 50  0001 C CNN
	1    8700 1800
	1    0    0    -1  
$EndComp
$Comp
L Device:C C1
U 1 1 5B5F84E7
P 1750 1400
F 0 "C1" H 1498 1400 50  0000 C CNN
F 1 "100nF" H 1500 1500 50  0000 C CNN
F 2 "w_capacitors:cnp_7x2mm" H 1788 1250 50  0001 C CNN
F 3 "~" H 1750 1400 50  0001 C CNN
	1    1750 1400
	-1   0    0    1   
$EndComp
Wire Wire Line
	7650 5000 8300 5000
Connection ~ 8300 5000
Text Notes 8800 6200 0    50   ~ 0
USB-DATA-
Text Notes 8800 6100 0    50   ~ 0
USB-DATA+
Text Notes 8800 6300 0    50   ~ 0
USB+5V\n
NoConn ~ 8550 5200
Connection ~ 9550 5000
Wire Wire Line
	9150 5200 9150 5350
Wire Wire Line
	9150 5350 9550 5350
Wire Wire Line
	9550 5300 9550 5350
Connection ~ 9550 5350
Wire Wire Line
	9550 5350 9700 5350
$Comp
L power:GND #PWR030
U 1 1 5B616B5C
P 10400 5750
F 0 "#PWR030" H 10400 5500 50  0001 C CNN
F 1 "GND" H 10405 5577 50  0000 C CNN
F 2 "" H 10400 5750 50  0001 C CNN
F 3 "" H 10400 5750 50  0001 C CNN
	1    10400 5750
	-1   0    0    1   
$EndComp
Text GLabel 1850 2850 0    50   Input ~ 0
7_RX3_mosi0_scl0
Text GLabel 1850 2950 0    50   Input ~ 0
8_TX3_miso0_sda0
Text GLabel 1850 4250 0    50   Input ~ 0
31_A12_RX4_CS1
Text GLabel 1850 4350 0    50   Input ~ 0
32_A13_TX4_SCK1
Wire Wire Line
	1850 2850 2050 2850
Wire Wire Line
	1850 4250 2050 4250
Wire Wire Line
	1850 4350 2050 4350
$Comp
L power:GND #PWR010
U 1 1 5B62F2B9
P 1850 2050
F 0 "#PWR010" H 1850 1800 50  0001 C CNN
F 1 "GND" V 1855 1922 50  0000 R CNN
F 2 "" H 1850 2050 50  0001 C CNN
F 3 "" H 1850 2050 50  0001 C CNN
	1    1850 2050
	0    1    1    0   
$EndComp
Wire Wire Line
	1850 2050 2050 2050
$Comp
L TeensyMIDIAudio-rescue:PT8211-parasitStudio U3
U 1 1 5B63BD18
P 8300 1150
F 0 "U3" H 8300 1525 50  0000 C CNN
F 1 "PT8211" H 8300 1434 50  0000 C CNN
F 2 "w_smd_dil:so-8" H 8300 1150 50  0001 C CNN
F 3 "" H 8300 1150 50  0001 C CNN
	1    8300 1150
	1    0    0    -1  
$EndComp
Wire Wire Line
	7800 1000 7950 1000
Wire Wire Line
	7800 1200 7950 1200
$Comp
L power:GND #PWR022
U 1 1 5B63BD25
P 7950 1400
F 0 "#PWR022" H 7950 1150 50  0001 C CNN
F 1 "GND" H 7955 1227 50  0000 C CNN
F 2 "" H 7950 1400 50  0001 C CNN
F 3 "" H 7950 1400 50  0001 C CNN
	1    7950 1400
	1    0    0    -1  
$EndComp
Wire Wire Line
	7950 1400 7950 1300
$Comp
L power:GND #PWR07
U 1 1 5B65662C
P 2650 1500
F 0 "#PWR07" H 2650 1250 50  0001 C CNN
F 1 "GND" V 2655 1372 50  0000 R CNN
F 2 "" H 2650 1500 50  0001 C CNN
F 3 "" H 2650 1500 50  0001 C CNN
	1    2650 1500
	1    0    0    -1  
$EndComp
$Comp
L power:+5V #PWR06
U 1 1 5B656725
P 2650 1100
F 0 "#PWR06" H 2650 950 50  0001 C CNN
F 1 "+5V" V 2665 1228 50  0000 L CNN
F 2 "" H 2650 1100 50  0001 C CNN
F 3 "" H 2650 1100 50  0001 C CNN
	1    2650 1100
	1    0    0    -1  
$EndComp
Text GLabel 4650 3950 2    50   Input ~ 0
37_A18_PWM_SCL1
Text GLabel 4650 3850 2    50   Input ~ 0
38_A19_PWM_SDA1
$Comp
L power:+5V #PWR013
U 1 1 5B66352E
P 5600 5150
F 0 "#PWR013" H 5600 5000 50  0001 C CNN
F 1 "+5V" V 5615 5278 50  0000 L CNN
F 2 "" H 5600 5150 50  0001 C CNN
F 3 "" H 5600 5150 50  0001 C CNN
	1    5600 5150
	0    1    1    0   
$EndComp
$Comp
L power:GND #PWR014
U 1 1 5B6635CA
P 5600 5450
F 0 "#PWR014" H 5600 5200 50  0001 C CNN
F 1 "GND" V 5605 5322 50  0000 R CNN
F 2 "" H 5600 5450 50  0001 C CNN
F 3 "" H 5600 5450 50  0001 C CNN
	1    5600 5450
	0    -1   -1   0   
$EndComp
Text Notes 8800 5900 0    50   ~ 0
GND\n
Text GLabel 1850 2350 0    50   Input ~ 0
2_PWM
Text GLabel 1850 2450 0    50   Input ~ 0
3_PWM_CAN0TX_SCL2
Text GLabel 1850 2550 0    50   Input ~ 0
4_PWM_CAN0RX_SDA2
Text GLabel 1850 2650 0    50   Input ~ 0
5_PWM_tx1_miso1
Text GLabel 1850 2750 0    50   Input ~ 0
6_PWM
Text GLabel 1850 3150 0    50   Input ~ 0
10_PWM_TX2_CS0
Text GLabel 1850 3350 0    50   Input ~ 0
12_MIDO0
Text GLabel 1850 3550 0    50   Input ~ 0
24
Text GLabel 1850 3650 0    50   Input ~ 0
25
NoConn ~ 2050 3750
Text GLabel 1850 3950 0    50   Input ~ 0
D28_mosi0
Text GLabel 1850 4050 0    50   Input ~ 0
29_PWM_cano0tx_Touch
Text GLabel 1850 4150 0    50   Input ~ 0
30_PWM_can0rx_Touch
NoConn ~ 2050 3450
Text GLabel 4650 4150 2    50   Input ~ 0
35_A16_PWM
Text GLabel 4650 4050 2    50   Input ~ 0
36_A17_PWM
Text GLabel 4650 3250 2    50   Input ~ 0
14_A0_PWM_sck0
Text GLabel 4650 3150 2    50   Input ~ 0
15_A1_CS0_Touch
Text GLabel 4650 3050 2    50   Input ~ 0
16_A2_PWM_scl0_Touch
Wire Wire Line
	1850 2350 2050 2350
Wire Wire Line
	1850 2450 2050 2450
Wire Wire Line
	1850 2550 2050 2550
Wire Wire Line
	1850 2650 2050 2650
Wire Wire Line
	1850 2750 2050 2750
Wire Wire Line
	1850 3150 2050 3150
Wire Wire Line
	1850 3350 2050 3350
Wire Wire Line
	1850 3550 2050 3550
Wire Wire Line
	1850 3650 2050 3650
Wire Wire Line
	1850 3950 2050 3950
Wire Wire Line
	1850 4050 2050 4050
Wire Wire Line
	1850 4150 2050 4150
Text GLabel 4650 2950 2    50   Input ~ 0
17_A3_PWM_sda0_Touch
Text GLabel 4650 3750 2    50   Input ~ 0
39_A20
Text GLabel 4650 3650 2    50   Input ~ 0
A21_DAC0
$Comp
L power:GND #PWR029
U 1 1 5B630C15
P 9700 1150
F 0 "#PWR029" H 9700 900 50  0001 C CNN
F 1 "GND" V 9705 1022 50  0000 R CNN
F 2 "" H 9700 1150 50  0001 C CNN
F 3 "" H 9700 1150 50  0001 C CNN
	1    9700 1150
	0    1    1    0   
$EndComp
Text Notes 10250 1000 0    50   ~ 0
RIGHT\n
Text Notes 10250 1350 0    50   ~ 0
LEFT\n
$Comp
L Connector_Generic:Conn_02x04_Odd_Even J4
U 1 1 5B6829A7
P 3500 6950
F 0 "J4" H 3550 7267 50  0000 C CNN
F 1 "SERIAL I/O" H 3550 7176 50  0000 C CNN
F 2 "Connector_PinHeader_2.54mm:PinHeader_2x04_P2.54mm_Vertical" H 3500 6950 50  0001 C CNN
F 3 "~" H 3500 6950 50  0001 C CNN
	1    3500 6950
	1    0    0    -1  
$EndComp
$Comp
L Connector_Generic:Conn_02x04_Odd_Even J5
U 1 1 5B6C9BDD
P 900 6950
F 0 "J5" H 950 7267 50  0000 C CNN
F 1 "POWER 5V" H 950 7176 50  0000 C CNN
F 2 "Connector_PinHeader_2.54mm:PinHeader_2x04_P2.54mm_Vertical" H 900 6950 50  0001 C CNN
F 3 "~" H 900 6950 50  0001 C CNN
	1    900  6950
	1    0    0    -1  
$EndComp
Wire Wire Line
	700  6850 700  6950
Wire Wire Line
	700  6950 700  7050
Connection ~ 700  6950
Wire Wire Line
	700  7050 700  7150
Connection ~ 700  7050
Wire Wire Line
	1200 7150 1200 7050
Wire Wire Line
	1200 7050 1200 6950
Connection ~ 1200 7050
Wire Wire Line
	1200 6950 1200 6850
Connection ~ 1200 6950
$Comp
L power:GND #PWR03
U 1 1 5B6F4D13
P 700 7150
F 0 "#PWR03" H 700 6900 50  0001 C CNN
F 1 "GND" H 705 6977 50  0000 C CNN
F 2 "" H 700 7150 50  0001 C CNN
F 3 "" H 700 7150 50  0001 C CNN
	1    700  7150
	1    0    0    -1  
$EndComp
Connection ~ 700  7150
$Comp
L power:+5V #PWR04
U 1 1 5B6F4D8A
P 1200 6850
F 0 "#PWR04" H 1200 6700 50  0001 C CNN
F 1 "+5V" H 1215 7023 50  0000 C CNN
F 2 "" H 1200 6850 50  0001 C CNN
F 3 "" H 1200 6850 50  0001 C CNN
	1    1200 6850
	1    0    0    -1  
$EndComp
Connection ~ 1200 6850
Text GLabel 3300 6850 0    50   Input ~ 0
MIDI_IN
Text GLabel 3800 6850 2    50   Input ~ 0
MIDI_OUT
Text GLabel 800  4700 2    50   Input ~ 0
2_PWM
Text GLabel 2300 5500 2    50   Input ~ 0
24
Text GLabel 2300 5600 2    50   Input ~ 0
25
$Comp
L power:GND #PWR032
U 1 1 5B6979F7
P 10100 1950
F 0 "#PWR032" H 10100 1700 50  0001 C CNN
F 1 "GND" H 10250 1900 50  0000 C CNN
F 2 "" H 10100 1950 50  0001 C CNN
F 3 "" H 10100 1950 50  0001 C CNN
	1    10100 1950
	1    0    0    -1  
$EndComp
$Comp
L TeensyMIDIAudio-rescue:USB_B-Connector J1
U 1 1 5B70F3AF
P 1200 1300
F 0 "J1" H 1255 1767 50  0000 C CNN
F 1 "USB" H 1255 1676 50  0000 C CNN
F 2 "w_conn_pc:conn_usb_B" H 1350 1250 50  0001 C CNN
F 3 " ~" H 1350 1250 50  0001 C CNN
	1    1200 1300
	1    0    0    -1  
$EndComp
$Comp
L TeensyMIDIAudio-rescue:Teensy-Audio-parasitStudio U2
U 1 1 5B6B1CFD
P 7200 2700
F 0 "U2" H 7175 3215 50  0000 C CNN
F 1 "Teensy-Audio" H 7175 3124 50  0000 C CNN
F 2 "Package_DIP:DIP-28_W15.24mm_Socket_LongPads" H 7200 2550 50  0001 C CNN
F 3 "" H 7200 2550 50  0001 C CNN
	1    7200 2700
	1    0    0    -1  
$EndComp
$Comp
L power:GND #PWR020
U 1 1 5B6B1DCF
P 6500 2450
F 0 "#PWR020" H 6500 2200 50  0001 C CNN
F 1 "GND" V 6505 2322 50  0000 R CNN
F 2 "" H 6500 2450 50  0001 C CNN
F 3 "" H 6500 2450 50  0001 C CNN
	1    6500 2450
	0    1    1    0   
$EndComp
Text GLabel 1850 3250 0    50   Input ~ 0
11_MOSI0
Wire Wire Line
	1850 3250 2050 3250
Wire Wire Line
	7700 2550 7900 2550
Wire Wire Line
	7700 2650 7900 2650
Wire Wire Line
	7700 2750 7900 2750
Wire Wire Line
	7700 2850 7900 2850
Wire Wire Line
	7700 3050 7900 3050
Wire Wire Line
	7700 3150 7900 3150
NoConn ~ 7700 2950
$Comp
L Device:Jumper JP1
U 1 1 5B7DE9C2
P 9450 1000
F 0 "JP1" H 9450 1000 50  0000 C CNN
F 1 "PT8211_AUDIO_R" H 9450 1173 50  0000 C CNN
F 2 "Connector_PinHeader_2.54mm:PinHeader_1x02_P2.54mm_Vertical" H 9450 1000 50  0001 C CNN
F 3 "~" H 9450 1000 50  0001 C CNN
	1    9450 1000
	1    0    0    -1  
$EndComp
$Comp
L Device:Jumper JP2
U 1 1 5B7DEACA
P 9450 1300
F 0 "JP2" H 9450 1300 50  0000 C CNN
F 1 "PT8211_AUDIO_L" H 9450 1200 50  0000 C CNN
F 2 "Connector_PinHeader_2.54mm:PinHeader_1x02_P2.54mm_Vertical" H 9450 1300 50  0001 C CNN
F 3 "~" H 9450 1300 50  0001 C CNN
	1    9450 1300
	1    0    0    -1  
$EndComp
$Comp
L Mechanical:MountingHole MH3
U 1 1 5B68E77B
P 11000 650
F 0 "MH3" H 11100 696 50  0000 L CNN
F 1 "MountingHole" H 11100 605 50  0000 L CNN
F 2 "MountingHole:MountingHole_3.5mm" H 11000 650 50  0001 C CNN
F 3 "~" H 11000 650 50  0001 C CNN
	1    11000 650 
	1    0    0    -1  
$EndComp
$Comp
L Mechanical:MountingHole MH1
U 1 1 5B68E867
P 650 650
F 0 "MH1" H 750 696 50  0000 L CNN
F 1 "MountingHole" H 750 605 50  0000 L CNN
F 2 "MountingHole:MountingHole_3.5mm" H 650 650 50  0001 C CNN
F 3 "~" H 650 650 50  0001 C CNN
	1    650  650 
	1    0    0    -1  
$EndComp
$Comp
L Mechanical:MountingHole MH4
U 1 1 5B68ED6D
P 11050 6400
F 0 "MH4" H 11150 6446 50  0000 L CNN
F 1 "MountingHole" H 11150 6355 50  0000 L CNN
F 2 "MountingHole:MountingHole_3.5mm" H 11050 6400 50  0001 C CNN
F 3 "~" H 11050 6400 50  0001 C CNN
	1    11050 6400
	1    0    0    -1  
$EndComp
$Comp
L Mechanical:MountingHole MH2
U 1 1 5B68EFB1
P 700 7600
F 0 "MH2" H 800 7646 50  0000 L CNN
F 1 "MountingHole" H 800 7555 50  0000 L CNN
F 2 "MountingHole:MountingHole_3.5mm" H 700 7600 50  0001 C CNN
F 3 "~" H 700 7600 50  0001 C CNN
	1    700  7600
	1    0    0    -1  
$EndComp
NoConn ~ 2050 3850
Wire Wire Line
	1500 1100 1750 1100
Wire Wire Line
	1200 1700 1750 1700
Wire Wire Line
	1750 1550 1750 1700
Wire Wire Line
	1750 1250 1750 1100
$Comp
L power:GND #PWR021
U 1 1 5B6EB78A
P 5800 1150
F 0 "#PWR021" H 5800 900 50  0001 C CNN
F 1 "GND" V 5800 950 50  0000 C CNN
F 2 "" H 5800 1150 50  0001 C CNN
F 3 "" H 5800 1150 50  0001 C CNN
	1    5800 1150
	0    -1   -1   0   
$EndComp
$Comp
L Connector:Conn_Coaxial_x2 J11
U 1 1 5B6D7E2A
P 10100 1650
F 0 "J11" H 10199 1626 50  0000 L CNN
F 1 "Audio out" H 10199 1535 50  0000 L CNN
F 2 "def-footprints:rca_black_stereo" H 10100 1550 50  0001 C CNN
F 3 " ~" H 10100 1550 50  0001 C CNN
	1    10100 1650
	1    0    0    -1  
$EndComp
$Comp
L Connector:Conn_Coaxial_x2 J9
U 1 1 5B6EA5EB
P 6400 1100
F 0 "J9" H 6499 1076 50  0000 L CNN
F 1 "Audio In" H 6499 985 50  0000 L CNN
F 2 "def-footprints:rca_black_stereo" H 6400 1000 50  0001 C CNN
F 3 " ~" H 6400 1000 50  0001 C CNN
	1    6400 1100
	1    0    0    -1  
$EndComp
$Comp
L power:+5V #PWR031
U 1 1 5B719CE3
P 10000 6350
F 0 "#PWR031" H 10000 6200 50  0001 C CNN
F 1 "+5V" H 10015 6523 50  0000 C CNN
F 2 "" H 10000 6350 50  0001 C CNN
F 3 "" H 10000 6350 50  0001 C CNN
	1    10000 6350
	-1   0    0    1   
$EndComp
NoConn ~ 10150 5050
NoConn ~ 10450 5350
NoConn ~ 10450 4750
NoConn ~ 10450 4450
NoConn ~ 10450 3850
$Comp
L Connector_Generic:Conn_02x04_Odd_Even J6
U 1 1 5B6E4A48
P 1600 6950
F 0 "J6" H 1650 7267 50  0000 C CNN
F 1 "POWER 3.3V" H 1650 7176 50  0000 C CNN
F 2 "Connector_PinHeader_2.54mm:PinHeader_2x04_P2.54mm_Vertical" H 1600 6950 50  0001 C CNN
F 3 "~" H 1600 6950 50  0001 C CNN
	1    1600 6950
	1    0    0    -1  
$EndComp
Wire Wire Line
	1400 6850 1400 6950
Wire Wire Line
	1400 6950 1400 7050
Connection ~ 1400 6950
Wire Wire Line
	1400 7050 1400 7150
Connection ~ 1400 7050
$Comp
L power:GND #PWR08
U 1 1 5B7004EF
P 1400 7150
F 0 "#PWR08" H 1400 6900 50  0001 C CNN
F 1 "GND" H 1405 6977 50  0000 C CNN
F 2 "" H 1400 7150 50  0001 C CNN
F 3 "" H 1400 7150 50  0001 C CNN
	1    1400 7150
	1    0    0    -1  
$EndComp
Connection ~ 1400 7150
Wire Wire Line
	1900 7150 1900 7050
Wire Wire Line
	1900 7050 1900 6950
Connection ~ 1900 7050
Wire Wire Line
	1900 6950 1900 6850
Connection ~ 1900 6950
$Comp
L Graphic:Logo_Open_Hardware_Large #LOGO1
U 1 1 5B6B6D12
P 6300 7150
F 0 "#LOGO1" H 6300 7650 50  0001 C CNN
F 1 "Logo_Open_Hardware_Large" H 6300 6750 50  0001 C CNN
F 2 "" H 6300 7150 50  0001 C CNN
F 3 "~" H 6300 7150 50  0001 C CNN
	1    6300 7150
	1    0    0    -1  
$EndComp
$Comp
L power:GND #PWR034
U 1 1 5B6CB6E8
P 1750 700
F 0 "#PWR034" H 1750 450 50  0001 C CNN
F 1 "GND" V 1755 572 50  0000 R CNN
F 2 "" H 1750 700 50  0001 C CNN
F 3 "" H 1750 700 50  0001 C CNN
	1    1750 700 
	0    -1   -1   0   
$EndComp
$Comp
L power:+5V #PWR035
U 1 1 5B6D54D4
P 2150 700
F 0 "#PWR035" H 2150 550 50  0001 C CNN
F 1 "+5V" V 2165 828 50  0000 L CNN
F 2 "" H 2150 700 50  0001 C CNN
F 3 "" H 2150 700 50  0001 C CNN
	1    2150 700 
	0    1    1    0   
$EndComp
$Comp
L Device:R R6
U 1 1 5B71B865
P 5200 6400
F 0 "R6" H 5270 6446 50  0000 L CNN
F 1 "4K7" H 5270 6355 50  0000 L CNN
F 2 "Resistor_THT:R_Axial_DIN0207_L6.3mm_D2.5mm_P7.62mm_Horizontal" V 5130 6400 50  0001 C CNN
F 3 "~" H 5200 6400 50  0001 C CNN
	1    5200 6400
	1    0    0    -1  
$EndComp
$Comp
L Device:R R7
U 1 1 5B71B950
P 5500 6400
F 0 "R7" H 5570 6446 50  0000 L CNN
F 1 "4K7" H 5570 6355 50  0000 L CNN
F 2 "Resistor_THT:R_Axial_DIN0207_L6.3mm_D2.5mm_P7.62mm_Horizontal" V 5430 6400 50  0001 C CNN
F 3 "~" H 5500 6400 50  0001 C CNN
	1    5500 6400
	1    0    0    -1  
$EndComp
Wire Wire Line
	5150 5150 5600 5150
Wire Wire Line
	5150 5450 5600 5450
$Comp
L TeensyMIDIAudio-rescue:Teensy-3.[56]-IC-socket-parasitStudio U1
U 1 1 5B71F7C1
P 3200 3250
F 0 "U1" H 3175 4715 50  0000 C CNN
F 1 "Teensy-3.[56]-IC-socket" H 3175 4624 50  0000 C CNN
F 2 "Package_DIP:DIP-48_W15.24mm_Socket_LongPads" H 3050 2400 50  0001 C CNN
F 3 "" H 3050 2400 50  0001 C CNN
	1    3200 3250
	1    0    0    -1  
$EndComp
Wire Wire Line
	6500 2450 6650 2450
Wire Wire Line
	6500 2550 6650 2550
Wire Wire Line
	6500 2650 6650 2650
Wire Wire Line
	6500 2750 6650 2750
Wire Wire Line
	6500 2850 6650 2850
Wire Wire Line
	6500 2950 6650 2950
Wire Wire Line
	6500 3050 6650 3050
Text GLabel 4650 4250 2    50   Input ~ 0
34_A15_CAN1RX_sda0_RX5
Text GLabel 4650 4350 2    50   Input ~ 0
33_A14_CAN1TX_scl0_TX5
$Comp
L power:GND #PWR0101
U 1 1 5B7796AB
P 4650 3450
F 0 "#PWR0101" H 4650 3200 50  0001 C CNN
F 1 "GND" V 4655 3322 50  0000 R CNN
F 2 "" H 4650 3450 50  0001 C CNN
F 3 "" H 4650 3450 50  0001 C CNN
	1    4650 3450
	0    -1   -1   0   
$EndComp
Text GLabel 4650 2850 2    50   Input ~ 0
18_A4_SDA0_Touch
Text GLabel 4650 2750 2    50   Input ~ 0
19_A5_SCL0_Touch
Text GLabel 4650 2650 2    50   Input ~ 0
20_A6_PWM_SC0_sck1
Text GLabel 4650 2550 2    50   Input ~ 0
21_A7_PWM_CS0_modi1_rx1
Text GLabel 4650 2450 2    50   Input ~ 0
22_A8_PWM_Touch
Text GLabel 4650 2350 2    50   Input ~ 0
23_A9_PWM_Touch
Text GLabel 4650 2250 2    50   Input ~ 0
3.3V
Text GLabel 4650 2150 2    50   Input ~ 0
AGND
$Comp
L power:+5V #PWR0102
U 1 1 5B7A0214
P 4650 2050
F 0 "#PWR0102" H 4650 1900 50  0001 C CNN
F 1 "+5V" V 4665 2178 50  0000 L CNN
F 2 "" H 4650 2050 50  0001 C CNN
F 3 "" H 4650 2050 50  0001 C CNN
	1    4650 2050
	0    1    1    0   
$EndComp
Wire Wire Line
	4450 3450 4650 3450
Wire Wire Line
	4450 3350 4650 3350
Wire Wire Line
	4450 3250 4650 3250
Wire Wire Line
	4450 3150 4650 3150
Wire Wire Line
	4450 3050 4650 3050
Wire Wire Line
	4450 2950 4650 2950
Wire Wire Line
	4450 2850 4650 2850
Wire Wire Line
	4450 2750 4650 2750
Wire Wire Line
	4450 2650 4650 2650
Wire Wire Line
	4450 2550 4650 2550
Wire Wire Line
	4450 2450 4650 2450
Wire Wire Line
	4450 2350 4650 2350
Wire Wire Line
	4450 2250 4650 2250
Wire Wire Line
	4450 2150 4650 2150
Wire Wire Line
	4450 2050 4650 2050
Text GLabel 7800 1100 0    50   Input ~ 0
23_A9_PWM_Touch
Text GLabel 7800 1200 0    50   Input ~ 0
22_A8_PWM_Touch
Wire Wire Line
	7800 1100 7950 1100
Text GLabel 7800 1000 0    50   Input ~ 0
9_PWM_RX2_CS0
Text GLabel 7900 2550 2    50   Input ~ 0
23_A9_PWM_Touch
Text GLabel 7900 2650 2    50   Input ~ 0
22_A8_PWM_Touch
Text GLabel 7900 2750 2    50   Input ~ 0
19_A5_SCL0_Touch
Text GLabel 7900 2850 2    50   Input ~ 0
18_A4_SDA0_Touch
Text GLabel 7900 3050 2    50   Input ~ 0
14_A0_PWM_sck0
Text GLabel 7900 3150 2    50   Input ~ 0
13_SCK0_LED
Text GLabel 6500 3050 0    50   Input ~ 0
12_MIDO0
Text GLabel 6500 2950 0    50   Input ~ 0
11_MOSI0
Text GLabel 6500 2850 0    50   Input ~ 0
10_PWM_TX2_CS0
Text GLabel 6500 2750 0    50   Input ~ 0
9_PWM_RX2_CS0
Text GLabel 6500 2650 0    50   Input ~ 0
7_RX3_mosi0_scl0
Text GLabel 6500 2550 0    50   Input ~ 0
6_PWM
Wire Wire Line
	10150 3850 10350 3850
Wire Wire Line
	10150 4450 10350 4450
$Comp
L Connector:DIN-5_180degree J14
U 1 1 5B5DDB6E
P 10450 4150
F 0 "J14" V 10496 3921 50  0000 R CNN
F 1 "MIDI OUT" V 10405 3921 50  0000 R CNN
F 2 "w_conn_av:din-5" H 10450 4150 50  0001 C CNN
F 3 "http://www.mouser.com/ds/2/18/40_c091_abd_e-75918.pdf" H 10450 4150 50  0001 C CNN
	1    10450 4150
	0    -1   -1   0   
$EndComp
Text GLabel 800  4800 2    50   Input ~ 0
3_PWM_CAN0TX_SCL2
Text GLabel 800  4900 2    50   Input ~ 0
4_PWM_CAN0RX_SDA2
Text GLabel 2300 5400 2    50   Input ~ 0
5_PWM_tx1_miso1
Text GLabel 800  5600 2    50   Input ~ 0
29_PWM_cano0tx_Touch
Text GLabel 800  5800 2    50   Input ~ 0
30_PWM_can0rx_Touch
Text GLabel 3800 5100 2    50   Input ~ 0
15_A1_CS0_Touch
Text GLabel 3800 5200 2    50   Input ~ 0
16_A2_PWM_scl0_Touch
Text GLabel 3800 5300 2    50   Input ~ 0
17_A3_PWM_sda0_Touch
Text GLabel 3800 5400 2    50   Input ~ 0
20_A6_PWM_SC0_sck1
Text GLabel 3800 5500 2    50   Input ~ 0
21_A7_PWM_CS0_modi1_rx1
Text GLabel 5600 5250 2    50   Input ~ 0
19_A5_SCL0_Touch
Text GLabel 5600 5350 2    50   Input ~ 0
18_A4_SDA0_Touch
Wire Wire Line
	4450 4350 4650 4350
Wire Wire Line
	4650 4250 4450 4250
Wire Wire Line
	4450 4150 4650 4150
Wire Wire Line
	4650 4050 4450 4050
Wire Wire Line
	4450 3950 4650 3950
Wire Wire Line
	4650 3850 4450 3850
Wire Wire Line
	4450 3750 4650 3750
Wire Wire Line
	4650 3650 4450 3650
Wire Wire Line
	4450 3550 4650 3550
Text GLabel 3300 7050 0    50   Input ~ 0
31_A12_RX4_CS1
Text GLabel 3800 7050 2    50   Input ~ 0
32_A13_TX4_SCK1
Text GLabel 3300 7150 0    50   Input ~ 0
34_A15_CAN1RX_sda0_RX5
Text GLabel 3800 7150 2    50   Input ~ 0
33_A14_CAN1TX_scl0_TX5
Wire Wire Line
	1850 2950 2050 2950
Text GLabel 3300 6950 0    50   Input ~ 0
7_RX3_mosi0_scl0
Text GLabel 3800 6950 2    50   Input ~ 0
8_TX3_miso0_sda0
Text GLabel 800  5700 2    50   Input ~ 0
D28_mosi0
Text GLabel 3300 6300 3    50   Input ~ 0
AGND
Text GLabel 3800 6200 2    50   Input ~ 0
A22_DAC1
Text GLabel 3800 6100 2    50   Input ~ 0
A21_DAC0
Text GLabel 3800 5600 2    50   Input ~ 0
35_A16_PWM
Text GLabel 3800 5700 2    50   Input ~ 0
36_A17_PWM
Text GLabel 3800 5800 2    50   Input ~ 0
37_A18_PWM_SCL1
Text GLabel 3800 5900 2    50   Input ~ 0
38_A19_PWM_SDA1
Text GLabel 3800 6000 2    50   Input ~ 0
39_A20
$Comp
L Connector_Generic:Conn_02x12_Odd_Even J3
U 1 1 5B9C6475
P 3500 5600
F 0 "J3" H 3550 6317 50  0000 C CNN
F 1 "ANALOG I/O" H 3550 6226 50  0000 C CNN
F 2 "Connector_PinHeader_2.54mm:PinHeader_2x12_P2.54mm_Vertical" H 3500 5600 50  0001 C CNN
F 3 "~" H 3500 5600 50  0001 C CNN
	1    3500 5600
	1    0    0    -1  
$EndComp
Wire Wire Line
	3300 5100 3300 5200
Wire Wire Line
	3300 5200 3300 5300
Connection ~ 3300 5200
Wire Wire Line
	3300 5300 3300 5400
Connection ~ 3300 5300
Wire Wire Line
	3300 5400 3300 5500
Connection ~ 3300 5400
Wire Wire Line
	3300 5500 3300 5600
Connection ~ 3300 5500
Wire Wire Line
	3300 5600 3300 5700
Connection ~ 3300 5600
Wire Wire Line
	3300 5700 3300 5800
Connection ~ 3300 5700
Wire Wire Line
	3300 5800 3300 5900
Connection ~ 3300 5800
Wire Wire Line
	3300 5900 3300 6000
Connection ~ 3300 5900
Wire Wire Line
	3300 6000 3300 6100
Connection ~ 3300 6000
Wire Wire Line
	3300 6100 3300 6200
Connection ~ 3300 6100
Wire Wire Line
	3300 6200 3300 6300
Connection ~ 3300 6200
Wire Wire Line
	5200 6550 5350 6550
Text GLabel 5350 6650 3    50   Input ~ 0
3.3V
Wire Wire Line
	5350 6650 5350 6550
Connection ~ 5350 6550
Wire Wire Line
	5350 6550 5500 6550
Text GLabel 1900 7250 3    50   Input ~ 0
3.3V
Wire Wire Line
	1900 7250 1900 7150
Connection ~ 1900 7150
Text GLabel 9050 2600 3    50   Input ~ 0
3.3V
Wire Wire Line
	9050 2550 9050 2600
$Comp
L Device:Jumper_NC_Dual JP3
U 1 1 5B6C0CEC
P 9050 2450
F 0 "JP3" H 9050 2689 50  0000 C CNN
F 1 "SELECT_I2S_AUDIO" H 9050 2598 50  0000 C CNN
F 2 "Connector_PinHeader_2.54mm:PinHeader_1x03_P2.54mm_Vertical" H 9050 2450 50  0001 C CNN
F 3 "~" H 9050 2450 50  0001 C CNN
	1    9050 2450
	1    0    0    -1  
$EndComp
Wire Wire Line
	8800 2450 7700 2450
Wire Wire Line
	8650 1300 8700 1300
$Comp
L Device:Jumper JP5
U 1 1 5B732052
P 5500 5950
F 0 "JP5" V 5454 6076 50  0000 L CNN
F 1 "I2C_PU_ENA" V 5545 6076 50  0000 L CNN
F 2 "Connector_PinHeader_2.54mm:PinHeader_2x01_P2.54mm_Vertical" H 5500 5950 50  0001 C CNN
F 3 "~" H 5500 5950 50  0001 C CNN
	1    5500 5950
	0    1    1    0   
$EndComp
Wire Wire Line
	5150 5250 5500 5250
Wire Wire Line
	5150 5350 5200 5350
$Comp
L Device:Jumper JP4
U 1 1 5B7472AE
P 5200 5950
F 0 "JP4" V 5154 6076 50  0000 L CNN
F 1 "I2C_PU_ENA" V 5245 6076 50  0000 L CNN
F 2 "Connector_PinHeader_2.54mm:PinHeader_2x01_P2.54mm_Vertical" H 5200 5950 50  0001 C CNN
F 3 "~" H 5200 5950 50  0001 C CNN
	1    5200 5950
	0    1    1    0   
$EndComp
Wire Wire Line
	5200 5650 5200 5350
Connection ~ 5200 5350
Wire Wire Line
	5200 5350 5600 5350
Wire Wire Line
	5500 5650 5500 5250
Connection ~ 5500 5250
Wire Wire Line
	5500 5250 5600 5250
$Comp
L power:+5V #PWR0103
U 1 1 5B74BCD7
P 7650 5300
F 0 "#PWR0103" H 7650 5150 50  0001 C CNN
F 1 "+5V" V 7665 5428 50  0000 L CNN
F 2 "" H 7650 5300 50  0001 C CNN
F 3 "" H 7650 5300 50  0001 C CNN
	1    7650 5300
	0    -1   -1   0   
$EndComp
Wire Wire Line
	9900 1750 9800 1750
Entry Wire Line
	9900 5950 10000 6050
Entry Wire Line
	9900 6050 10000 6150
Entry Wire Line
	9600 6150 9700 6250
Entry Wire Line
	9600 6050 9700 6150
Wire Wire Line
	10000 6150 10100 6150
Wire Wire Line
	10000 6050 10100 6050
Wire Wire Line
	9500 6050 9600 6050
Wire Wire Line
	9500 6150 9600 6150
Entry Wire Line
	9900 5650 10000 5750
Entry Wire Line
	9900 6250 10000 6350
Entry Wire Line
	9600 5950 9700 6050
Entry Wire Line
	9600 6250 9700 6350
Wire Bus Line
	9700 6400 9900 6400
Wire Wire Line
	9500 5950 9600 5950
Wire Wire Line
	9500 6250 9600 6250
Wire Wire Line
	10000 5750 10400 5750
Connection ~ 10400 5750
Wire Wire Line
	10000 6350 10100 6350
Text Label 9500 5950 0    50   ~ 0
GND
Text Label 9500 6050 0    50   ~ 0
D+
Text Label 9500 6150 0    50   ~ 0
D-
Text Label 9500 6250 0    50   ~ 0
5V
Text Label 10000 6350 0    50   ~ 0
5V
Text Label 10000 6150 0    50   ~ 0
D+
Text Label 10000 6050 0    50   ~ 0
D-
Text Label 10000 5750 0    50   ~ 0
GND
$Comp
L power:GND #PWR0104
U 1 1 5BA9D91A
P 800 6000
F 0 "#PWR0104" H 800 5750 50  0001 C CNN
F 1 "GND" H 805 5827 50  0000 C CNN
F 2 "" H 800 6000 50  0001 C CNN
F 3 "" H 800 6000 50  0001 C CNN
	1    800  6000
	1    0    0    -1  
$EndComp
$Comp
L power:GND #PWR0105
U 1 1 5BA9D9A9
P 800 5100
F 0 "#PWR0105" H 800 4850 50  0001 C CNN
F 1 "GND" H 805 4927 50  0000 C CNN
F 2 "" H 800 5100 50  0001 C CNN
F 3 "" H 800 5100 50  0001 C CNN
	1    800  5100
	1    0    0    -1  
$EndComp
$Comp
L Connector_Generic:Conn_01x05 J18
U 1 1 5BAE1463
P 2850 1300
F 0 "J18" H 2930 1342 50  0000 L CNN
F 1 "USB-intern" H 2930 1251 50  0000 L CNN
F 2 "Connector_PinHeader_2.54mm:PinHeader_1x05_P2.54mm_Vertical" H 2850 1300 50  0001 C CNN
F 3 "~" H 2850 1300 50  0001 C CNN
	1    2850 1300
	1    0    0    -1  
$EndComp
Wire Wire Line
	2650 1500 2650 1400
Connection ~ 2650 1500
Wire Wire Line
	2500 1500 2650 1500
$Comp
L Connector_Generic:Conn_01x05 J10
U 1 1 5BA96F1A
P 9300 6050
F 0 "J10" H 9220 5625 50  0000 C CNN
F 1 "USB-Host" H 9220 5716 50  0000 C CNN
F 2 "Connector_PinHeader_2.54mm:PinHeader_1x05_P2.54mm_Vertical" H 9300 6050 50  0001 C CNN
F 3 "~" H 9300 6050 50  0001 C CNN
	1    9300 6050
	-1   0    0    1   
$EndComp
Wire Wire Line
	9500 5950 9500 5850
Connection ~ 9500 5950
Text Notes 8800 6000 0    50   ~ 0
GND\n
$Comp
L Connector_Generic:Conn_01x04 J12
U 1 1 5BAB7797
P 10150 1100
F 0 "J12" H 10229 1092 50  0000 L CNN
F 1 "Audio out" H 10229 1001 50  0000 L CNN
F 2 "Connector_PinHeader_2.54mm:PinHeader_1x04_P2.54mm_Vertical" H 10150 1100 50  0001 C CNN
F 3 "~" H 10150 1100 50  0001 C CNN
	1    10150 1100
	1    0    0    -1  
$EndComp
$Comp
L Connector_Generic:Conn_01x05 J17
U 1 1 5BAB85DA
P 600 4900
F 0 "J17" H 520 4475 50  0000 C CNN
F 1 "Encoder 1" H 520 4566 50  0000 C CNN
F 2 "Connector_PinHeader_2.54mm:PinHeader_1x05_P2.54mm_Vertical" H 600 4900 50  0001 C CNN
F 3 "~" H 600 4900 50  0001 C CNN
	1    600  4900
	-1   0    0    1   
$EndComp
Wire Wire Line
	800  5100 800  5000
Connection ~ 800  5100
$Comp
L Connector_Generic:Conn_01x05 J16
U 1 1 5BAC305F
P 600 5800
F 0 "J16" H 520 5375 50  0000 C CNN
F 1 "Encoder 2" H 520 5466 50  0000 C CNN
F 2 "Connector_PinHeader_2.54mm:PinHeader_1x05_P2.54mm_Vertical" H 600 5800 50  0001 C CNN
F 3 "~" H 600 5800 50  0001 C CNN
	1    600  5800
	-1   0    0    1   
$EndComp
Wire Wire Line
	800  5900 800  6000
Connection ~ 800  6000
$Comp
L Connector_Generic:Conn_01x04 J7
U 1 1 5BACDD45
P 4950 5350
F 0 "J7" H 4870 4925 50  0000 C CNN
F 1 "LCD I2C" H 4870 5016 50  0000 C CNN
F 2 "Connector_PinHeader_2.54mm:PinHeader_1x04_P2.54mm_Vertical" H 4950 5350 50  0001 C CNN
F 3 "~" H 4950 5350 50  0001 C CNN
	1    4950 5350
	-1   0    0    1   
$EndComp
Wire Wire Line
	9800 1750 9800 1000
Wire Wire Line
	9750 1000 9800 1000
Connection ~ 9800 1000
Wire Wire Line
	9800 1000 9950 1000
$Comp
L Device:CP C4
U 1 1 5B5DD003
P 9000 1300
F 0 "C4" V 8850 1300 50  0000 C CNN
F 1 "47uF" V 8750 1300 50  0000 C CNN
F 2 "w_capacitors:CP_6.3x11mm" H 9038 1150 50  0001 C CNN
F 3 "~" H 9000 1300 50  0001 C CNN
	1    9000 1300
	0    -1   -1   0   
$EndComp
Wire Wire Line
	9750 1300 9900 1300
Wire Wire Line
	9700 1200 9950 1200
Wire Wire Line
	9900 1550 9900 1300
Connection ~ 9900 1300
Wire Wire Line
	9900 1300 9950 1300
Wire Wire Line
	9950 1100 9700 1100
Wire Wire Line
	9700 1100 9700 1150
Wire Wire Line
	9700 1150 9700 1200
Connection ~ 9700 1150
Text Notes 6500 950  0    50   ~ 0
LEFT\n
Text Notes 6500 1350 0    50   ~ 0
RIGHT\n
Text Notes 10250 1900 0    50   ~ 0
RIGHT\n
Text Notes 10250 1550 0    50   ~ 0
LEFT\n
Wire Wire Line
	8650 1200 8800 1200
Wire Wire Line
	8800 1200 8800 1300
Wire Wire Line
	8800 1300 8850 1300
Wire Wire Line
	8650 1000 8850 1000
Wire Wire Line
	8700 1650 9150 1650
Connection ~ 9150 1650
Wire Wire Line
	9500 1650 9500 1900
Wire Wire Line
	9150 1650 9500 1650
Wire Wire Line
	9300 2450 9500 2450
Wire Wire Line
	9500 2450 9500 2200
Wire Wire Line
	7650 5300 8550 5300
$Comp
L 74xx:74LS14 U4
U 7 1 5BC327F8
P 6000 4250
F 0 "U4" H 6230 4296 50  0000 L CNN
F 1 "74LS14" H 6230 4205 50  0000 L CNN
F 2 "Package_DIP:DIP-14_W7.62mm_Socket_LongPads" H 6000 4250 50  0001 C CNN
F 3 "http://www.ti.com/lit/gpn/sn74LS14" H 6000 4250 50  0001 C CNN
	7    6000 4250
	1    0    0    -1  
$EndComp
$Comp
L power:+5V #PWR0106
U 1 1 5BC450A7
P 6000 3750
F 0 "#PWR0106" H 6000 3600 50  0001 C CNN
F 1 "+5V" V 6015 3878 50  0000 L CNN
F 2 "" H 6000 3750 50  0001 C CNN
F 3 "" H 6000 3750 50  0001 C CNN
	1    6000 3750
	1    0    0    -1  
$EndComp
$Comp
L power:GND #PWR0107
U 1 1 5BC57A29
P 6000 4750
F 0 "#PWR0107" H 6000 4500 50  0001 C CNN
F 1 "GND" H 6005 4577 50  0000 C CNN
F 2 "" H 6000 4750 50  0001 C CNN
F 3 "" H 6000 4750 50  0001 C CNN
	1    6000 4750
	1    0    0    -1  
$EndComp
$Comp
L 74xx:74LS14 U4
U 1 1 5BC6125B
P 9300 3850
F 0 "U4" H 9300 4167 50  0000 C CNN
F 1 "74LS14" H 9300 4076 50  0000 C CNN
F 2 "Package_DIP:DIP-14_W7.62mm_Socket_LongPads" H 9300 3850 50  0001 C CNN
F 3 "http://www.ti.com/lit/gpn/sn74LS14" H 9300 3850 50  0001 C CNN
	1    9300 3850
	1    0    0    -1  
$EndComp
$Comp
L 74xx:74LS14 U4
U 2 1 5BC61394
P 7750 4200
F 0 "U4" H 7750 4517 50  0000 C CNN
F 1 "74LS14" H 7750 4426 50  0000 C CNN
F 2 "Package_DIP:DIP-14_W7.62mm_Socket_LongPads" H 7750 4200 50  0001 C CNN
F 3 "http://www.ti.com/lit/gpn/sn74LS14" H 7750 4200 50  0001 C CNN
	2    7750 4200
	1    0    0    -1  
$EndComp
$Comp
L 74xx:74LS14 U4
U 3 1 5BC614DA
P 6900 3650
F 0 "U4" H 6900 3967 50  0000 C CNN
F 1 "74LS14" H 6900 3876 50  0000 C CNN
F 2 "Package_DIP:DIP-14_W7.62mm_Socket_LongPads" H 6900 3650 50  0001 C CNN
F 3 "http://www.ti.com/lit/gpn/sn74LS14" H 6900 3650 50  0001 C CNN
	3    6900 3650
	1    0    0    -1  
$EndComp
$Comp
L 74xx:74LS14 U4
U 4 1 5BC615CF
P 7750 3650
F 0 "U4" H 7750 3967 50  0000 C CNN
F 1 "74LS14" H 7750 3876 50  0000 C CNN
F 2 "Package_DIP:DIP-14_W7.62mm_Socket_LongPads" H 7750 3650 50  0001 C CNN
F 3 "http://www.ti.com/lit/gpn/sn74LS14" H 7750 3650 50  0001 C CNN
	4    7750 3650
	1    0    0    -1  
$EndComp
$Comp
L 74xx:74LS14 U4
U 5 1 5BC61701
P 7150 4200
F 0 "U4" H 7150 4517 50  0000 C CNN
F 1 "74LS14" H 7150 4426 50  0000 C CNN
F 2 "Package_DIP:DIP-14_W7.62mm_Socket_LongPads" H 7150 4200 50  0001 C CNN
F 3 "http://www.ti.com/lit/gpn/sn74LS14" H 7150 4200 50  0001 C CNN
	5    7150 4200
	1    0    0    -1  
$EndComp
$Comp
L 74xx:74LS14 U4
U 6 1 5BC617F6
P 8700 3850
F 0 "U4" H 8700 4167 50  0000 C CNN
F 1 "74LS14" H 8700 4076 50  0000 C CNN
F 2 "Package_DIP:DIP-14_W7.62mm_Socket_LongPads" H 8700 3850 50  0001 C CNN
F 3 "http://www.ti.com/lit/gpn/sn74LS14" H 8700 3850 50  0001 C CNN
	6    8700 3850
	1    0    0    -1  
$EndComp
$Comp
L power:+5V #PWR0108
U 1 1 5BC7E007
P 9600 4450
F 0 "#PWR0108" H 9600 4300 50  0001 C CNN
F 1 "+5V" V 9615 4578 50  0000 L CNN
F 2 "" H 9600 4450 50  0001 C CNN
F 3 "" H 9600 4450 50  0001 C CNN
	1    9600 4450
	0    -1   -1   0   
$EndComp
$Comp
L power:GND #PWR0111
U 1 1 5BC7E66A
P 7450 3650
F 0 "#PWR0111" H 7450 3400 50  0001 C CNN
F 1 "GND" H 7455 3477 50  0000 C CNN
F 2 "" H 7450 3650 50  0001 C CNN
F 3 "" H 7450 3650 50  0001 C CNN
	1    7450 3650
	0    1    1    0   
$EndComp
$Comp
L power:GND #PWR0112
U 1 1 5BC7E6DB
P 6600 3650
F 0 "#PWR0112" H 6600 3400 50  0001 C CNN
F 1 "GND" H 6605 3477 50  0000 C CNN
F 2 "" H 6600 3650 50  0001 C CNN
F 3 "" H 6600 3650 50  0001 C CNN
	1    6600 3650
	0    1    1    0   
$EndComp
NoConn ~ 7200 3650
Text GLabel 6850 4200 0    50   Input ~ 0
MIDI_IN
Wire Wire Line
	8700 1300 8700 1650
Connection ~ 8700 1650
$Comp
L power:GND #PWR0109
U 1 1 5BC0E8F5
P 8600 4300
F 0 "#PWR0109" H 8600 4050 50  0001 C CNN
F 1 "GND" H 8605 4127 50  0000 C CNN
F 2 "" H 8600 4300 50  0001 C CNN
F 3 "" H 8600 4300 50  0001 C CNN
	1    8600 4300
	0    1    1    0   
$EndComp
$Comp
L Device:R R9
U 1 1 5BC0EA04
P 8200 4400
F 0 "R9" V 8100 4400 50  0000 C CNN
F 1 "220R" V 8200 4400 50  0000 C CNN
F 2 "Resistor_THT:R_Axial_DIN0207_L6.3mm_D2.5mm_P7.62mm_Horizontal" V 8130 4400 50  0001 C CNN
F 3 "~" H 8200 4400 50  0001 C CNN
	1    8200 4400
	0    1    1    0   
$EndComp
$Comp
L Device:R R8
U 1 1 5BC0EAD3
P 8200 4200
F 0 "R8" V 8100 4200 50  0000 C CNN
F 1 "220R" V 8200 4200 50  0000 C CNN
F 2 "Resistor_THT:R_Axial_DIN0207_L6.3mm_D2.5mm_P7.62mm_Horizontal" V 8130 4200 50  0001 C CNN
F 3 "~" H 8200 4200 50  0001 C CNN
	1    8200 4200
	0    1    1    0   
$EndComp
$Comp
L power:+5V #PWR0110
U 1 1 5BC0F08F
P 8050 4400
F 0 "#PWR0110" H 8050 4250 50  0001 C CNN
F 1 "+5V" V 8065 4528 50  0000 L CNN
F 2 "" H 8050 4400 50  0001 C CNN
F 3 "" H 8050 4400 50  0001 C CNN
	1    8050 4400
	0    -1   -1   0   
$EndComp
$Comp
L Connector_Generic:Conn_01x03 J19
U 1 1 5BBE03FE
P 8800 4300
F 0 "J19" H 8720 3975 50  0000 C CNN
F 1 "MIDI THRU" H 8720 4066 50  0000 C CNN
F 2 "Connector_PinHeader_2.54mm:PinHeader_1x03_P2.54mm_Vertical" H 8800 4300 50  0001 C CNN
F 3 "~" H 8800 4300 50  0001 C CNN
	1    8800 4300
	1    0    0    -1  
$EndComp
Wire Wire Line
	8350 4200 8600 4200
Wire Wire Line
	8350 4400 8600 4400
NoConn ~ 8050 3650
$Comp
L Connector_Generic:Conn_01x04 J8
U 1 1 5BC5BEE4
P 5500 1200
F 0 "J8" H 5579 1192 50  0000 L CNN
F 1 "Audio In" H 5579 1101 50  0000 L CNN
F 2 "Connector_PinHeader_2.54mm:PinHeader_1x04_P2.54mm_Vertical" H 5500 1200 50  0001 C CNN
F 3 "~" H 5500 1200 50  0001 C CNN
	1    5500 1200
	-1   0    0    1   
$EndComp
Wire Wire Line
	5700 1000 6200 1000
Wire Wire Line
	5700 1300 6100 1300
Wire Wire Line
	6100 1300 6100 1200
Wire Wire Line
	6100 1200 6200 1200
Wire Wire Line
	5700 1100 5750 1100
Wire Wire Line
	5750 1100 5750 1150
Wire Wire Line
	5750 1150 5800 1150
Wire Wire Line
	5700 1200 5750 1200
Wire Wire Line
	5750 1200 5750 1150
Connection ~ 5750 1150
$Comp
L power:GND #PWR0113
U 1 1 5BC8300E
P 6400 1400
F 0 "#PWR0113" H 6400 1150 50  0001 C CNN
F 1 "GND" H 6550 1350 50  0000 C CNN
F 2 "" H 6400 1400 50  0001 C CNN
F 3 "" H 6400 1400 50  0001 C CNN
	1    6400 1400
	1    0    0    -1  
$EndComp
Wire Wire Line
	1500 1400 1550 1400
Wire Wire Line
	1550 1400 1550 1200
Text GLabel 2300 5100 2    50   Input ~ 0
2_PWM
Text GLabel 2300 5200 2    50   Input ~ 0
3_PWM_CAN0TX_SCL2
Text GLabel 2300 5300 2    50   Input ~ 0
4_PWM_CAN0RX_SDA2
Text GLabel 2300 5700 2    50   Input ~ 0
29_PWM_cano0tx_Touch
Text GLabel 2300 5800 2    50   Input ~ 0
D28_mosi0
Text GLabel 2300 5900 2    50   Input ~ 0
30_PWM_can0rx_Touch
$Comp
L power:GND #PWR0114
U 1 1 5BD3B7F0
P 1800 5900
F 0 "#PWR0114" H 1800 5650 50  0001 C CNN
F 1 "GND" H 1805 5727 50  0000 C CNN
F 2 "" H 1800 5900 50  0001 C CNN
F 3 "" H 1800 5900 50  0001 C CNN
	1    1800 5900
	1    0    0    -1  
$EndComp
$Comp
L Connector_Generic:Conn_02x09_Odd_Even J2
U 1 1 5BD5C064
P 2000 5500
F 0 "J2" H 2050 6117 50  0000 C CNN
F 1 "Digital I/O" H 2050 6026 50  0000 C CNN
F 2 "Connector_PinHeader_2.54mm:PinHeader_2x09_P2.54mm_Vertical" H 2000 5500 50  0001 C CNN
F 3 "~" H 2000 5500 50  0001 C CNN
	1    2000 5500
	1    0    0    -1  
$EndComp
Wire Wire Line
	1800 5900 1800 5800
Connection ~ 1800 5900
Wire Wire Line
	1800 5800 1800 5700
Connection ~ 1800 5800
Wire Wire Line
	1800 5700 1800 5600
Connection ~ 1800 5700
Wire Wire Line
	1800 5600 1800 5500
Connection ~ 1800 5600
Wire Wire Line
	1800 5500 1800 5400
Connection ~ 1800 5500
Wire Wire Line
	1800 5400 1800 5300
Connection ~ 1800 5400
Wire Wire Line
	1800 5300 1800 5200
Connection ~ 1800 5300
Wire Wire Line
	1800 5200 1800 5100
Connection ~ 1800 5200
NoConn ~ 1100 1700
Wire Wire Line
	1550 1200 2650 1200
Wire Wire Line
	1500 1300 2650 1300
Wire Wire Line
	1750 1700 2250 1700
Wire Wire Line
	2500 1500 2500 1700
Connection ~ 1750 1700
Wire Wire Line
	1750 1100 2250 1100
Connection ~ 1750 1100
Connection ~ 2650 1100
$Comp
L Device:CP C6
U 1 1 5C891EE7
P 2250 1400
F 0 "C6" H 2368 1446 50  0000 L CNN
F 1 "220mF" H 2368 1355 50  0000 L CNN
F 2 "w_capacitors:cnp_6mm_disc" H 2288 1250 50  0001 C CNN
F 3 "~" H 2250 1400 50  0001 C CNN
	1    2250 1400
	1    0    0    -1  
$EndComp
Wire Wire Line
	2250 1250 2250 1100
Connection ~ 2250 1100
Wire Wire Line
	2250 1100 2650 1100
Wire Wire Line
	2250 1550 2250 1700
Connection ~ 2250 1700
Wire Wire Line
	2250 1700 2500 1700
Wire Bus Line
	9700 6050 9700 6400
Wire Bus Line
	9900 5650 9900 6400
$EndSCHEMATC
