EESchema Schematic File Version 4
EELAYER 30 0
EELAYER END
$Descr A4 11693 8268
encoding utf-8
Sheet 1 1
Title "T4.1 Adapter Board"
Date "2020-10-26"
Rev "1"
Comp "parasiTstudio"
Comment1 ""
Comment2 ""
Comment3 ""
Comment4 ""
$EndDescr
$Comp
L power:+3V3 #PWR0101
U 1 1 5FA92685
P 4850 900
F 0 "#PWR0101" H 4850 750 50  0001 C CNN
F 1 "+3V3" H 4865 1073 50  0000 C CNN
F 2 "" H 4850 900 50  0001 C CNN
F 3 "" H 4850 900 50  0001 C CNN
	1    4850 900 
	1    0    0    -1  
$EndComp
$Comp
L power:+5V #PWR0102
U 1 1 5FA95620
P 4600 900
F 0 "#PWR0102" H 4600 750 50  0001 C CNN
F 1 "+5V" H 4615 1073 50  0000 C CNN
F 2 "" H 4600 900 50  0001 C CNN
F 3 "" H 4600 900 50  0001 C CNN
	1    4600 900 
	1    0    0    -1  
$EndComp
$Comp
L power:GND #PWR0103
U 1 1 5FA98C85
P 4350 900
F 0 "#PWR0103" H 4350 650 50  0001 C CNN
F 1 "GND" H 4355 727 50  0000 C CNN
F 2 "" H 4350 900 50  0001 C CNN
F 3 "" H 4350 900 50  0001 C CNN
	1    4350 900 
	-1   0    0    1   
$EndComp
$Comp
L Connector_Generic:Conn_01x24 J2_T3.6_R1
U 1 1 5F938434
P 3900 3200
F 0 "J2_T3.6_R1" H 3900 1900 50  0000 C CNN
F 1 "Conn_01x24" V 4000 2200 50  0000 C CNN
F 2 "Connector_PinSocket_2.54mm:PinSocket_1x24_P2.54mm_Vertical" H 3900 3200 50  0001 C CNN
F 3 "~" H 3900 3200 50  0001 C CNN
	1    3900 3200
	0    1    1    0   
$EndComp
$Comp
L Connector_Generic:Conn_01x24 J1_T3.6_L1
U 1 1 5F936C67
P 3800 4050
F 0 "J1_T3.6_L1" H 3750 5250 50  0000 L CNN
F 1 "Conn_01x24" V 3900 4700 50  0000 L CNN
F 2 "Connector_PinSocket_2.54mm:PinSocket_1x24_P2.54mm_Vertical" H 3800 4050 50  0001 C CNN
F 3 "~" H 3800 4050 50  0001 C CNN
	1    3800 4050
	0    -1   -1   0   
$EndComp
$Comp
L parasitStudio:Teensy-4.1-IC-socket U1
U 1 1 5F98626C
P 7850 3650
F 0 "U1" V 7946 2422 50  0000 R CNN
F 1 "Teensy-4.1-IC-socket" V 7855 2422 50  0000 R CNN
F 2 "Package_DIP:DIP-48_W15.24mm_Socket_LongPads" H 7700 2800 50  0001 C CNN
F 3 "" H 7700 2800 50  0001 C CNN
	1    7850 3650
	0    -1   -1   0   
$EndComp
Wire Wire Line
	2700 3000 2700 2350
Wire Wire Line
	6650 2350 6650 2400
Wire Wire Line
	2900 3000 2900 2250
Wire Wire Line
	2900 2250 4850 2250
Wire Wire Line
	6850 2250 6850 2400
Wire Wire Line
	8050 2400 8050 2200
Wire Wire Line
	8050 2200 4350 2200
Wire Wire Line
	4100 2200 4100 3000
Wire Wire Line
	4100 4250 4100 4900
Wire Wire Line
	4100 4900 5250 4900
Wire Wire Line
	8050 4900 8050 4800
Wire Wire Line
	2700 4250 2700 4950
Wire Wire Line
	2700 4950 6650 4950
Wire Wire Line
	6650 4950 6650 4800
Wire Wire Line
	2800 4250 2800 5000
Wire Wire Line
	2800 5000 6750 5000
Wire Wire Line
	6750 5000 6750 4800
Wire Wire Line
	2900 4250 2900 5050
Wire Wire Line
	2900 5050 6850 5050
Wire Wire Line
	6850 5050 6850 4800
Wire Wire Line
	3000 3000 3000 2150
Wire Wire Line
	3000 2150 7250 2150
Wire Wire Line
	7250 2150 7250 2400
Wire Wire Line
	3900 4250 3900 4300
Wire Wire Line
	3900 4300 5150 4300
Wire Wire Line
	5150 4300 5150 2100
Wire Wire Line
	5150 2100 6950 2100
Wire Wire Line
	6950 2100 6950 2400
Wire Wire Line
	3700 4250 3700 4350
Wire Wire Line
	3700 4350 5200 4350
Wire Wire Line
	5200 4350 5200 2050
Wire Wire Line
	5200 2050 7150 2050
Wire Wire Line
	7150 2050 7150 2400
Wire Wire Line
	7550 4800 7550 5100
Wire Wire Line
	7550 5100 6450 5100
Wire Wire Line
	6450 5100 6450 2950
Wire Wire Line
	4000 2950 4000 3000
Wire Wire Line
	6450 2950 4000 2950
Wire Wire Line
	3100 3000 3100 2900
Wire Wire Line
	3100 2900 6400 2900
Wire Wire Line
	6400 2900 6400 5150
Wire Wire Line
	6400 5150 7450 5150
Wire Wire Line
	7450 5150 7450 4800
Wire Wire Line
	3800 4250 3800 5200
Wire Wire Line
	3800 5200 7750 5200
Wire Wire Line
	7750 5200 7750 4800
Wire Wire Line
	3900 3000 3900 2000
Wire Wire Line
	3900 2000 7950 2000
Wire Wire Line
	7950 2000 7950 2400
Wire Wire Line
	4000 4250 4000 5300
Wire Wire Line
	4000 5300 7950 5300
Wire Wire Line
	7950 5300 7950 4800
Wire Wire Line
	3400 4250 3400 5350
Wire Wire Line
	3400 5350 7350 5350
Wire Wire Line
	7350 5350 7350 4800
Wire Wire Line
	3400 3000 3400 1950
Wire Wire Line
	3400 1950 7350 1950
Wire Wire Line
	7350 1950 7350 2400
Wire Wire Line
	3500 3000 3500 1900
Wire Wire Line
	3500 1900 7450 1900
Wire Wire Line
	7450 1900 7450 2400
Wire Wire Line
	3100 4250 3100 5400
Wire Wire Line
	3100 5400 7050 5400
Wire Wire Line
	7050 5400 7050 4800
Wire Wire Line
	3000 4250 3000 5450
Wire Wire Line
	3000 5450 6950 5450
Wire Wire Line
	6950 5450 6950 4800
Wire Wire Line
	3200 4250 3200 5500
Wire Wire Line
	3200 5500 7150 5500
Wire Wire Line
	7150 5500 7150 4800
Wire Wire Line
	4600 4250 4600 5550
Wire Wire Line
	4600 5550 8150 5550
Wire Wire Line
	8150 5550 8150 4800
Wire Wire Line
	4700 4250 4700 5600
Wire Wire Line
	4700 5600 7250 5600
Wire Wire Line
	7250 5600 7250 4800
Wire Wire Line
	4800 4250 4800 5650
Wire Wire Line
	4800 5650 7650 5650
Wire Wire Line
	7650 5650 7650 4800
Wire Wire Line
	2700 2350 4600 2350
Wire Wire Line
	4600 900  4600 2350
Connection ~ 4600 2350
Wire Wire Line
	4600 2350 6650 2350
Wire Wire Line
	4850 900  4850 2250
Connection ~ 4850 2250
Wire Wire Line
	4850 2250 5250 2250
NoConn ~ 3200 3000
NoConn ~ 3300 3000
NoConn ~ 3600 3000
NoConn ~ 3700 3000
NoConn ~ 3800 3000
NoConn ~ 4300 3000
NoConn ~ 4400 3000
NoConn ~ 4500 3000
NoConn ~ 4600 3000
NoConn ~ 4700 3000
NoConn ~ 4800 3000
NoConn ~ 4900 3000
NoConn ~ 5000 3000
NoConn ~ 5000 4250
NoConn ~ 4900 4250
NoConn ~ 4500 4250
NoConn ~ 4400 4250
NoConn ~ 4300 4250
NoConn ~ 4200 4250
NoConn ~ 3600 4250
NoConn ~ 3300 4250
NoConn ~ 7050 2400
NoConn ~ 7550 2400
NoConn ~ 7650 2400
NoConn ~ 7750 2400
NoConn ~ 7850 2400
NoConn ~ 8150 2400
NoConn ~ 8250 2400
NoConn ~ 8350 2400
NoConn ~ 8450 2400
NoConn ~ 8550 2400
NoConn ~ 8650 2400
NoConn ~ 8750 2400
NoConn ~ 8850 2400
NoConn ~ 8950 2400
NoConn ~ 8950 4800
NoConn ~ 8850 4800
NoConn ~ 8750 4800
NoConn ~ 8650 4800
NoConn ~ 8550 4800
NoConn ~ 8450 4800
NoConn ~ 8350 4800
NoConn ~ 8250 4800
Wire Wire Line
	2500 4950 2700 4950
Connection ~ 2700 4950
Wire Wire Line
	5250 4900 5250 2250
Connection ~ 5250 4900
Wire Wire Line
	5250 4900 8050 4900
Connection ~ 5250 2250
Wire Wire Line
	5250 2250 6850 2250
NoConn ~ 4200 3000
Wire Wire Line
	3500 4250 3500 5250
Wire Wire Line
	3500 5250 7850 5250
Wire Wire Line
	7850 5250 7850 4800
$Comp
L power:GNDA #PWR0104
U 1 1 5F97A358
P 4100 900
F 0 "#PWR0104" H 4100 650 50  0001 C CNN
F 1 "GNDA" H 4105 727 50  0000 C CNN
F 2 "" H 4100 900 50  0001 C CNN
F 3 "" H 4100 900 50  0001 C CNN
	1    4100 900 
	-1   0    0    1   
$EndComp
Wire Wire Line
	4100 2200 2500 2200
Wire Wire Line
	2500 2200 2500 4950
Connection ~ 4100 2200
Wire Wire Line
	4350 900  4350 2200
Connection ~ 4350 2200
Wire Wire Line
	4350 2200 4100 2200
Wire Wire Line
	2800 3000 2800 1850
Wire Wire Line
	2800 1850 4100 1850
Wire Wire Line
	4100 1850 4100 900 
Wire Wire Line
	4100 1850 6750 1850
Wire Wire Line
	6750 1850 6750 2400
Connection ~ 4100 1850
$Comp
L Graphic:Logo_Open_Hardware_Large #LOGO?
U 1 1 5F9A60A9
P 6300 7150
F 0 "#LOGO?" H 6300 7650 50  0001 C CNN
F 1 "Logo_Open_Hardware_Large" H 6300 6750 50  0001 C CNN
F 2 "" H 6300 7150 50  0001 C CNN
F 3 "~" H 6300 7150 50  0001 C CNN
	1    6300 7150
	1    0    0    -1  
$EndComp
$EndSCHEMATC
