%TF.GenerationSoftware,KiCad,Pcbnew,5.1.7-a382d34a8~87~ubuntu20.04.1*%
%TF.CreationDate,2020-10-27T09:01:57+01:00*%
%TF.ProjectId,T4.1-Adapter-Board,54342e31-2d41-4646-9170-7465722d426f,1.0*%
%TF.SameCoordinates,Original*%
%TF.FileFunction,Copper,L1,Top*%
%TF.FilePolarity,Positive*%
%FSLAX46Y46*%
G04 Gerber Fmt 4.6, Leading zero omitted, Abs format (unit mm)*
G04 Created by KiCad (PCBNEW 5.1.7-a382d34a8~87~ubuntu20.04.1) date 2020-10-27 09:01:57*
%MOMM*%
%LPD*%
G01*
G04 APERTURE LIST*
%TA.AperFunction,ComponentPad*%
%ADD10O,1.700000X1.700000*%
%TD*%
%TA.AperFunction,ComponentPad*%
%ADD11R,1.700000X1.700000*%
%TD*%
%TA.AperFunction,ComponentPad*%
%ADD12R,2.400000X1.600000*%
%TD*%
%TA.AperFunction,ComponentPad*%
%ADD13O,2.400000X1.600000*%
%TD*%
%TA.AperFunction,Conductor*%
%ADD14C,0.250000*%
%TD*%
G04 APERTURE END LIST*
D10*
%TO.P,J1_T3.6_L1,24*%
%TO.N,N/C*%
X143764000Y-146304000D03*
%TO.P,J1_T3.6_L1,23*%
X143764000Y-143764000D03*
%TO.P,J1_T3.6_L1,22*%
%TO.N,Net-(J1_T3.6_L1-Pad22)*%
X143764000Y-141224000D03*
%TO.P,J1_T3.6_L1,21*%
%TO.N,Net-(J1_T3.6_L1-Pad21)*%
X143764000Y-138684000D03*
%TO.P,J1_T3.6_L1,20*%
%TO.N,Net-(J1_T3.6_L1-Pad20)*%
X143764000Y-136144000D03*
%TO.P,J1_T3.6_L1,19*%
%TO.N,N/C*%
X143764000Y-133604000D03*
%TO.P,J1_T3.6_L1,18*%
X143764000Y-131064000D03*
%TO.P,J1_T3.6_L1,17*%
X143764000Y-128524000D03*
%TO.P,J1_T3.6_L1,16*%
X143764000Y-125984000D03*
%TO.P,J1_T3.6_L1,15*%
%TO.N,+3V3*%
X143764000Y-123444000D03*
%TO.P,J1_T3.6_L1,14*%
%TO.N,Net-(J1_T3.6_L1-Pad14)*%
X143764000Y-120904000D03*
%TO.P,J1_T3.6_L1,13*%
%TO.N,Net-(J1_T3.6_L1-Pad13)*%
X143764000Y-118364000D03*
%TO.P,J1_T3.6_L1,12*%
%TO.N,Net-(J1_T3.6_L1-Pad12)*%
X143764000Y-115824000D03*
%TO.P,J1_T3.6_L1,11*%
%TO.N,Net-(J1_T3.6_L1-Pad11)*%
X143764000Y-113284000D03*
%TO.P,J1_T3.6_L1,10*%
%TO.N,N/C*%
X143764000Y-110744000D03*
%TO.P,J1_T3.6_L1,9*%
%TO.N,Net-(J1_T3.6_L1-Pad9)*%
X143764000Y-108204000D03*
%TO.P,J1_T3.6_L1,8*%
%TO.N,Net-(J1_T3.6_L1-Pad8)*%
X143764000Y-105664000D03*
%TO.P,J1_T3.6_L1,7*%
%TO.N,N/C*%
X143764000Y-103124000D03*
%TO.P,J1_T3.6_L1,6*%
%TO.N,Net-(J1_T3.6_L1-Pad6)*%
X143764000Y-100584000D03*
%TO.P,J1_T3.6_L1,5*%
%TO.N,Net-(J1_T3.6_L1-Pad5)*%
X143764000Y-98044000D03*
%TO.P,J1_T3.6_L1,4*%
%TO.N,Net-(J1_T3.6_L1-Pad4)*%
X143764000Y-95504000D03*
%TO.P,J1_T3.6_L1,3*%
%TO.N,Net-(J1_T3.6_L1-Pad3)*%
X143764000Y-92964000D03*
%TO.P,J1_T3.6_L1,2*%
%TO.N,Net-(J1_T3.6_L1-Pad2)*%
X143764000Y-90424000D03*
D11*
%TO.P,J1_T3.6_L1,1*%
%TO.N,GND*%
X143764000Y-87884000D03*
%TD*%
%TO.P,J2_T3.6_R1,1*%
%TO.N,N/C*%
X159004000Y-146304000D03*
D10*
%TO.P,J2_T3.6_R1,2*%
X159004000Y-143764000D03*
%TO.P,J2_T3.6_R1,3*%
X159004000Y-141224000D03*
%TO.P,J2_T3.6_R1,4*%
X159004000Y-138684000D03*
%TO.P,J2_T3.6_R1,5*%
X159004000Y-136144000D03*
%TO.P,J2_T3.6_R1,6*%
X159004000Y-133604000D03*
%TO.P,J2_T3.6_R1,7*%
X159004000Y-131064000D03*
%TO.P,J2_T3.6_R1,8*%
X159004000Y-128524000D03*
%TO.P,J2_T3.6_R1,9*%
X159004000Y-125984000D03*
%TO.P,J2_T3.6_R1,10*%
%TO.N,GND*%
X159004000Y-123444000D03*
%TO.P,J2_T3.6_R1,11*%
%TO.N,Net-(J2_T3.6_R1-Pad11)*%
X159004000Y-120904000D03*
%TO.P,J2_T3.6_R1,12*%
%TO.N,Net-(J2_T3.6_R1-Pad12)*%
X159004000Y-118364000D03*
%TO.P,J2_T3.6_R1,13*%
%TO.N,N/C*%
X159004000Y-115824000D03*
%TO.P,J2_T3.6_R1,14*%
X159004000Y-113284000D03*
%TO.P,J2_T3.6_R1,15*%
X159004000Y-110744000D03*
%TO.P,J2_T3.6_R1,16*%
%TO.N,Net-(J2_T3.6_R1-Pad16)*%
X159004000Y-108204000D03*
%TO.P,J2_T3.6_R1,17*%
%TO.N,Net-(J2_T3.6_R1-Pad17)*%
X159004000Y-105664000D03*
%TO.P,J2_T3.6_R1,18*%
%TO.N,N/C*%
X159004000Y-103124000D03*
%TO.P,J2_T3.6_R1,19*%
X159004000Y-100584000D03*
%TO.P,J2_T3.6_R1,20*%
%TO.N,Net-(J2_T3.6_R1-Pad20)*%
X159004000Y-98044000D03*
%TO.P,J2_T3.6_R1,21*%
%TO.N,Net-(J2_T3.6_R1-Pad21)*%
X159004000Y-95504000D03*
%TO.P,J2_T3.6_R1,22*%
%TO.N,+3V3*%
X159004000Y-92964000D03*
%TO.P,J2_T3.6_R1,23*%
%TO.N,GNDA*%
X159004000Y-90424000D03*
%TO.P,J2_T3.6_R1,24*%
%TO.N,+5V*%
X159004000Y-87884000D03*
%TD*%
D12*
%TO.P,U1,1*%
%TO.N,GND*%
X136144000Y-87884000D03*
D13*
%TO.P,U1,25*%
%TO.N,N/C*%
X151384000Y-146304000D03*
%TO.P,U1,2*%
%TO.N,Net-(J1_T3.6_L1-Pad2)*%
X136144000Y-90424000D03*
%TO.P,U1,26*%
%TO.N,N/C*%
X151384000Y-143764000D03*
%TO.P,U1,3*%
%TO.N,Net-(J1_T3.6_L1-Pad3)*%
X136144000Y-92964000D03*
%TO.P,U1,27*%
%TO.N,N/C*%
X151384000Y-141224000D03*
%TO.P,U1,4*%
%TO.N,Net-(J1_T3.6_L1-Pad4)*%
X136144000Y-95504000D03*
%TO.P,U1,28*%
%TO.N,N/C*%
X151384000Y-138684000D03*
%TO.P,U1,5*%
%TO.N,Net-(J1_T3.6_L1-Pad5)*%
X136144000Y-98044000D03*
%TO.P,U1,29*%
%TO.N,N/C*%
X151384000Y-136144000D03*
%TO.P,U1,6*%
%TO.N,Net-(J1_T3.6_L1-Pad6)*%
X136144000Y-100584000D03*
%TO.P,U1,30*%
%TO.N,N/C*%
X151384000Y-133604000D03*
%TO.P,U1,7*%
%TO.N,Net-(J1_T3.6_L1-Pad21)*%
X136144000Y-103124000D03*
%TO.P,U1,31*%
%TO.N,N/C*%
X151384000Y-131064000D03*
%TO.P,U1,8*%
%TO.N,Net-(J1_T3.6_L1-Pad8)*%
X136144000Y-105664000D03*
%TO.P,U1,32*%
%TO.N,N/C*%
X151384000Y-128524000D03*
%TO.P,U1,9*%
%TO.N,Net-(J2_T3.6_R1-Pad20)*%
X136144000Y-108204000D03*
%TO.P,U1,33*%
%TO.N,N/C*%
X151384000Y-125984000D03*
%TO.P,U1,10*%
%TO.N,Net-(J2_T3.6_R1-Pad11)*%
X136144000Y-110744000D03*
%TO.P,U1,34*%
%TO.N,GND*%
X151384000Y-123444000D03*
%TO.P,U1,11*%
%TO.N,Net-(J1_T3.6_L1-Pad22)*%
X136144000Y-113284000D03*
%TO.P,U1,35*%
%TO.N,Net-(J2_T3.6_R1-Pad12)*%
X151384000Y-120904000D03*
%TO.P,U1,12*%
%TO.N,Net-(J1_T3.6_L1-Pad12)*%
X136144000Y-115824000D03*
%TO.P,U1,36*%
%TO.N,N/C*%
X151384000Y-118364000D03*
%TO.P,U1,13*%
%TO.N,Net-(J1_T3.6_L1-Pad9)*%
X136144000Y-118364000D03*
%TO.P,U1,37*%
%TO.N,N/C*%
X151384000Y-115824000D03*
%TO.P,U1,14*%
%TO.N,Net-(J1_T3.6_L1-Pad14)*%
X136144000Y-120904000D03*
%TO.P,U1,38*%
%TO.N,N/C*%
X151384000Y-113284000D03*
%TO.P,U1,15*%
%TO.N,+3V3*%
X136144000Y-123444000D03*
%TO.P,U1,39*%
%TO.N,N/C*%
X151384000Y-110744000D03*
%TO.P,U1,16*%
%TO.N,Net-(J1_T3.6_L1-Pad20)*%
X136144000Y-125984000D03*
%TO.P,U1,40*%
%TO.N,Net-(J2_T3.6_R1-Pad16)*%
X151384000Y-108204000D03*
%TO.P,U1,17*%
%TO.N,N/C*%
X136144000Y-128524000D03*
%TO.P,U1,41*%
%TO.N,Net-(J2_T3.6_R1-Pad17)*%
X151384000Y-105664000D03*
%TO.P,U1,18*%
%TO.N,N/C*%
X136144000Y-131064000D03*
%TO.P,U1,42*%
%TO.N,Net-(J2_T3.6_R1-Pad21)*%
X151384000Y-103124000D03*
%TO.P,U1,19*%
%TO.N,N/C*%
X136144000Y-133604000D03*
%TO.P,U1,43*%
%TO.N,Net-(J1_T3.6_L1-Pad11)*%
X151384000Y-100584000D03*
%TO.P,U1,20*%
%TO.N,N/C*%
X136144000Y-136144000D03*
%TO.P,U1,44*%
X151384000Y-98044000D03*
%TO.P,U1,21*%
X136144000Y-138684000D03*
%TO.P,U1,45*%
%TO.N,Net-(J1_T3.6_L1-Pad13)*%
X151384000Y-95504000D03*
%TO.P,U1,22*%
%TO.N,N/C*%
X136144000Y-141224000D03*
%TO.P,U1,46*%
%TO.N,+3V3*%
X151384000Y-92964000D03*
%TO.P,U1,23*%
%TO.N,N/C*%
X136144000Y-143764000D03*
%TO.P,U1,47*%
%TO.N,GNDA*%
X151384000Y-90424000D03*
%TO.P,U1,24*%
%TO.N,N/C*%
X136144000Y-146304000D03*
%TO.P,U1,48*%
%TO.N,+5V*%
X151384000Y-87884000D03*
%TD*%
D14*
%TO.N,GND*%
X152909300Y-123444000D02*
X159004000Y-123444000D01*
X152146700Y-123444000D02*
X152909300Y-123444000D01*
X151384000Y-123444000D02*
X152146700Y-123444000D01*
X143764000Y-87884000D02*
X144939300Y-87884000D01*
X152909300Y-123444000D02*
X152909300Y-92470300D01*
X152909300Y-92470300D02*
X152206900Y-91767900D01*
X152206900Y-91767900D02*
X148823200Y-91767900D01*
X148823200Y-91767900D02*
X144939300Y-87884000D01*
%TO.N,+3V3*%
X143764000Y-123444000D02*
X143764000Y-122268700D01*
X151384000Y-92964000D02*
X149858700Y-92964000D01*
X149858700Y-92964000D02*
X148483400Y-94339300D01*
X148483400Y-94339300D02*
X148483400Y-110228800D01*
X148483400Y-110228800D02*
X144158200Y-114554000D01*
X144158200Y-114554000D02*
X143275300Y-114554000D01*
X143275300Y-114554000D02*
X142588700Y-115240600D01*
X142588700Y-115240600D02*
X142588700Y-121460800D01*
X142588700Y-121460800D02*
X143396600Y-122268700D01*
X143396600Y-122268700D02*
X143764000Y-122268700D01*
%TO.N,Net-(J1_T3.6_L1-Pad22)*%
X143764000Y-141224000D02*
X143764000Y-140048700D01*
X136144000Y-113284000D02*
X137669300Y-113284000D01*
X137669300Y-113284000D02*
X137669300Y-134321300D01*
X137669300Y-134321300D02*
X143396700Y-140048700D01*
X143396700Y-140048700D02*
X143764000Y-140048700D01*
%TO.N,Net-(J1_T3.6_L1-Pad21)*%
X143764000Y-138684000D02*
X143764000Y-137508700D01*
X136144000Y-103124000D02*
X137669300Y-103124000D01*
X137669300Y-103124000D02*
X142065400Y-107520100D01*
X142065400Y-107520100D02*
X142065400Y-136177400D01*
X142065400Y-136177400D02*
X143396700Y-137508700D01*
X143396700Y-137508700D02*
X143764000Y-137508700D01*
%TO.N,Net-(J1_T3.6_L1-Pad13)*%
X143764000Y-118364000D02*
X143764000Y-117188700D01*
X151384000Y-95504000D02*
X149858700Y-95504000D01*
X149858700Y-95504000D02*
X149858700Y-111461300D01*
X149858700Y-111461300D02*
X144131300Y-117188700D01*
X144131300Y-117188700D02*
X143764000Y-117188700D01*
%TD*%
M02*
