(export (version D)
  (design
    (source /home/wirtz/KiCAD/TeensyMIDIAudio/TeensyMIDIAudio.sch)
    (date "So 10 Mär 2019 18:17:07 CET")
    (tool "Eeschema 5.0.2-bee76a0~70~ubuntu18.04.1")
    (sheet (number 1) (name /) (tstamps /)
      (title_block
        (title "Teensy MIDI Audio")
        (company parasiTstudio)
        (rev 8)
        (date 2018-07-29)
        (source TeensyMIDIAudio.sch)
        (comment (number 1) (value ""))
        (comment (number 2) (value ""))
        (comment (number 3) (value ""))
        (comment (number 4) (value "")))))
  (components
    (comp (ref R2)
      (value 10R)
      (footprint Resistor_THT:R_Axial_DIN0207_L6.3mm_D2.5mm_P7.62mm_Horizontal)
      (libsource (lib Device) (part R) (description Resistor))
      (sheetpath (names /) (tstamps /))
      (tstamp 5B5DC280))
    (comp (ref C5)
      (value 47uF)
      (footprint w_capacitors:CP_6.3x11mm)
      (libsource (lib Device) (part CP) (description "Polarized capacitor"))
      (sheetpath (names /) (tstamps /))
      (tstamp 5B5DC339))
    (comp (ref C3)
      (value 47uF)
      (footprint w_capacitors:CP_6.3x11mm)
      (libsource (lib Device) (part CP) (description "Polarized capacitor"))
      (sheetpath (names /) (tstamps /))
      (tstamp 5B5DD0B0))
    (comp (ref J15)
      (value "MIDI IN")
      (footprint w_conn_av:din-5)
      (libsource (lib Connector) (part DIN-5_180degree) (description "5-pin DIN connector (5-pin DIN-5 stereo)"))
      (sheetpath (names /) (tstamps /))
      (tstamp 5B5DDC51))
    (comp (ref R3)
      (value 220R)
      (footprint Resistor_THT:R_Axial_DIN0207_L6.3mm_D2.5mm_P7.62mm_Horizontal)
      (libsource (lib Device) (part R) (description Resistor))
      (sheetpath (names /) (tstamps /))
      (tstamp 5B5DF3C9))
    (comp (ref R4)
      (value 220R)
      (footprint Resistor_THT:R_Axial_DIN0207_L6.3mm_D2.5mm_P7.62mm_Horizontal)
      (libsource (lib Device) (part R) (description Resistor))
      (sheetpath (names /) (tstamps /))
      (tstamp 5B5DF462))
    (comp (ref U5)
      (value 6N138)
      (footprint Package_DIP:DIP-8_W7.62mm_Socket_LongPads)
      (libsource (lib Isolator) (part 6N138) (description "Low Input Current high Gain Split Darlington Optocouplers, -0.5V to 7V VDD, DIP-8"))
      (sheetpath (names /) (tstamps /))
      (tstamp 5B5E2EC2))
    (comp (ref D1)
      (value 1N4148)
      (footprint Diode_THT:D_DO-35_SOD27_P7.62mm_Horizontal)
      (libsource (lib Device) (part D) (description Diode))
      (sheetpath (names /) (tstamps /))
      (tstamp 5B5E3558))
    (comp (ref R5)
      (value 220R)
      (footprint Resistor_THT:R_Axial_DIN0207_L6.3mm_D2.5mm_P7.62mm_Horizontal)
      (libsource (lib Device) (part R) (description Resistor))
      (sheetpath (names /) (tstamps /))
      (tstamp 5B5E497E))
    (comp (ref R1)
      (value 470R)
      (footprint Resistor_THT:R_Axial_DIN0207_L6.3mm_D2.5mm_P7.62mm_Horizontal)
      (libsource (lib Device) (part R) (description Resistor))
      (sheetpath (names /) (tstamps /))
      (tstamp 5B5E82D7))
    (comp (ref J13)
      (value "MIDI USB")
      (footprint w_conn_pc:conn_usb_A-vert)
      (datasheet " ~")
      (libsource (lib Connector) (part USB_A) (description "USB Type A connector"))
      (sheetpath (names /) (tstamps /))
      (tstamp 5B5F190C))
    (comp (ref C2)
      (value 100nF)
      (footprint w_capacitors:cnp_7x2mm)
      (datasheet ~)
      (libsource (lib Device) (part C) (description "Unpolarized capacitor"))
      (sheetpath (names /) (tstamps /))
      (tstamp 5B5F720C))
    (comp (ref C1)
      (value 100nF)
      (footprint w_capacitors:cnp_7x2mm)
      (datasheet ~)
      (libsource (lib Device) (part C) (description "Unpolarized capacitor"))
      (sheetpath (names /) (tstamps /))
      (tstamp 5B5F84E7))
    (comp (ref U3)
      (value PT8211)
      (footprint w_smd_dil:so-8)
      (libsource (lib TeensyMIDIAudio-rescue) (part PT8211-parasitStudio) (description ""))
      (sheetpath (names /) (tstamps /))
      (tstamp 5B63BD18))
    (comp (ref J4)
      (value "SERIAL I/O")
      (footprint Connector_PinHeader_2.54mm:PinHeader_2x04_P2.54mm_Vertical)
      (datasheet ~)
      (libsource (lib Connector_Generic) (part Conn_02x04_Odd_Even) (description "Generic connector, double row, 02x04, odd/even pin numbering scheme (row 1 odd numbers, row 2 even numbers), script generated (kicad-library-utils/schlib/autogen/connector/)"))
      (sheetpath (names /) (tstamps /))
      (tstamp 5B6829A7))
    (comp (ref J5)
      (value "POWER 5V")
      (footprint Connector_PinHeader_2.54mm:PinHeader_2x04_P2.54mm_Vertical)
      (datasheet ~)
      (libsource (lib Connector_Generic) (part Conn_02x04_Odd_Even) (description "Generic connector, double row, 02x04, odd/even pin numbering scheme (row 1 odd numbers, row 2 even numbers), script generated (kicad-library-utils/schlib/autogen/connector/)"))
      (sheetpath (names /) (tstamps /))
      (tstamp 5B6C9BDD))
    (comp (ref J1)
      (value USB)
      (footprint w_conn_pc:conn_usb_B)
      (datasheet " ~")
      (libsource (lib Connector) (part USB_B) (description "USB Type B connector"))
      (sheetpath (names /) (tstamps /))
      (tstamp 5B70F3AF))
    (comp (ref U2)
      (value Teensy-Audio)
      (footprint Package_DIP:DIP-28_W15.24mm_Socket_LongPads)
      (libsource (lib TeensyMIDIAudio-rescue) (part Teensy-Audio-parasitStudio) (description ""))
      (sheetpath (names /) (tstamps /))
      (tstamp 5B6B1CFD))
    (comp (ref JP1)
      (value PT8211_AUDIO_R)
      (footprint Connector_PinHeader_2.54mm:PinHeader_1x02_P2.54mm_Vertical)
      (datasheet ~)
      (libsource (lib Device) (part Jumper) (description "Jumper, normally closed"))
      (sheetpath (names /) (tstamps /))
      (tstamp 5B7DE9C2))
    (comp (ref JP2)
      (value PT8211_AUDIO_L)
      (footprint Connector_PinHeader_2.54mm:PinHeader_1x02_P2.54mm_Vertical)
      (datasheet ~)
      (libsource (lib Device) (part Jumper) (description "Jumper, normally closed"))
      (sheetpath (names /) (tstamps /))
      (tstamp 5B7DEACA))
    (comp (ref MH3)
      (value MountingHole)
      (footprint MountingHole:MountingHole_3.5mm)
      (datasheet ~)
      (libsource (lib Mechanical) (part MountingHole) (description "Mounting Hole without connection"))
      (sheetpath (names /) (tstamps /))
      (tstamp 5B68E77B))
    (comp (ref MH1)
      (value MountingHole)
      (footprint MountingHole:MountingHole_3.5mm)
      (datasheet ~)
      (libsource (lib Mechanical) (part MountingHole) (description "Mounting Hole without connection"))
      (sheetpath (names /) (tstamps /))
      (tstamp 5B68E867))
    (comp (ref MH4)
      (value MountingHole)
      (footprint MountingHole:MountingHole_3.5mm)
      (datasheet ~)
      (libsource (lib Mechanical) (part MountingHole) (description "Mounting Hole without connection"))
      (sheetpath (names /) (tstamps /))
      (tstamp 5B68ED6D))
    (comp (ref MH2)
      (value MountingHole)
      (footprint MountingHole:MountingHole_3.5mm)
      (datasheet ~)
      (libsource (lib Mechanical) (part MountingHole) (description "Mounting Hole without connection"))
      (sheetpath (names /) (tstamps /))
      (tstamp 5B68EFB1))
    (comp (ref J11)
      (value "Audio out")
      (footprint def-footprints:rca_black_stereo)
      (datasheet " ~")
      (libsource (lib Connector) (part Conn_Coaxial_x2) (description "double coaxial connector (BNC, SMA, SMB, SMC, Cinch/RCA, ...)"))
      (sheetpath (names /) (tstamps /))
      (tstamp 5B6D7E2A))
    (comp (ref J9)
      (value "Audio In")
      (footprint def-footprints:rca_black_stereo)
      (datasheet " ~")
      (libsource (lib Connector) (part Conn_Coaxial_x2) (description "double coaxial connector (BNC, SMA, SMB, SMC, Cinch/RCA, ...)"))
      (sheetpath (names /) (tstamps /))
      (tstamp 5B6EA5EB))
    (comp (ref J6)
      (value "POWER 3.3V")
      (footprint Connector_PinHeader_2.54mm:PinHeader_2x04_P2.54mm_Vertical)
      (datasheet ~)
      (libsource (lib Connector_Generic) (part Conn_02x04_Odd_Even) (description "Generic connector, double row, 02x04, odd/even pin numbering scheme (row 1 odd numbers, row 2 even numbers), script generated (kicad-library-utils/schlib/autogen/connector/)"))
      (sheetpath (names /) (tstamps /))
      (tstamp 5B6E4A48))
    (comp (ref R6)
      (value 4K7)
      (footprint Resistor_THT:R_Axial_DIN0207_L6.3mm_D2.5mm_P7.62mm_Horizontal)
      (datasheet ~)
      (libsource (lib Device) (part R) (description Resistor))
      (sheetpath (names /) (tstamps /))
      (tstamp 5B71B865))
    (comp (ref R7)
      (value 4K7)
      (footprint Resistor_THT:R_Axial_DIN0207_L6.3mm_D2.5mm_P7.62mm_Horizontal)
      (datasheet ~)
      (libsource (lib Device) (part R) (description Resistor))
      (sheetpath (names /) (tstamps /))
      (tstamp 5B71B950))
    (comp (ref U1)
      (value Teensy-3.[56]-IC-socket)
      (footprint Package_DIP:DIP-48_W15.24mm_Socket_LongPads)
      (libsource (lib TeensyMIDIAudio-rescue) (part Teensy-3.[56]-IC-socket-parasitStudio) (description ""))
      (sheetpath (names /) (tstamps /))
      (tstamp 5B71F7C1))
    (comp (ref J14)
      (value "MIDI OUT")
      (footprint w_conn_av:din-5)
      (libsource (lib Connector) (part DIN-5_180degree) (description "5-pin DIN connector (5-pin DIN-5 stereo)"))
      (sheetpath (names /) (tstamps /))
      (tstamp 5B5DDB6E))
    (comp (ref J3)
      (value "ANALOG I/O")
      (footprint Connector_PinHeader_2.54mm:PinHeader_2x12_P2.54mm_Vertical)
      (datasheet ~)
      (libsource (lib Connector_Generic) (part Conn_02x12_Odd_Even) (description "Generic connector, double row, 02x12, odd/even pin numbering scheme (row 1 odd numbers, row 2 even numbers), script generated (kicad-library-utils/schlib/autogen/connector/)"))
      (sheetpath (names /) (tstamps /))
      (tstamp 5B9C6475))
    (comp (ref JP3)
      (value SELECT_I2S_AUDIO)
      (footprint Connector_PinHeader_2.54mm:PinHeader_1x03_P2.54mm_Vertical)
      (datasheet ~)
      (libsource (lib Device) (part Jumper_NC_Dual) (description "Dual jumper, normally closed"))
      (sheetpath (names /) (tstamps /))
      (tstamp 5B6C0CEC))
    (comp (ref JP5)
      (value I2C_PU_ENA)
      (footprint Connector_PinHeader_2.54mm:PinHeader_2x01_P2.54mm_Vertical)
      (datasheet ~)
      (libsource (lib Device) (part Jumper) (description "Jumper, normally closed"))
      (sheetpath (names /) (tstamps /))
      (tstamp 5B732052))
    (comp (ref JP4)
      (value I2C_PU_ENA)
      (footprint Connector_PinHeader_2.54mm:PinHeader_2x01_P2.54mm_Vertical)
      (datasheet ~)
      (libsource (lib Device) (part Jumper) (description "Jumper, normally closed"))
      (sheetpath (names /) (tstamps /))
      (tstamp 5B7472AE))
    (comp (ref J18)
      (value USB-intern)
      (footprint Connector_PinHeader_2.54mm:PinHeader_1x05_P2.54mm_Vertical)
      (datasheet ~)
      (libsource (lib Connector_Generic) (part Conn_01x05) (description "Generic connector, single row, 01x05, script generated (kicad-library-utils/schlib/autogen/connector/)"))
      (sheetpath (names /) (tstamps /))
      (tstamp 5BAE1463))
    (comp (ref J10)
      (value USB-Host)
      (footprint Connector_PinHeader_2.54mm:PinHeader_1x05_P2.54mm_Vertical)
      (datasheet ~)
      (libsource (lib Connector_Generic) (part Conn_01x05) (description "Generic connector, single row, 01x05, script generated (kicad-library-utils/schlib/autogen/connector/)"))
      (sheetpath (names /) (tstamps /))
      (tstamp 5BA96F1A))
    (comp (ref J12)
      (value "Audio out")
      (footprint Connector_PinHeader_2.54mm:PinHeader_1x04_P2.54mm_Vertical)
      (datasheet ~)
      (libsource (lib Connector_Generic) (part Conn_01x04) (description "Generic connector, single row, 01x04, script generated (kicad-library-utils/schlib/autogen/connector/)"))
      (sheetpath (names /) (tstamps /))
      (tstamp 5BAB7797))
    (comp (ref J17)
      (value "Encoder 1")
      (footprint Connector_PinHeader_2.54mm:PinHeader_1x05_P2.54mm_Vertical)
      (datasheet ~)
      (libsource (lib Connector_Generic) (part Conn_01x05) (description "Generic connector, single row, 01x05, script generated (kicad-library-utils/schlib/autogen/connector/)"))
      (sheetpath (names /) (tstamps /))
      (tstamp 5BAB85DA))
    (comp (ref J16)
      (value "Encoder 2")
      (footprint Connector_PinHeader_2.54mm:PinHeader_1x05_P2.54mm_Vertical)
      (datasheet ~)
      (libsource (lib Connector_Generic) (part Conn_01x05) (description "Generic connector, single row, 01x05, script generated (kicad-library-utils/schlib/autogen/connector/)"))
      (sheetpath (names /) (tstamps /))
      (tstamp 5BAC305F))
    (comp (ref J7)
      (value "LCD I2C")
      (footprint Connector_PinHeader_2.54mm:PinHeader_1x04_P2.54mm_Vertical)
      (datasheet ~)
      (libsource (lib Connector_Generic) (part Conn_01x04) (description "Generic connector, single row, 01x04, script generated (kicad-library-utils/schlib/autogen/connector/)"))
      (sheetpath (names /) (tstamps /))
      (tstamp 5BACDD45))
    (comp (ref C4)
      (value 47uF)
      (footprint w_capacitors:CP_6.3x11mm)
      (libsource (lib Device) (part CP) (description "Polarized capacitor"))
      (sheetpath (names /) (tstamps /))
      (tstamp 5B5DD003))
    (comp (ref U4)
      (value 74LS14)
      (footprint Package_DIP:DIP-14_W7.62mm_Socket_LongPads)
      (datasheet http://www.ti.com/lit/gpn/sn74LS14)
      (libsource (lib 74xx) (part 74LS14) (description "Hex inverter schmitt trigger"))
      (sheetpath (names /) (tstamps /))
      (tstamp 5BC327F8))
    (comp (ref R9)
      (value 220R)
      (footprint Resistor_THT:R_Axial_DIN0207_L6.3mm_D2.5mm_P7.62mm_Horizontal)
      (libsource (lib Device) (part R) (description Resistor))
      (sheetpath (names /) (tstamps /))
      (tstamp 5BC0EA04))
    (comp (ref R8)
      (value 220R)
      (footprint Resistor_THT:R_Axial_DIN0207_L6.3mm_D2.5mm_P7.62mm_Horizontal)
      (libsource (lib Device) (part R) (description Resistor))
      (sheetpath (names /) (tstamps /))
      (tstamp 5BC0EAD3))
    (comp (ref J19)
      (value "MIDI THRU")
      (footprint Connector_PinHeader_2.54mm:PinHeader_1x03_P2.54mm_Vertical)
      (datasheet ~)
      (libsource (lib Connector_Generic) (part Conn_01x03) (description "Generic connector, single row, 01x03, script generated (kicad-library-utils/schlib/autogen/connector/)"))
      (sheetpath (names /) (tstamps /))
      (tstamp 5BBE03FE))
    (comp (ref J8)
      (value "Audio In")
      (footprint Connector_PinHeader_2.54mm:PinHeader_1x04_P2.54mm_Vertical)
      (datasheet ~)
      (libsource (lib Connector_Generic) (part Conn_01x04) (description "Generic connector, single row, 01x04, script generated (kicad-library-utils/schlib/autogen/connector/)"))
      (sheetpath (names /) (tstamps /))
      (tstamp 5BC5BEE4))
    (comp (ref J2)
      (value "Digital I/O")
      (footprint Connector_PinHeader_2.54mm:PinHeader_2x09_P2.54mm_Vertical)
      (datasheet ~)
      (libsource (lib Connector_Generic) (part Conn_02x09_Odd_Even) (description "Generic connector, double row, 02x09, odd/even pin numbering scheme (row 1 odd numbers, row 2 even numbers), script generated (kicad-library-utils/schlib/autogen/connector/)"))
      (sheetpath (names /) (tstamps /))
      (tstamp 5BD5C064))
    (comp (ref C6)
      (value 220mF)
      (footprint w_capacitors:cnp_6mm_disc)
      (libsource (lib Device) (part CP) (description "Polarized capacitor"))
      (sheetpath (names /) (tstamps /))
      (tstamp 5C891EE7)))
  (libparts
    (libpart (lib 74xx) (part 74HCT04)
      (aliases
        (alias 74HC14)
        (alias 74HC04)
        (alias 74LS14))
      (description "hex inverter")
      (docs http://www.nxp.com/documents/data_sheet/74HC_HCT04.pdf)
      (footprints
        (fp DIP?14*))
      (fields
        (field (name Reference) U)
        (field (name Value) 74HCT04))
      (pins
        (pin (num 1) (name ~) (type input))
        (pin (num 2) (name ~) (type output))
        (pin (num 3) (name ~) (type input))
        (pin (num 4) (name ~) (type output))
        (pin (num 5) (name ~) (type input))
        (pin (num 6) (name ~) (type output))
        (pin (num 7) (name GND) (type power_in))
        (pin (num 8) (name ~) (type output))
        (pin (num 9) (name ~) (type input))
        (pin (num 10) (name ~) (type output))
        (pin (num 11) (name ~) (type input))
        (pin (num 12) (name ~) (type output))
        (pin (num 13) (name ~) (type input))
        (pin (num 14) (name VCC) (type power_in))))
    (libpart (lib Connector) (part Conn_Coaxial_x2)
      (description "double coaxial connector (BNC, SMA, SMB, SMC, Cinch/RCA, ...)")
      (docs " ~")
      (footprints
        (fp *BNC*)
        (fp *SMA*)
        (fp *SMB*)
        (fp *SMC*)
        (fp *Cinch*))
      (fields
        (field (name Reference) J)
        (field (name Value) Conn_Coaxial_x2))
      (pins
        (pin (num 1) (name IN1) (type passive))
        (pin (num 2) (name IN2) (type passive))
        (pin (num 3) (name EXT) (type passive))))
    (libpart (lib Connector) (part DIN-5_180degree)
      (description "5-pin DIN connector (5-pin DIN-5 stereo)")
      (docs http://www.mouser.com/ds/2/18/40_c091_abd_e-75918.pdf)
      (footprints
        (fp DIN*))
      (fields
        (field (name Reference) J)
        (field (name Value) DIN-5_180degree))
      (pins
        (pin (num 1) (name ~) (type passive))
        (pin (num 2) (name ~) (type passive))
        (pin (num 3) (name ~) (type passive))
        (pin (num 4) (name ~) (type passive))
        (pin (num 5) (name ~) (type passive))))
    (libpart (lib Connector) (part USB_A)
      (description "USB Type A connector")
      (docs " ~")
      (footprints
        (fp USB*))
      (fields
        (field (name Reference) J)
        (field (name Value) USB_A))
      (pins
        (pin (num 1) (name VBUS) (type power_in))
        (pin (num 2) (name D-) (type passive))
        (pin (num 3) (name D+) (type passive))
        (pin (num 4) (name GND) (type power_in))
        (pin (num 5) (name Shield) (type passive))))
    (libpart (lib Connector) (part USB_B)
      (description "USB Type B connector")
      (docs " ~")
      (footprints
        (fp USB*))
      (fields
        (field (name Reference) J)
        (field (name Value) USB_B))
      (pins
        (pin (num 1) (name VBUS) (type power_out))
        (pin (num 2) (name D-) (type passive))
        (pin (num 3) (name D+) (type passive))
        (pin (num 4) (name GND) (type power_out))
        (pin (num 5) (name Shield) (type passive))))
    (libpart (lib Connector_Generic) (part Conn_01x03)
      (description "Generic connector, single row, 01x03, script generated (kicad-library-utils/schlib/autogen/connector/)")
      (docs ~)
      (footprints
        (fp Connector*:*_1x??_*))
      (fields
        (field (name Reference) J)
        (field (name Value) Conn_01x03))
      (pins
        (pin (num 1) (name Pin_1) (type passive))
        (pin (num 2) (name Pin_2) (type passive))
        (pin (num 3) (name Pin_3) (type passive))))
    (libpart (lib Connector_Generic) (part Conn_01x04)
      (description "Generic connector, single row, 01x04, script generated (kicad-library-utils/schlib/autogen/connector/)")
      (docs ~)
      (footprints
        (fp Connector*:*_1x??_*))
      (fields
        (field (name Reference) J)
        (field (name Value) Conn_01x04))
      (pins
        (pin (num 1) (name Pin_1) (type passive))
        (pin (num 2) (name Pin_2) (type passive))
        (pin (num 3) (name Pin_3) (type passive))
        (pin (num 4) (name Pin_4) (type passive))))
    (libpart (lib Connector_Generic) (part Conn_01x05)
      (description "Generic connector, single row, 01x05, script generated (kicad-library-utils/schlib/autogen/connector/)")
      (docs ~)
      (footprints
        (fp Connector*:*_1x??_*))
      (fields
        (field (name Reference) J)
        (field (name Value) Conn_01x05))
      (pins
        (pin (num 1) (name Pin_1) (type passive))
        (pin (num 2) (name Pin_2) (type passive))
        (pin (num 3) (name Pin_3) (type passive))
        (pin (num 4) (name Pin_4) (type passive))
        (pin (num 5) (name Pin_5) (type passive))))
    (libpart (lib Connector_Generic) (part Conn_02x04_Odd_Even)
      (description "Generic connector, double row, 02x04, odd/even pin numbering scheme (row 1 odd numbers, row 2 even numbers), script generated (kicad-library-utils/schlib/autogen/connector/)")
      (docs ~)
      (footprints
        (fp Connector*:*_2x??_*))
      (fields
        (field (name Reference) J)
        (field (name Value) Conn_02x04_Odd_Even))
      (pins
        (pin (num 1) (name Pin_1) (type passive))
        (pin (num 2) (name Pin_2) (type passive))
        (pin (num 3) (name Pin_3) (type passive))
        (pin (num 4) (name Pin_4) (type passive))
        (pin (num 5) (name Pin_5) (type passive))
        (pin (num 6) (name Pin_6) (type passive))
        (pin (num 7) (name Pin_7) (type passive))
        (pin (num 8) (name Pin_8) (type passive))))
    (libpart (lib Connector_Generic) (part Conn_02x09_Odd_Even)
      (description "Generic connector, double row, 02x09, odd/even pin numbering scheme (row 1 odd numbers, row 2 even numbers), script generated (kicad-library-utils/schlib/autogen/connector/)")
      (docs ~)
      (footprints
        (fp Connector*:*_2x??_*))
      (fields
        (field (name Reference) J)
        (field (name Value) Conn_02x09_Odd_Even))
      (pins
        (pin (num 1) (name Pin_1) (type passive))
        (pin (num 2) (name Pin_2) (type passive))
        (pin (num 3) (name Pin_3) (type passive))
        (pin (num 4) (name Pin_4) (type passive))
        (pin (num 5) (name Pin_5) (type passive))
        (pin (num 6) (name Pin_6) (type passive))
        (pin (num 7) (name Pin_7) (type passive))
        (pin (num 8) (name Pin_8) (type passive))
        (pin (num 9) (name Pin_9) (type passive))
        (pin (num 10) (name Pin_10) (type passive))
        (pin (num 11) (name Pin_11) (type passive))
        (pin (num 12) (name Pin_12) (type passive))
        (pin (num 13) (name Pin_13) (type passive))
        (pin (num 14) (name Pin_14) (type passive))
        (pin (num 15) (name Pin_15) (type passive))
        (pin (num 16) (name Pin_16) (type passive))
        (pin (num 17) (name Pin_17) (type passive))
        (pin (num 18) (name Pin_18) (type passive))))
    (libpart (lib Connector_Generic) (part Conn_02x12_Odd_Even)
      (description "Generic connector, double row, 02x12, odd/even pin numbering scheme (row 1 odd numbers, row 2 even numbers), script generated (kicad-library-utils/schlib/autogen/connector/)")
      (docs ~)
      (footprints
        (fp Connector*:*_2x??_*))
      (fields
        (field (name Reference) J)
        (field (name Value) Conn_02x12_Odd_Even))
      (pins
        (pin (num 1) (name Pin_1) (type passive))
        (pin (num 2) (name Pin_2) (type passive))
        (pin (num 3) (name Pin_3) (type passive))
        (pin (num 4) (name Pin_4) (type passive))
        (pin (num 5) (name Pin_5) (type passive))
        (pin (num 6) (name Pin_6) (type passive))
        (pin (num 7) (name Pin_7) (type passive))
        (pin (num 8) (name Pin_8) (type passive))
        (pin (num 9) (name Pin_9) (type passive))
        (pin (num 10) (name Pin_10) (type passive))
        (pin (num 11) (name Pin_11) (type passive))
        (pin (num 12) (name Pin_12) (type passive))
        (pin (num 13) (name Pin_13) (type passive))
        (pin (num 14) (name Pin_14) (type passive))
        (pin (num 15) (name Pin_15) (type passive))
        (pin (num 16) (name Pin_16) (type passive))
        (pin (num 17) (name Pin_17) (type passive))
        (pin (num 18) (name Pin_18) (type passive))
        (pin (num 19) (name Pin_19) (type passive))
        (pin (num 20) (name Pin_20) (type passive))
        (pin (num 21) (name Pin_21) (type passive))
        (pin (num 22) (name Pin_22) (type passive))
        (pin (num 23) (name Pin_23) (type passive))
        (pin (num 24) (name Pin_24) (type passive))))
    (libpart (lib Device) (part C)
      (description "Unpolarized capacitor")
      (docs ~)
      (footprints
        (fp C_*))
      (fields
        (field (name Reference) C)
        (field (name Value) C))
      (pins
        (pin (num 1) (name ~) (type passive))
        (pin (num 2) (name ~) (type passive))))
    (libpart (lib Device) (part CP)
      (description "Polarized capacitor")
      (docs ~)
      (footprints
        (fp CP_*))
      (fields
        (field (name Reference) C)
        (field (name Value) CP))
      (pins
        (pin (num 1) (name ~) (type passive))
        (pin (num 2) (name ~) (type passive))))
    (libpart (lib Device) (part D)
      (description Diode)
      (docs ~)
      (footprints
        (fp TO-???*)
        (fp *_Diode_*)
        (fp *SingleDiode*)
        (fp D_*))
      (fields
        (field (name Reference) D)
        (field (name Value) D))
      (pins
        (pin (num 1) (name K) (type passive))
        (pin (num 2) (name A) (type passive))))
    (libpart (lib Device) (part Jumper)
      (description "Jumper, normally closed")
      (docs ~)
      (fields
        (field (name Reference) JP)
        (field (name Value) Jumper))
      (pins
        (pin (num 1) (name 1) (type passive))
        (pin (num 2) (name 2) (type passive))))
    (libpart (lib Device) (part Jumper_NC_Dual)
      (description "Dual jumper, normally closed")
      (docs ~)
      (fields
        (field (name Reference) JP)
        (field (name Value) Jumper_NC_Dual))
      (pins
        (pin (num 1) (name 1) (type passive))
        (pin (num 2) (name 2) (type passive))
        (pin (num 3) (name 3) (type passive))))
    (libpart (lib Device) (part R)
      (description Resistor)
      (docs ~)
      (footprints
        (fp R_*))
      (fields
        (field (name Reference) R)
        (field (name Value) R))
      (pins
        (pin (num 1) (name ~) (type passive))
        (pin (num 2) (name ~) (type passive))))
    (libpart (lib Isolator) (part 6N138)
      (aliases
        (alias 6N139))
      (description "Low Input Current high Gain Split Darlington Optocouplers, -0.5V to 7V VDD, DIP-8")
      (docs http://www.onsemi.com/pub/Collateral/HCPL2731-D.pdf)
      (footprints
        (fp DIP*W7.62mm*)
        (fp SMDIP*W9.53mm*))
      (fields
        (field (name Reference) U)
        (field (name Value) 6N138))
      (pins
        (pin (num 1) (name NC) (type NotConnected))
        (pin (num 2) (name C1) (type passive))
        (pin (num 3) (name C2) (type passive))
        (pin (num 4) (name NC) (type NotConnected))
        (pin (num 5) (name GND) (type passive))
        (pin (num 6) (name VO2) (type passive))
        (pin (num 7) (name VO1) (type passive))
        (pin (num 8) (name VCC) (type passive))))
    (libpart (lib Mechanical) (part MountingHole)
      (description "Mounting Hole without connection")
      (docs ~)
      (footprints
        (fp MountingHole*))
      (fields
        (field (name Reference) H)
        (field (name Value) MountingHole)))
    (libpart (lib TeensyMIDIAudio-rescue) (part PT8211-parasitStudio)
      (fields
        (field (name Reference) U)
        (field (name Value) PT8211-parasitStudio))
      (pins
        (pin (num 1) (name BCK) (type input))
        (pin (num 2) (name WS) (type input))
        (pin (num 3) (name DIN) (type input))
        (pin (num 4) (name GND) (type power_in))
        (pin (num 5) (name VDD) (type power_in))
        (pin (num 6) (name LCH) (type BiDi))
        (pin (num 7) (name NC) (type NotConnected))
        (pin (num 8) (name RCH) (type BiDi))))
    (libpart (lib TeensyMIDIAudio-rescue) (part Teensy-3.[56]-IC-socket-parasitStudio)
      (fields
        (field (name Reference) U)
        (field (name Value) Teensy-3.[56]-IC-socket-parasitStudio))
      (pins
        (pin (num 1) (name GND) (type power_in))
        (pin (num 2) (name 0_RX1_MOSI1_Touch) (type BiDi))
        (pin (num 3) (name 1_TX1_MISO1_Touch) (type BiDi))
        (pin (num 4) (name 2_PWM) (type BiDi))
        (pin (num 5) (name 3_PWM_CAN0TX_SCL2) (type BiDi))
        (pin (num 6) (name 4_PWM_CAN0RX_SDA2) (type BiDi))
        (pin (num 7) (name 5_PWM_tx1_miso1) (type BiDi))
        (pin (num 8) (name 6_PWM) (type BiDi))
        (pin (num 9) (name 7_RX3_mosi0_scl0) (type BiDi))
        (pin (num 10) (name 8_TX3_miso0_sda0) (type BiDi))
        (pin (num 11) (name 9_PWM_RX2_CS0) (type BiDi))
        (pin (num 12) (name 10_PWM_TX2_CS0) (type BiDi))
        (pin (num 13) (name 11_MOSI0) (type BiDi))
        (pin (num 14) (name 12_MISO0) (type BiDi))
        (pin (num 15) (name 3.3V) (type power_in))
        (pin (num 16) (name 24) (type BiDi))
        (pin (num 17) (name 25) (type BiDi))
        (pin (num 18) (name 26_tx1_scl2) (type BiDi))
        (pin (num 19) (name 27_rx1_sck0) (type BiDi))
        (pin (num 20) (name 28_mosi0) (type BiDi))
        (pin (num 21) (name 29_PWM_can0tx_Touch) (type BiDi))
        (pin (num 22) (name 30_PWM_can0rx_Touch) (type BiDi))
        (pin (num 23) (name 31_A12_RX4_CS1) (type BiDi))
        (pin (num 24) (name 32_A13_TX4_SCK1) (type BiDi))
        (pin (num 25) (name 33_A14_CAN1TX_scl0_TX5) (type BiDi))
        (pin (num 26) (name 34_A15_CAN1RX_sda0_RX5) (type BiDi))
        (pin (num 27) (name 35_A16_PWM) (type BiDi))
        (pin (num 28) (name 36_A17_PWM) (type BiDi))
        (pin (num 29) (name 37_A18_PWM_SCL1) (type BiDi))
        (pin (num 30) (name 38_A19_PWM_SDA1) (type BiDi))
        (pin (num 31) (name 39_A20_miso0) (type BiDi))
        (pin (num 32) (name A21_DAC0) (type BiDi))
        (pin (num 33) (name A22_DAC1) (type BiDi))
        (pin (num 34) (name GND) (type power_in))
        (pin (num 35) (name 13_SCK0_LED) (type BiDi))
        (pin (num 36) (name 14_A0_PWM_sck0) (type BiDi))
        (pin (num 37) (name 15_A1_CS0_Touch) (type BiDi))
        (pin (num 38) (name 16_A2_PWM_scl0_Touch) (type BiDi))
        (pin (num 39) (name 17_A3_PWM_sda0_Touch) (type BiDi))
        (pin (num 40) (name 18_A4_SDA0_Touch) (type BiDi))
        (pin (num 41) (name 19_A5_SCL0_Touch) (type BiDi))
        (pin (num 42) (name 20_A6_PWM_CS0_sck1) (type BiDi))
        (pin (num 43) (name 21_A7_PWM_CS0_mosi1_rx1) (type BiDi))
        (pin (num 44) (name 22_A8_PWM_Touch) (type BiDi))
        (pin (num 45) (name 23_A9_PWM_Touch) (type BiDi))
        (pin (num 46) (name 3.3V_max250mA) (type power_out))
        (pin (num 47) (name AGND) (type power_out))
        (pin (num 48) (name Vin) (type power_in))))
    (libpart (lib TeensyMIDIAudio-rescue) (part Teensy-Audio-parasitStudio)
      (fields
        (field (name Reference) U)
        (field (name Value) Teensy-Audio-parasitStudio))
      (pins
        (pin (num 1) (name GND) (type power_in))
        (pin (num 8) (name MEMCS) (type BiDi))
        (pin (num 9) (name MOSI) (type BiDi))
        (pin (num 11) (name BCLK) (type BiDi))
        (pin (num 12) (name SDCS) (type BiDi))
        (pin (num 13) (name MCLK) (type BiDi))
        (pin (num 14) (name MISO) (type BiDi))
        (pin (num 15) (name RX) (type BiDi))
        (pin (num 16) (name SCLK) (type BiDi))
        (pin (num 17) (name VOL) (type BiDi))
        (pin (num 20) (name SDA) (type BiDi))
        (pin (num 21) (name SCL) (type BiDi))
        (pin (num 24) (name TX) (type BiDi))
        (pin (num 25) (name LRCLK) (type BiDi))
        (pin (num 26) (name +3.3V) (type power_in)))))
  (libraries
    (library (logical 74xx)
      (uri /usr/share/kicad/library/74xx.lib))
    (library (logical Connector)
      (uri /usr/share/kicad/library/Connector.lib))
    (library (logical Connector_Generic)
      (uri /usr/share/kicad/library/Connector_Generic.lib))
    (library (logical Device)
      (uri /usr/share/kicad/library/Device.lib))
    (library (logical Isolator)
      (uri /usr/share/kicad/library/Isolator.lib))
    (library (logical Mechanical)
      (uri /usr/share/kicad/library/Mechanical.lib))
    (library (logical TeensyMIDIAudio-rescue)
      (uri /home/wirtz/KiCAD/TeensyMIDIAudio/TeensyMIDIAudio-rescue.lib)))
  (nets
    (net (code 1) (name 3.3V)
      (node (ref J6) (pin 8))
      (node (ref R6) (pin 2))
      (node (ref R7) (pin 2))
      (node (ref J6) (pin 2))
      (node (ref J6) (pin 4))
      (node (ref J6) (pin 6))
      (node (ref U1) (pin 46))
      (node (ref JP3) (pin 2))
      (node (ref R1) (pin 2)))
    (net (code 2) (name "Net-(JP3-Pad1)")
      (node (ref JP3) (pin 1))
      (node (ref U2) (pin 26)))
    (net (code 3) (name "Net-(JP3-Pad3)")
      (node (ref JP3) (pin 3))
      (node (ref R2) (pin 1)))
    (net (code 4) (name "Net-(JP5-Pad2)")
      (node (ref R7) (pin 1))
      (node (ref JP5) (pin 2)))
    (net (code 5) (name 20_A6_PWM_SC0_sck1)
      (node (ref J3) (pin 8))
      (node (ref U1) (pin 42)))
    (net (code 6) (name AGND)
      (node (ref J3) (pin 5))
      (node (ref J3) (pin 3))
      (node (ref J3) (pin 23))
      (node (ref J3) (pin 21))
      (node (ref J3) (pin 19))
      (node (ref J3) (pin 17))
      (node (ref J3) (pin 15))
      (node (ref J3) (pin 13))
      (node (ref J3) (pin 11))
      (node (ref J3) (pin 1))
      (node (ref J3) (pin 7))
      (node (ref J3) (pin 9))
      (node (ref U1) (pin 47)))
    (net (code 7) (name 19_A5_SCL0_Touch)
      (node (ref U1) (pin 41))
      (node (ref J7) (pin 3))
      (node (ref U2) (pin 21))
      (node (ref JP5) (pin 1)))
    (net (code 8) (name /D+)
      (node (ref J13) (pin 3))
      (node (ref J10) (pin 3)))
    (net (code 9) (name /D-)
      (node (ref J10) (pin 2))
      (node (ref J13) (pin 2)))
    (net (code 10) (name "Net-(J1-Pad3)")
      (node (ref J1) (pin 3))
      (node (ref J18) (pin 3)))
    (net (code 11) (name +5V)
      (node (ref C1) (pin 2))
      (node (ref J10) (pin 1))
      (node (ref R9) (pin 2))
      (node (ref U5) (pin 8))
      (node (ref J1) (pin 1))
      (node (ref U4) (pin 14))
      (node (ref R4) (pin 2))
      (node (ref U1) (pin 48))
      (node (ref J13) (pin 1))
      (node (ref J5) (pin 2))
      (node (ref C6) (pin 1))
      (node (ref J5) (pin 4))
      (node (ref J5) (pin 8))
      (node (ref J5) (pin 6))
      (node (ref J18) (pin 1))
      (node (ref J7) (pin 4)))
    (net (code 12) (name 18_A4_SDA0_Touch)
      (node (ref U2) (pin 20))
      (node (ref J7) (pin 2))
      (node (ref U1) (pin 40))
      (node (ref JP4) (pin 1)))
    (net (code 13) (name "Net-(JP4-Pad2)")
      (node (ref R6) (pin 1))
      (node (ref JP4) (pin 2)))
    (net (code 14) (name 17_A3_PWM_sda0_Touch)
      (node (ref U1) (pin 39))
      (node (ref J3) (pin 6)))
    (net (code 15) (name "Net-(J11-Pad2)")
      (node (ref J11) (pin 2))
      (node (ref JP1) (pin 2))
      (node (ref J12) (pin 1)))
    (net (code 16) (name "Net-(J14-Pad5)")
      (node (ref R3) (pin 1))
      (node (ref J14) (pin 5)))
    (net (code 17) (name "Net-(J14-Pad4)")
      (node (ref R4) (pin 1))
      (node (ref J14) (pin 4)))
    (net (code 18) (name "Net-(J14-Pad1)")
      (node (ref J14) (pin 1)))
    (net (code 19) (name "Net-(J14-Pad3)")
      (node (ref J14) (pin 3)))
    (net (code 20) (name 6_PWM)
      (node (ref U2) (pin 8))
      (node (ref U1) (pin 8)))
    (net (code 21) (name 22_A8_PWM_Touch)
      (node (ref U3) (pin 3))
      (node (ref U2) (pin 24))
      (node (ref U1) (pin 44)))
    (net (code 22) (name 12_MIDO0)
      (node (ref U1) (pin 14))
      (node (ref U2) (pin 14)))
    (net (code 23) (name 11_MOSI0)
      (node (ref U2) (pin 13))
      (node (ref U1) (pin 13)))
    (net (code 24) (name 10_PWM_TX2_CS0)
      (node (ref U2) (pin 12))
      (node (ref U1) (pin 12)))
    (net (code 25) (name 7_RX3_mosi0_scl0)
      (node (ref U2) (pin 9))
      (node (ref J4) (pin 3))
      (node (ref U1) (pin 9)))
    (net (code 26) (name 38_A19_PWM_SDA1)
      (node (ref U1) (pin 30))
      (node (ref J3) (pin 18)))
    (net (code 27) (name 21_A7_PWM_CS0_modi1_rx1)
      (node (ref U1) (pin 43))
      (node (ref J3) (pin 10)))
    (net (code 28) (name 35_A16_PWM)
      (node (ref U1) (pin 27))
      (node (ref J3) (pin 12)))
    (net (code 29) (name 36_A17_PWM)
      (node (ref J3) (pin 14))
      (node (ref U1) (pin 28)))
    (net (code 30) (name 37_A18_PWM_SCL1)
      (node (ref U1) (pin 29))
      (node (ref J3) (pin 16)))
    (net (code 31) (name 15_A1_CS0_Touch)
      (node (ref J3) (pin 2))
      (node (ref U1) (pin 37)))
    (net (code 32) (name 39_A20)
      (node (ref U1) (pin 31))
      (node (ref J3) (pin 20)))
    (net (code 33) (name A21_DAC0)
      (node (ref J3) (pin 22))
      (node (ref U1) (pin 32)))
    (net (code 34) (name A22_DAC1)
      (node (ref U1) (pin 33))
      (node (ref J3) (pin 24)))
    (net (code 35) (name 16_A2_PWM_scl0_Touch)
      (node (ref U1) (pin 38))
      (node (ref J3) (pin 4)))
    (net (code 36) (name "Net-(J1-Pad2)")
      (node (ref J18) (pin 2))
      (node (ref J1) (pin 2)))
    (net (code 37) (name "Net-(J19-Pad1)")
      (node (ref J19) (pin 1))
      (node (ref R8) (pin 1)))
    (net (code 38) (name "Net-(J19-Pad3)")
      (node (ref J19) (pin 3))
      (node (ref R9) (pin 1)))
    (net (code 39) (name "Net-(U4-Pad8)")
      (node (ref U4) (pin 8)))
    (net (code 40) (name "Net-(J8-Pad1)")
      (node (ref J9) (pin 2))
      (node (ref J8) (pin 1)))
    (net (code 41) (name "Net-(J8-Pad4)")
      (node (ref J8) (pin 4))
      (node (ref J9) (pin 1)))
    (net (code 42) (name "Net-(J1-Pad5)")
      (node (ref J1) (pin 5)))
    (net (code 43) (name 2_PWM)
      (node (ref U1) (pin 4))
      (node (ref J17) (pin 5))
      (node (ref J2) (pin 2)))
    (net (code 44) (name 5_PWM_tx1_miso1)
      (node (ref U1) (pin 7))
      (node (ref J2) (pin 8)))
    (net (code 45) (name "Net-(R8-Pad2)")
      (node (ref U4) (pin 4))
      (node (ref R8) (pin 2)))
    (net (code 46) (name "Net-(C4-Pad2)")
      (node (ref C4) (pin 2))
      (node (ref JP2) (pin 1)))
    (net (code 47) (name "Net-(J11-Pad1)")
      (node (ref J12) (pin 4))
      (node (ref JP2) (pin 2))
      (node (ref J11) (pin 1)))
    (net (code 48) (name "Net-(C4-Pad1)")
      (node (ref U3) (pin 6))
      (node (ref C4) (pin 1)))
    (net (code 49) (name GND)
      (node (ref J18) (pin 5))
      (node (ref J6) (pin 3))
      (node (ref J6) (pin 5))
      (node (ref C2) (pin 2))
      (node (ref U1) (pin 1))
      (node (ref J13) (pin 4))
      (node (ref U1) (pin 34))
      (node (ref C5) (pin 2))
      (node (ref J6) (pin 1))
      (node (ref U5) (pin 5))
      (node (ref U2) (pin 1))
      (node (ref J1) (pin 4))
      (node (ref J18) (pin 4))
      (node (ref C1) (pin 1))
      (node (ref J7) (pin 1))
      (node (ref J2) (pin 9))
      (node (ref J2) (pin 7))
      (node (ref J2) (pin 5))
      (node (ref J2) (pin 3))
      (node (ref J16) (pin 2))
      (node (ref J16) (pin 1))
      (node (ref J17) (pin 1))
      (node (ref J12) (pin 3))
      (node (ref J12) (pin 2))
      (node (ref J10) (pin 5))
      (node (ref J10) (pin 4))
      (node (ref J17) (pin 2))
      (node (ref J2) (pin 15))
      (node (ref J2) (pin 13))
      (node (ref J2) (pin 11))
      (node (ref J2) (pin 1))
      (node (ref J2) (pin 17))
      (node (ref J11) (pin 3))
      (node (ref J9) (pin 3))
      (node (ref C6) (pin 2))
      (node (ref J5) (pin 7))
      (node (ref J8) (pin 2))
      (node (ref J19) (pin 2))
      (node (ref J8) (pin 3))
      (node (ref J5) (pin 5))
      (node (ref J5) (pin 3))
      (node (ref J5) (pin 1))
      (node (ref U4) (pin 7))
      (node (ref J14) (pin 2))
      (node (ref U4) (pin 9))
      (node (ref U4) (pin 5))
      (node (ref J6) (pin 7))
      (node (ref U3) (pin 4)))
    (net (code 50) (name 4_PWM_CAN0RX_SDA2)
      (node (ref J17) (pin 3))
      (node (ref J2) (pin 6))
      (node (ref U1) (pin 6)))
    (net (code 51) (name 3_PWM_CAN0TX_SCL2)
      (node (ref J17) (pin 4))
      (node (ref J2) (pin 4))
      (node (ref U1) (pin 5)))
    (net (code 52) (name 30_PWM_can0rx_Touch)
      (node (ref J16) (pin 3))
      (node (ref U1) (pin 22))
      (node (ref J2) (pin 18)))
    (net (code 53) (name D28_mosi0)
      (node (ref J2) (pin 16))
      (node (ref U1) (pin 20))
      (node (ref J16) (pin 4)))
    (net (code 54) (name 29_PWM_cano0tx_Touch)
      (node (ref J2) (pin 14))
      (node (ref U1) (pin 21))
      (node (ref J16) (pin 5)))
    (net (code 55) (name "Net-(U4-Pad10)")
      (node (ref U4) (pin 10))
      (node (ref U4) (pin 3)))
    (net (code 56) (name MIDI_IN)
      (node (ref U1) (pin 2))
      (node (ref U4) (pin 11))
      (node (ref R1) (pin 1))
      (node (ref J4) (pin 1))
      (node (ref U5) (pin 6)))
    (net (code 57) (name "Net-(U4-Pad1)")
      (node (ref U4) (pin 12))
      (node (ref U4) (pin 1)))
    (net (code 58) (name MIDI_OUT)
      (node (ref J4) (pin 2))
      (node (ref U1) (pin 3))
      (node (ref U4) (pin 13)))
    (net (code 59) (name "Net-(U4-Pad6)")
      (node (ref U4) (pin 6)))
    (net (code 60) (name "Net-(C3-Pad1)")
      (node (ref U3) (pin 8))
      (node (ref C3) (pin 1)))
    (net (code 61) (name "Net-(C2-Pad1)")
      (node (ref U3) (pin 5))
      (node (ref C5) (pin 1))
      (node (ref R2) (pin 2))
      (node (ref C2) (pin 1)))
    (net (code 62) (name 25)
      (node (ref J2) (pin 12))
      (node (ref U1) (pin 17)))
    (net (code 63) (name 24)
      (node (ref J2) (pin 10))
      (node (ref U1) (pin 16)))
    (net (code 64) (name "Net-(U1-Pad18)")
      (node (ref U1) (pin 18)))
    (net (code 65) (name "Net-(U1-Pad15)")
      (node (ref U1) (pin 15)))
    (net (code 66) (name 9_PWM_RX2_CS0)
      (node (ref U2) (pin 11))
      (node (ref U1) (pin 11))
      (node (ref U3) (pin 1)))
    (net (code 67) (name "Net-(U3-Pad7)")
      (node (ref U3) (pin 7)))
    (net (code 68) (name 34_A15_CAN1RX_sda0_RX5)
      (node (ref J4) (pin 7))
      (node (ref U1) (pin 26)))
    (net (code 69) (name 33_A14_CAN1TX_scl0_TX5)
      (node (ref J4) (pin 8))
      (node (ref U1) (pin 25)))
    (net (code 70) (name 32_A13_TX4_SCK1)
      (node (ref U1) (pin 24))
      (node (ref J4) (pin 6)))
    (net (code 71) (name 8_TX3_miso0_sda0)
      (node (ref U1) (pin 10))
      (node (ref J4) (pin 4)))
    (net (code 72) (name 31_A12_RX4_CS1)
      (node (ref U1) (pin 23))
      (node (ref J4) (pin 5)))
    (net (code 73) (name "Net-(U5-Pad1)")
      (node (ref U5) (pin 1)))
    (net (code 74) (name "Net-(R3-Pad2)")
      (node (ref U4) (pin 2))
      (node (ref R3) (pin 2)))
    (net (code 75) (name "Net-(D1-Pad1)")
      (node (ref D1) (pin 1))
      (node (ref U5) (pin 2))
      (node (ref R5) (pin 2)))
    (net (code 76) (name "Net-(U5-Pad4)")
      (node (ref U5) (pin 4)))
    (net (code 77) (name "Net-(U5-Pad7)")
      (node (ref U5) (pin 7)))
    (net (code 78) (name "Net-(C3-Pad2)")
      (node (ref C3) (pin 2))
      (node (ref JP1) (pin 1)))
    (net (code 79) (name "Net-(J15-Pad1)")
      (node (ref J15) (pin 1)))
    (net (code 80) (name "Net-(J15-Pad2)")
      (node (ref J15) (pin 2)))
    (net (code 81) (name "Net-(J15-Pad3)")
      (node (ref J15) (pin 3)))
    (net (code 82) (name "Net-(D1-Pad2)")
      (node (ref D1) (pin 2))
      (node (ref U5) (pin 3))
      (node (ref J15) (pin 5)))
    (net (code 83) (name "Net-(J15-Pad4)")
      (node (ref J15) (pin 4))
      (node (ref R5) (pin 1)))
    (net (code 84) (name "Net-(J13-Pad5)")
      (node (ref J13) (pin 5)))
    (net (code 85) (name "Net-(U1-Pad19)")
      (node (ref U1) (pin 19)))
    (net (code 86) (name 14_A0_PWM_sck0)
      (node (ref U1) (pin 36))
      (node (ref U2) (pin 16)))
    (net (code 87) (name "Net-(U2-Pad17)")
      (node (ref U2) (pin 17)))
    (net (code 88) (name 23_A9_PWM_Touch)
      (node (ref U1) (pin 45))
      (node (ref U3) (pin 2))
      (node (ref U2) (pin 25)))
    (net (code 89) (name 13_SCK0_LED)
      (node (ref U1) (pin 35))
      (node (ref U2) (pin 15)))))