%!PS-Adobe-3.0
%%Creator: PCBNEW
%%CreationDate: Sun Mar 31 18:18:19 2019
%%Title: /home/wirtz/KiCAD/Teensy-MIDI-Audio/TeensyMIDIAudio-NPTH-drl_map.ps
%%Pages: 1
%%PageOrder: Ascend
%%BoundingBox: 0 0 596 842
%%DocumentMedia: A4 595 842 0 () ()
%%Orientation: Landscape
%%EndComments
%%BeginProlog
/line { newpath moveto lineto stroke } bind def
/cir0 { newpath 0 360 arc stroke } bind def
/cir1 { newpath 0 360 arc gsave fill grestore stroke } bind def
/cir2 { newpath 0 360 arc gsave fill grestore stroke } bind def
/arc0 { newpath arc stroke } bind def
/arc1 { newpath 4 index 4 index moveto arc closepath gsave fill
    grestore stroke } bind def
/arc2 { newpath 4 index 4 index moveto arc closepath gsave fill
    grestore stroke } bind def
/poly0 { stroke } bind def
/poly1 { closepath gsave fill grestore stroke } bind def
/poly2 { closepath gsave fill grestore stroke } bind def
/rect0 { rectstroke } bind def
/rect1 { rectfill } bind def
/rect2 { rectfill } bind def
/linemode0 { 0 setlinecap 0 setlinejoin 0 setlinewidth } bind def
/linemode1 { 1 setlinecap 1 setlinejoin } bind def
/dashedline { [200] 100 setdash } bind def
/solidline { [] 0 setdash } bind def
/phantomshow { moveto
    /KicadFont findfont 0.000001 scalefont setfont
    show } bind def
/textshow { gsave
    findfont exch scalefont setfont concat 1 scale 0 0 moveto show
    } bind def
/reencodefont {
  findfont dup length dict begin
  { 1 index /FID ne
    { def }
    { pop pop } ifelse
  } forall
  /Encoding ISOLatin1Encoding def
  currentdict
  end } bind def
/KicadFont /Helvetica reencodefont definefont pop
/KicadFont-Bold /Helvetica-Bold reencodefont definefont pop
/KicadFont-Oblique /Helvetica-Oblique reencodefont definefont pop
/KicadFont-BoldOblique /Helvetica-BoldOblique reencodefont definefont pop
%%EndProlog
%%Page: 1 1
%%BeginPageSetup
gsave
0.0072 0.0072 scale
linemode1
82680 0 translate 90 rotate
52.8826 setlinewidth
%%EndPageSetup
0 0 0 setrgbcolor
62.4598 setlinewidth
newpath
33451.5 37040.2 moveto
83478.5 37040.2 lineto
stroke
0 0 0 setrgbcolor
newpath
33451.5 78711.8 moveto
33451.5 37040.2 lineto
stroke
0 0 0 setrgbcolor
newpath
83478.5 78711.8 moveto
83478.5 37040.2 lineto
stroke
0 0 0 setrgbcolor
newpath
33451.5 78711.8 moveto
83478.5 78711.8 lineto
stroke
78.7398 setlinewidth
newpath
66989.1 76322 moveto
68238.3 75072.9 lineto
stroke
newpath
68238.3 76322 moveto
66989.1 75072.9 lineto
stroke
newpath
72488.9 76322 moveto
73738.1 75072.9 lineto
stroke
newpath
73738.1 76322 moveto
72488.9 75072.9 lineto
stroke
newpath
59056.7 76322 moveto
60305.9 75072.9 lineto
stroke
newpath
60305.9 76322 moveto
59056.7 75072.9 lineto
stroke
newpath
64556.5 76322 moveto
65805.7 75072.9 lineto
stroke
newpath
65805.7 76322 moveto
64556.5 75072.9 lineto
stroke
81574.7 38944 728.698 cir0
35355.3 76808 728.698 cir0
35355.3 38944 728.698 cir0
81574.7 76808 728.698 cir0
118.11 setlinewidth
0 0 0 setrgbcolor
0 0 0 setrgbcolor
newpath
34548 35175.5 moveto
34548 36356.6 lineto
34829.2 36356.6 lineto
34997.9 36300.3 lineto
35110.4 36187.9 lineto
35166.6 36075.4 lineto
35222.9 35850.4 lineto
35222.9 35681.7 lineto
35166.6 35456.7 lineto
35110.4 35344.2 lineto
34997.9 35231.7 lineto
34829.2 35175.5 lineto
34548 35175.5 lineto
stroke
newpath
35729.1 35175.5 moveto
35729.1 35962.9 lineto
stroke
newpath
35729.1 35737.9 moveto
35785.3 35850.4 lineto
35841.5 35906.6 lineto
35954 35962.9 lineto
36066.5 35962.9 lineto
stroke
newpath
36460.2 35175.5 moveto
36460.2 35962.9 lineto
stroke
newpath
36460.2 36356.6 moveto
36404 36300.3 lineto
36460.2 36244.1 lineto
36516.5 36300.3 lineto
36460.2 36356.6 lineto
36460.2 36244.1 lineto
stroke
newpath
37191.4 35175.5 moveto
37078.9 35231.7 lineto
37022.6 35344.2 lineto
37022.6 36356.6 lineto
stroke
newpath
37810 35175.5 moveto
37697.6 35231.7 lineto
37641.3 35344.2 lineto
37641.3 36356.6 lineto
stroke
newpath
39159.9 35175.5 moveto
39159.9 36356.6 lineto
39553.6 35512.9 lineto
39947.3 36356.6 lineto
39947.3 35175.5 lineto
stroke
newpath
41015.9 35175.5 moveto
41015.9 35794.2 lineto
40959.6 35906.6 lineto
40847.2 35962.9 lineto
40622.2 35962.9 lineto
40509.7 35906.6 lineto
stroke
newpath
41015.9 35231.7 moveto
40903.4 35175.5 lineto
40622.2 35175.5 lineto
40509.7 35231.7 lineto
40453.5 35344.2 lineto
40453.5 35456.7 lineto
40509.7 35569.2 lineto
40622.2 35625.4 lineto
40903.4 35625.4 lineto
41015.9 35681.7 lineto
stroke
newpath
41578.3 35962.9 moveto
41578.3 34781.8 lineto
stroke
newpath
41578.3 35906.6 moveto
41690.8 35962.9 lineto
41915.8 35962.9 lineto
42028.3 35906.6 lineto
42084.5 35850.4 lineto
42140.8 35737.9 lineto
42140.8 35400.5 lineto
42084.5 35288 lineto
42028.3 35231.7 lineto
41915.8 35175.5 lineto
41690.8 35175.5 lineto
41578.3 35231.7 lineto
stroke
newpath
42646.9 35288 moveto
42703.2 35231.7 lineto
42646.9 35175.5 lineto
42590.7 35231.7 lineto
42646.9 35288 lineto
42646.9 35175.5 lineto
stroke
newpath
42646.9 35906.6 moveto
42703.2 35850.4 lineto
42646.9 35794.2 lineto
42590.7 35850.4 lineto
42646.9 35906.6 lineto
42646.9 35794.2 lineto
stroke
newpath
32171.1 33854.1 moveto
33420.3 32604.9 lineto
stroke
newpath
33420.3 33854.1 moveto
32171.1 32604.9 lineto
stroke
0 0 0 setrgbcolor
0 0 0 setrgbcolor
newpath
34435.5 33876.3 moveto
35166.6 33876.3 lineto
34772.9 33426.3 lineto
34941.7 33426.3 lineto
35054.1 33370.1 lineto
35110.4 33313.8 lineto
35166.6 33201.4 lineto
35166.6 32920.1 lineto
35110.4 32807.7 lineto
35054.1 32751.4 lineto
34941.7 32695.2 lineto
34604.2 32695.2 lineto
34491.7 32751.4 lineto
34435.5 32807.7 lineto
stroke
newpath
35672.8 32807.7 moveto
35729.1 32751.4 lineto
35672.8 32695.2 lineto
35616.6 32751.4 lineto
35672.8 32807.7 lineto
35672.8 32695.2 lineto
stroke
newpath
36460.2 33876.3 moveto
36572.7 33876.3 lineto
36685.2 33820 lineto
36741.4 33763.8 lineto
36797.7 33651.3 lineto
36853.9 33426.3 lineto
36853.9 33145.1 lineto
36797.7 32920.1 lineto
36741.4 32807.7 lineto
36685.2 32751.4 lineto
36572.7 32695.2 lineto
36460.2 32695.2 lineto
36347.7 32751.4 lineto
36291.5 32807.7 lineto
36235.2 32920.1 lineto
36179 33145.1 lineto
36179 33426.3 lineto
36235.2 33651.3 lineto
36291.5 33763.8 lineto
36347.7 33820 lineto
36460.2 33876.3 lineto
stroke
newpath
37585.1 33876.3 moveto
37697.6 33876.3 lineto
37810 33820 lineto
37866.3 33763.8 lineto
37922.5 33651.3 lineto
37978.8 33426.3 lineto
37978.8 33145.1 lineto
37922.5 32920.1 lineto
37866.3 32807.7 lineto
37810 32751.4 lineto
37697.6 32695.2 lineto
37585.1 32695.2 lineto
37472.6 32751.4 lineto
37416.3 32807.7 lineto
37360.1 32920.1 lineto
37303.9 33145.1 lineto
37303.9 33426.3 lineto
37360.1 33651.3 lineto
37416.3 33763.8 lineto
37472.6 33820 lineto
37585.1 33876.3 lineto
stroke
newpath
38485 32695.2 moveto
38485 33482.6 lineto
stroke
newpath
38485 33370.1 moveto
38541.2 33426.3 lineto
38653.7 33482.6 lineto
38822.4 33482.6 lineto
38934.9 33426.3 lineto
38991.1 33313.8 lineto
38991.1 32695.2 lineto
stroke
newpath
38991.1 33313.8 moveto
39047.4 33426.3 lineto
39159.9 33482.6 lineto
39328.6 33482.6 lineto
39441.1 33426.3 lineto
39497.3 33313.8 lineto
39497.3 32695.2 lineto
stroke
newpath
40059.8 32695.2 moveto
40059.8 33482.6 lineto
stroke
newpath
40059.8 33370.1 moveto
40116 33426.3 lineto
40228.5 33482.6 lineto
40397.2 33482.6 lineto
40509.7 33426.3 lineto
40565.9 33313.8 lineto
40565.9 32695.2 lineto
stroke
newpath
40565.9 33313.8 moveto
40622.2 33426.3 lineto
40734.7 33482.6 lineto
40903.4 33482.6 lineto
41015.9 33426.3 lineto
41072.1 33313.8 lineto
41072.1 32695.2 lineto
stroke
newpath
43378.1 33932.5 moveto
42365.7 32414 lineto
stroke
newpath
44896.7 33876.3 moveto
45009.1 33876.3 lineto
45121.6 33820 lineto
45177.9 33763.8 lineto
45234.1 33651.3 lineto
45290.4 33426.3 lineto
45290.4 33145.1 lineto
45234.1 32920.1 lineto
45177.9 32807.7 lineto
45121.6 32751.4 lineto
45009.1 32695.2 lineto
44896.7 32695.2 lineto
44784.2 32751.4 lineto
44727.9 32807.7 lineto
44671.7 32920.1 lineto
44615.4 33145.1 lineto
44615.4 33426.3 lineto
44671.7 33651.3 lineto
44727.9 33763.8 lineto
44784.2 33820 lineto
44896.7 33876.3 lineto
stroke
newpath
45796.5 32807.7 moveto
45852.8 32751.4 lineto
45796.5 32695.2 lineto
45740.3 32751.4 lineto
45796.5 32807.7 lineto
45796.5 32695.2 lineto
stroke
newpath
46977.6 32695.2 moveto
46302.7 32695.2 lineto
stroke
newpath
46640.2 32695.2 moveto
46640.2 33876.3 lineto
46527.7 33707.5 lineto
46415.2 33595.1 lineto
46302.7 33538.8 lineto
stroke
newpath
48102.5 32695.2 moveto
47427.6 32695.2 lineto
stroke
newpath
47765 32695.2 moveto
47765 33876.3 lineto
47652.6 33707.5 lineto
47540.1 33595.1 lineto
47427.6 33538.8 lineto
stroke
newpath
48777.4 33370.1 moveto
48664.9 33426.3 lineto
48608.7 33482.6 lineto
48552.4 33595.1 lineto
48552.4 33651.3 lineto
48608.7 33763.8 lineto
48664.9 33820 lineto
48777.4 33876.3 lineto
49002.4 33876.3 lineto
49114.9 33820 lineto
49171.1 33763.8 lineto
49227.4 33651.3 lineto
49227.4 33595.1 lineto
49171.1 33482.6 lineto
49114.9 33426.3 lineto
49002.4 33370.1 lineto
48777.4 33370.1 lineto
48664.9 33313.8 lineto
48608.7 33257.6 lineto
48552.4 33145.1 lineto
48552.4 32920.1 lineto
48608.7 32807.7 lineto
48664.9 32751.4 lineto
48777.4 32695.2 lineto
49002.4 32695.2 lineto
49114.9 32751.4 lineto
49171.1 32807.7 lineto
49227.4 32920.1 lineto
49227.4 33145.1 lineto
49171.1 33257.6 lineto
49114.9 33313.8 lineto
49002.4 33370.1 lineto
stroke
newpath
49677.3 33876.3 moveto
49677.3 33651.3 lineto
stroke
newpath
50127.3 33876.3 moveto
50127.3 33651.3 lineto
stroke
newpath
51870.8 32245.2 moveto
51814.5 32301.5 lineto
51702.1 32470.2 lineto
51645.8 32582.7 lineto
51589.6 32751.4 lineto
51533.3 33032.6 lineto
51533.3 33257.6 lineto
51589.6 33538.8 lineto
51645.8 33707.5 lineto
51702.1 33820 lineto
51814.5 33988.8 lineto
51870.8 34045 lineto
stroke
newpath
52826.9 33482.6 moveto
52826.9 32695.2 lineto
stroke
newpath
52545.7 33932.5 moveto
52264.5 33088.9 lineto
52995.6 33088.9 lineto
stroke
newpath
54345.5 32695.2 moveto
54345.5 33876.3 lineto
stroke
newpath
54851.7 32695.2 moveto
54851.7 33313.8 lineto
54795.4 33426.3 lineto
54682.9 33482.6 lineto
54514.2 33482.6 lineto
54401.7 33426.3 lineto
54345.5 33370.1 lineto
stroke
newpath
55582.8 32695.2 moveto
55470.3 32751.4 lineto
55414.1 32807.7 lineto
55357.8 32920.1 lineto
55357.8 33257.6 lineto
55414.1 33370.1 lineto
55470.3 33426.3 lineto
55582.8 33482.6 lineto
55751.5 33482.6 lineto
55864 33426.3 lineto
55920.3 33370.1 lineto
55976.5 33257.6 lineto
55976.5 32920.1 lineto
55920.3 32807.7 lineto
55864 32751.4 lineto
55751.5 32695.2 lineto
55582.8 32695.2 lineto
stroke
newpath
56651.4 32695.2 moveto
56538.9 32751.4 lineto
56482.7 32863.9 lineto
56482.7 33876.3 lineto
stroke
newpath
57551.3 32751.4 moveto
57438.8 32695.2 lineto
57213.9 32695.2 lineto
57101.4 32751.4 lineto
57045.1 32863.9 lineto
57045.1 33313.8 lineto
57101.4 33426.3 lineto
57213.9 33482.6 lineto
57438.8 33482.6 lineto
57551.3 33426.3 lineto
57607.6 33313.8 lineto
57607.6 33201.4 lineto
57045.1 33088.9 lineto
stroke
newpath
58057.5 32751.4 moveto
58170 32695.2 lineto
58395 32695.2 lineto
58507.5 32751.4 lineto
58563.7 32863.9 lineto
58563.7 32920.1 lineto
58507.5 33032.6 lineto
58395 33088.9 lineto
58226.2 33088.9 lineto
58113.8 33145.1 lineto
58057.5 33257.6 lineto
58057.5 33313.8 lineto
58113.8 33426.3 lineto
58226.2 33482.6 lineto
58395 33482.6 lineto
58507.5 33426.3 lineto
stroke
newpath
58957.4 32245.2 moveto
59013.6 32301.5 lineto
59126.1 32470.2 lineto
59182.4 32582.7 lineto
59238.6 32751.4 lineto
59294.9 33032.6 lineto
59294.9 33257.6 lineto
59238.6 33538.8 lineto
59182.4 33707.5 lineto
59126.1 33820 lineto
59013.6 33988.8 lineto
58957.4 34045 lineto
stroke
newpath
61094.6 32245.2 moveto
61038.4 32301.5 lineto
60925.9 32470.2 lineto
60869.7 32582.7 lineto
60813.4 32751.4 lineto
60757.2 33032.6 lineto
60757.2 33257.6 lineto
60813.4 33538.8 lineto
60869.7 33707.5 lineto
60925.9 33820 lineto
61038.4 33988.8 lineto
61094.6 34045 lineto
stroke
newpath
61544.6 33482.6 moveto
61544.6 32695.2 lineto
stroke
newpath
61544.6 33370.1 moveto
61600.8 33426.3 lineto
61713.3 33482.6 lineto
61882 33482.6 lineto
61994.5 33426.3 lineto
62050.8 33313.8 lineto
62050.8 32695.2 lineto
stroke
newpath
62781.9 32695.2 moveto
62669.4 32751.4 lineto
62613.2 32807.7 lineto
62556.9 32920.1 lineto
62556.9 33257.6 lineto
62613.2 33370.1 lineto
62669.4 33426.3 lineto
62781.9 33482.6 lineto
62950.6 33482.6 lineto
63063.1 33426.3 lineto
63119.4 33370.1 lineto
63175.6 33257.6 lineto
63175.6 32920.1 lineto
63119.4 32807.7 lineto
63063.1 32751.4 lineto
62950.6 32695.2 lineto
62781.9 32695.2 lineto
stroke
newpath
63513.1 33482.6 moveto
63963 33482.6 lineto
stroke
newpath
63681.8 33876.3 moveto
63681.8 32863.9 lineto
63738 32751.4 lineto
63850.5 32695.2 lineto
63963 32695.2 lineto
stroke
newpath
65256.6 33482.6 moveto
65256.6 32301.5 lineto
stroke
newpath
65256.6 33426.3 moveto
65369.1 33482.6 lineto
65594.1 33482.6 lineto
65706.6 33426.3 lineto
65762.8 33370.1 lineto
65819 33257.6 lineto
65819 32920.1 lineto
65762.8 32807.7 lineto
65706.6 32751.4 lineto
65594.1 32695.2 lineto
65369.1 32695.2 lineto
65256.6 32751.4 lineto
stroke
newpath
66494 32695.2 moveto
66381.5 32751.4 lineto
66325.2 32863.9 lineto
66325.2 33876.3 lineto
stroke
newpath
67450.1 32695.2 moveto
67450.1 33313.8 lineto
67393.8 33426.3 lineto
67281.4 33482.6 lineto
67056.4 33482.6 lineto
66943.9 33426.3 lineto
stroke
newpath
67450.1 32751.4 moveto
67337.6 32695.2 lineto
67056.4 32695.2 lineto
66943.9 32751.4 lineto
66887.7 32863.9 lineto
66887.7 32976.4 lineto
66943.9 33088.9 lineto
67056.4 33145.1 lineto
67337.6 33145.1 lineto
67450.1 33201.4 lineto
stroke
newpath
67843.8 33482.6 moveto
68293.7 33482.6 lineto
stroke
newpath
68012.5 33876.3 moveto
68012.5 32863.9 lineto
68068.8 32751.4 lineto
68181.2 32695.2 lineto
68293.7 32695.2 lineto
stroke
newpath
69137.4 32751.4 moveto
69024.9 32695.2 lineto
68799.9 32695.2 lineto
68687.4 32751.4 lineto
68631.2 32863.9 lineto
68631.2 33313.8 lineto
68687.4 33426.3 lineto
68799.9 33482.6 lineto
69024.9 33482.6 lineto
69137.4 33426.3 lineto
69193.6 33313.8 lineto
69193.6 33201.4 lineto
68631.2 33088.9 lineto
stroke
newpath
70206 32695.2 moveto
70206 33876.3 lineto
stroke
newpath
70206 32751.4 moveto
70093.5 32695.2 lineto
69868.5 32695.2 lineto
69756 32751.4 lineto
69699.8 32807.7 lineto
69643.6 32920.1 lineto
69643.6 33257.6 lineto
69699.8 33370.1 lineto
69756 33426.3 lineto
69868.5 33482.6 lineto
70093.5 33482.6 lineto
70206 33426.3 lineto
stroke
newpath
70655.9 32245.2 moveto
70712.2 32301.5 lineto
70824.7 32470.2 lineto
70880.9 32582.7 lineto
70937.1 32751.4 lineto
70993.4 33032.6 lineto
70993.4 33257.6 lineto
70937.1 33538.8 lineto
70880.9 33707.5 lineto
70824.7 33820 lineto
70712.2 33988.8 lineto
70655.9 34045 lineto
stroke
32691.6 31468.5 728.698 cir0
0 0 0 setrgbcolor
0 0 0 setrgbcolor
newpath
34435.5 32115.3 moveto
35166.6 32115.3 lineto
34772.9 31665.3 lineto
34941.7 31665.3 lineto
35054.1 31609.1 lineto
35110.4 31552.8 lineto
35166.6 31440.4 lineto
35166.6 31159.1 lineto
35110.4 31046.7 lineto
35054.1 30990.4 lineto
34941.7 30934.2 lineto
34604.2 30934.2 lineto
34491.7 30990.4 lineto
34435.5 31046.7 lineto
stroke
newpath
35672.8 31046.7 moveto
35729.1 30990.4 lineto
35672.8 30934.2 lineto
35616.6 30990.4 lineto
35672.8 31046.7 lineto
35672.8 30934.2 lineto
stroke
newpath
36797.7 32115.3 moveto
36235.2 32115.3 lineto
36179 31552.8 lineto
36235.2 31609.1 lineto
36347.7 31665.3 lineto
36628.9 31665.3 lineto
36741.4 31609.1 lineto
36797.7 31552.8 lineto
36853.9 31440.4 lineto
36853.9 31159.1 lineto
36797.7 31046.7 lineto
36741.4 30990.4 lineto
36628.9 30934.2 lineto
36347.7 30934.2 lineto
36235.2 30990.4 lineto
36179 31046.7 lineto
stroke
newpath
37585.1 32115.3 moveto
37697.6 32115.3 lineto
37810 32059 lineto
37866.3 32002.8 lineto
37922.5 31890.3 lineto
37978.8 31665.3 lineto
37978.8 31384.1 lineto
37922.5 31159.1 lineto
37866.3 31046.7 lineto
37810 30990.4 lineto
37697.6 30934.2 lineto
37585.1 30934.2 lineto
37472.6 30990.4 lineto
37416.3 31046.7 lineto
37360.1 31159.1 lineto
37303.9 31384.1 lineto
37303.9 31665.3 lineto
37360.1 31890.3 lineto
37416.3 32002.8 lineto
37472.6 32059 lineto
37585.1 32115.3 lineto
stroke
newpath
38485 30934.2 moveto
38485 31721.6 lineto
stroke
newpath
38485 31609.1 moveto
38541.2 31665.3 lineto
38653.7 31721.6 lineto
38822.4 31721.6 lineto
38934.9 31665.3 lineto
38991.1 31552.8 lineto
38991.1 30934.2 lineto
stroke
newpath
38991.1 31552.8 moveto
39047.4 31665.3 lineto
39159.9 31721.6 lineto
39328.6 31721.6 lineto
39441.1 31665.3 lineto
39497.3 31552.8 lineto
39497.3 30934.2 lineto
stroke
newpath
40059.8 30934.2 moveto
40059.8 31721.6 lineto
stroke
newpath
40059.8 31609.1 moveto
40116 31665.3 lineto
40228.5 31721.6 lineto
40397.2 31721.6 lineto
40509.7 31665.3 lineto
40565.9 31552.8 lineto
40565.9 30934.2 lineto
stroke
newpath
40565.9 31552.8 moveto
40622.2 31665.3 lineto
40734.7 31721.6 lineto
40903.4 31721.6 lineto
41015.9 31665.3 lineto
41072.1 31552.8 lineto
41072.1 30934.2 lineto
stroke
newpath
43378.1 32171.5 moveto
42365.7 30653 lineto
stroke
newpath
44896.7 32115.3 moveto
45009.1 32115.3 lineto
45121.6 32059 lineto
45177.9 32002.8 lineto
45234.1 31890.3 lineto
45290.4 31665.3 lineto
45290.4 31384.1 lineto
45234.1 31159.1 lineto
45177.9 31046.7 lineto
45121.6 30990.4 lineto
45009.1 30934.2 lineto
44896.7 30934.2 lineto
44784.2 30990.4 lineto
44727.9 31046.7 lineto
44671.7 31159.1 lineto
44615.4 31384.1 lineto
44615.4 31665.3 lineto
44671.7 31890.3 lineto
44727.9 32002.8 lineto
44784.2 32059 lineto
44896.7 32115.3 lineto
stroke
newpath
45796.5 31046.7 moveto
45852.8 30990.4 lineto
45796.5 30934.2 lineto
45740.3 30990.4 lineto
45796.5 31046.7 lineto
45796.5 30934.2 lineto
stroke
newpath
46977.6 30934.2 moveto
46302.7 30934.2 lineto
stroke
newpath
46640.2 30934.2 moveto
46640.2 32115.3 lineto
46527.7 31946.5 lineto
46415.2 31834.1 lineto
46302.7 31777.8 lineto
stroke
newpath
47371.3 32115.3 moveto
48102.5 32115.3 lineto
47708.8 31665.3 lineto
47877.5 31665.3 lineto
47990 31609.1 lineto
48046.3 31552.8 lineto
48102.5 31440.4 lineto
48102.5 31159.1 lineto
48046.3 31046.7 lineto
47990 30990.4 lineto
47877.5 30934.2 lineto
47540.1 30934.2 lineto
47427.6 30990.4 lineto
47371.3 31046.7 lineto
stroke
newpath
48777.4 31609.1 moveto
48664.9 31665.3 lineto
48608.7 31721.6 lineto
48552.4 31834.1 lineto
48552.4 31890.3 lineto
48608.7 32002.8 lineto
48664.9 32059 lineto
48777.4 32115.3 lineto
49002.4 32115.3 lineto
49114.9 32059 lineto
49171.1 32002.8 lineto
49227.4 31890.3 lineto
49227.4 31834.1 lineto
49171.1 31721.6 lineto
49114.9 31665.3 lineto
49002.4 31609.1 lineto
48777.4 31609.1 lineto
48664.9 31552.8 lineto
48608.7 31496.6 lineto
48552.4 31384.1 lineto
48552.4 31159.1 lineto
48608.7 31046.7 lineto
48664.9 30990.4 lineto
48777.4 30934.2 lineto
49002.4 30934.2 lineto
49114.9 30990.4 lineto
49171.1 31046.7 lineto
49227.4 31159.1 lineto
49227.4 31384.1 lineto
49171.1 31496.6 lineto
49114.9 31552.8 lineto
49002.4 31609.1 lineto
stroke
newpath
49677.3 32115.3 moveto
49677.3 31890.3 lineto
stroke
newpath
50127.3 32115.3 moveto
50127.3 31890.3 lineto
stroke
newpath
51870.8 30484.2 moveto
51814.5 30540.5 lineto
51702.1 30709.2 lineto
51645.8 30821.7 lineto
51589.6 30990.4 lineto
51533.3 31271.6 lineto
51533.3 31496.6 lineto
51589.6 31777.8 lineto
51645.8 31946.5 lineto
51702.1 32059 lineto
51814.5 32227.8 lineto
51870.8 32284 lineto
stroke
newpath
52826.9 31721.6 moveto
52826.9 30934.2 lineto
stroke
newpath
52545.7 32171.5 moveto
52264.5 31327.9 lineto
52995.6 31327.9 lineto
stroke
newpath
54345.5 30934.2 moveto
54345.5 32115.3 lineto
stroke
newpath
54851.7 30934.2 moveto
54851.7 31552.8 lineto
54795.4 31665.3 lineto
54682.9 31721.6 lineto
54514.2 31721.6 lineto
54401.7 31665.3 lineto
54345.5 31609.1 lineto
stroke
newpath
55582.8 30934.2 moveto
55470.3 30990.4 lineto
55414.1 31046.7 lineto
55357.8 31159.1 lineto
55357.8 31496.6 lineto
55414.1 31609.1 lineto
55470.3 31665.3 lineto
55582.8 31721.6 lineto
55751.5 31721.6 lineto
55864 31665.3 lineto
55920.3 31609.1 lineto
55976.5 31496.6 lineto
55976.5 31159.1 lineto
55920.3 31046.7 lineto
55864 30990.4 lineto
55751.5 30934.2 lineto
55582.8 30934.2 lineto
stroke
newpath
56651.4 30934.2 moveto
56538.9 30990.4 lineto
56482.7 31102.9 lineto
56482.7 32115.3 lineto
stroke
newpath
57551.3 30990.4 moveto
57438.8 30934.2 lineto
57213.9 30934.2 lineto
57101.4 30990.4 lineto
57045.1 31102.9 lineto
57045.1 31552.8 lineto
57101.4 31665.3 lineto
57213.9 31721.6 lineto
57438.8 31721.6 lineto
57551.3 31665.3 lineto
57607.6 31552.8 lineto
57607.6 31440.4 lineto
57045.1 31327.9 lineto
stroke
newpath
58057.5 30990.4 moveto
58170 30934.2 lineto
58395 30934.2 lineto
58507.5 30990.4 lineto
58563.7 31102.9 lineto
58563.7 31159.1 lineto
58507.5 31271.6 lineto
58395 31327.9 lineto
58226.2 31327.9 lineto
58113.8 31384.1 lineto
58057.5 31496.6 lineto
58057.5 31552.8 lineto
58113.8 31665.3 lineto
58226.2 31721.6 lineto
58395 31721.6 lineto
58507.5 31665.3 lineto
stroke
newpath
58957.4 30484.2 moveto
59013.6 30540.5 lineto
59126.1 30709.2 lineto
59182.4 30821.7 lineto
59238.6 30990.4 lineto
59294.9 31271.6 lineto
59294.9 31496.6 lineto
59238.6 31777.8 lineto
59182.4 31946.5 lineto
59126.1 32059 lineto
59013.6 32227.8 lineto
58957.4 32284 lineto
stroke
newpath
61094.6 30484.2 moveto
61038.4 30540.5 lineto
60925.9 30709.2 lineto
60869.7 30821.7 lineto
60813.4 30990.4 lineto
60757.2 31271.6 lineto
60757.2 31496.6 lineto
60813.4 31777.8 lineto
60869.7 31946.5 lineto
60925.9 32059 lineto
61038.4 32227.8 lineto
61094.6 32284 lineto
stroke
newpath
61544.6 31721.6 moveto
61544.6 30934.2 lineto
stroke
newpath
61544.6 31609.1 moveto
61600.8 31665.3 lineto
61713.3 31721.6 lineto
61882 31721.6 lineto
61994.5 31665.3 lineto
62050.8 31552.8 lineto
62050.8 30934.2 lineto
stroke
newpath
62781.9 30934.2 moveto
62669.4 30990.4 lineto
62613.2 31046.7 lineto
62556.9 31159.1 lineto
62556.9 31496.6 lineto
62613.2 31609.1 lineto
62669.4 31665.3 lineto
62781.9 31721.6 lineto
62950.6 31721.6 lineto
63063.1 31665.3 lineto
63119.4 31609.1 lineto
63175.6 31496.6 lineto
63175.6 31159.1 lineto
63119.4 31046.7 lineto
63063.1 30990.4 lineto
62950.6 30934.2 lineto
62781.9 30934.2 lineto
stroke
newpath
63513.1 31721.6 moveto
63963 31721.6 lineto
stroke
newpath
63681.8 32115.3 moveto
63681.8 31102.9 lineto
63738 30990.4 lineto
63850.5 30934.2 lineto
63963 30934.2 lineto
stroke
newpath
65256.6 31721.6 moveto
65256.6 30540.5 lineto
stroke
newpath
65256.6 31665.3 moveto
65369.1 31721.6 lineto
65594.1 31721.6 lineto
65706.6 31665.3 lineto
65762.8 31609.1 lineto
65819 31496.6 lineto
65819 31159.1 lineto
65762.8 31046.7 lineto
65706.6 30990.4 lineto
65594.1 30934.2 lineto
65369.1 30934.2 lineto
65256.6 30990.4 lineto
stroke
newpath
66494 30934.2 moveto
66381.5 30990.4 lineto
66325.2 31102.9 lineto
66325.2 32115.3 lineto
stroke
newpath
67450.1 30934.2 moveto
67450.1 31552.8 lineto
67393.8 31665.3 lineto
67281.4 31721.6 lineto
67056.4 31721.6 lineto
66943.9 31665.3 lineto
stroke
newpath
67450.1 30990.4 moveto
67337.6 30934.2 lineto
67056.4 30934.2 lineto
66943.9 30990.4 lineto
66887.7 31102.9 lineto
66887.7 31215.4 lineto
66943.9 31327.9 lineto
67056.4 31384.1 lineto
67337.6 31384.1 lineto
67450.1 31440.4 lineto
stroke
newpath
67843.8 31721.6 moveto
68293.7 31721.6 lineto
stroke
newpath
68012.5 32115.3 moveto
68012.5 31102.9 lineto
68068.8 30990.4 lineto
68181.2 30934.2 lineto
68293.7 30934.2 lineto
stroke
newpath
69137.4 30990.4 moveto
69024.9 30934.2 lineto
68799.9 30934.2 lineto
68687.4 30990.4 lineto
68631.2 31102.9 lineto
68631.2 31552.8 lineto
68687.4 31665.3 lineto
68799.9 31721.6 lineto
69024.9 31721.6 lineto
69137.4 31665.3 lineto
69193.6 31552.8 lineto
69193.6 31440.4 lineto
68631.2 31327.9 lineto
stroke
newpath
70206 30934.2 moveto
70206 32115.3 lineto
stroke
newpath
70206 30990.4 moveto
70093.5 30934.2 lineto
69868.5 30934.2 lineto
69756 30990.4 lineto
69699.8 31046.7 lineto
69643.6 31159.1 lineto
69643.6 31496.6 lineto
69699.8 31609.1 lineto
69756 31665.3 lineto
69868.5 31721.6 lineto
70093.5 31721.6 lineto
70206 31665.3 lineto
stroke
newpath
70655.9 30484.2 moveto
70712.2 30540.5 lineto
70824.7 30709.2 lineto
70880.9 30821.7 lineto
70937.1 30990.4 lineto
70993.4 31271.6 lineto
70993.4 31496.6 lineto
70937.1 31777.8 lineto
70880.9 31946.5 lineto
70824.7 32059 lineto
70712.2 32227.8 lineto
70655.9 32284 lineto
stroke
showpage
grestore
%%EOF
