%TF.GenerationSoftware,KiCad,Pcbnew,5.1.7-a382d34a8~87~ubuntu20.04.1*%
%TF.CreationDate,2020-10-26T15:06:00+01:00*%
%TF.ProjectId,T4.1-Adapter-Board,54342e31-2d41-4646-9170-7465722d426f,1.0*%
%TF.SameCoordinates,Original*%
%TF.FileFunction,Soldermask,Top*%
%TF.FilePolarity,Negative*%
%FSLAX46Y46*%
G04 Gerber Fmt 4.6, Leading zero omitted, Abs format (unit mm)*
G04 Created by KiCad (PCBNEW 5.1.7-a382d34a8~87~ubuntu20.04.1) date 2020-10-26 15:06:00*
%MOMM*%
%LPD*%
G01*
G04 APERTURE LIST*
%ADD10O,1.700000X1.700000*%
%ADD11R,1.700000X1.700000*%
%ADD12R,2.400000X1.600000*%
%ADD13O,2.400000X1.600000*%
G04 APERTURE END LIST*
D10*
%TO.C,J1_T3.6_L1*%
X143764000Y-146304000D03*
X143764000Y-143764000D03*
X143764000Y-141224000D03*
X143764000Y-138684000D03*
X143764000Y-136144000D03*
X143764000Y-133604000D03*
X143764000Y-131064000D03*
X143764000Y-128524000D03*
X143764000Y-125984000D03*
X143764000Y-123444000D03*
X143764000Y-120904000D03*
X143764000Y-118364000D03*
X143764000Y-115824000D03*
X143764000Y-113284000D03*
X143764000Y-110744000D03*
X143764000Y-108204000D03*
X143764000Y-105664000D03*
X143764000Y-103124000D03*
X143764000Y-100584000D03*
X143764000Y-98044000D03*
X143764000Y-95504000D03*
X143764000Y-92964000D03*
X143764000Y-90424000D03*
D11*
X143764000Y-87884000D03*
%TD*%
%TO.C,J2_T3.6_R1*%
X159004000Y-146304000D03*
D10*
X159004000Y-143764000D03*
X159004000Y-141224000D03*
X159004000Y-138684000D03*
X159004000Y-136144000D03*
X159004000Y-133604000D03*
X159004000Y-131064000D03*
X159004000Y-128524000D03*
X159004000Y-125984000D03*
X159004000Y-123444000D03*
X159004000Y-120904000D03*
X159004000Y-118364000D03*
X159004000Y-115824000D03*
X159004000Y-113284000D03*
X159004000Y-110744000D03*
X159004000Y-108204000D03*
X159004000Y-105664000D03*
X159004000Y-103124000D03*
X159004000Y-100584000D03*
X159004000Y-98044000D03*
X159004000Y-95504000D03*
X159004000Y-92964000D03*
X159004000Y-90424000D03*
X159004000Y-87884000D03*
%TD*%
D12*
%TO.C,U1*%
X136144000Y-87884000D03*
D13*
X151384000Y-146304000D03*
X136144000Y-90424000D03*
X151384000Y-143764000D03*
X136144000Y-92964000D03*
X151384000Y-141224000D03*
X136144000Y-95504000D03*
X151384000Y-138684000D03*
X136144000Y-98044000D03*
X151384000Y-136144000D03*
X136144000Y-100584000D03*
X151384000Y-133604000D03*
X136144000Y-103124000D03*
X151384000Y-131064000D03*
X136144000Y-105664000D03*
X151384000Y-128524000D03*
X136144000Y-108204000D03*
X151384000Y-125984000D03*
X136144000Y-110744000D03*
X151384000Y-123444000D03*
X136144000Y-113284000D03*
X151384000Y-120904000D03*
X136144000Y-115824000D03*
X151384000Y-118364000D03*
X136144000Y-118364000D03*
X151384000Y-115824000D03*
X136144000Y-120904000D03*
X151384000Y-113284000D03*
X136144000Y-123444000D03*
X151384000Y-110744000D03*
X136144000Y-125984000D03*
X151384000Y-108204000D03*
X136144000Y-128524000D03*
X151384000Y-105664000D03*
X136144000Y-131064000D03*
X151384000Y-103124000D03*
X136144000Y-133604000D03*
X151384000Y-100584000D03*
X136144000Y-136144000D03*
X151384000Y-98044000D03*
X136144000Y-138684000D03*
X151384000Y-95504000D03*
X136144000Y-141224000D03*
X151384000Y-92964000D03*
X136144000Y-143764000D03*
X151384000Y-90424000D03*
X136144000Y-146304000D03*
X151384000Y-87884000D03*
%TD*%
M02*
