EESchema Schematic File Version 4
LIBS:TeensyMIDIAudio-cache
EELAYER 26 0
EELAYER END
$Descr A4 11693 8268
encoding utf-8
Sheet 1 1
Title "Teensy MIDI Audio"
Date "2018-07-29"
Rev "7"
Comp "parasiTstudio"
Comment1 ""
Comment2 ""
Comment3 ""
Comment4 ""
$EndDescr
$Comp
L TeensyMIDIAudio-rescue:PT8211-parasitStudio U4
U 1 1 5B5DB661
P 8300 2150
F 0 "U4" H 8300 2525 50  0000 C CNN
F 1 "PT8211" H 8300 2434 50  0000 C CNN
F 2 "Package_DIP:DIP-8_W7.62mm_Socket_LongPads" H 8300 2150 50  0001 C CNN
F 3 "" H 8300 2150 50  0001 C CNN
	1    8300 2150
	1    0    0    -1  
$EndComp
Text GLabel 1850 3050 0    50   Input ~ 0
9_PWM_RX2_CS0
Text GLabel 4650 3350 2    50   Input ~ 0
13_SCK0_LED
Text GLabel 4650 3550 2    50   Input ~ 0
A22_DAC1
Wire Wire Line
	7800 2000 7950 2000
Wire Wire Line
	7800 2100 7950 2100
Wire Wire Line
	7800 2200 7950 2200
Wire Wire Line
	1850 3050 2050 3050
$Comp
L power:GND #PWR023
U 1 1 5B5DBE5B
P 7950 2400
F 0 "#PWR023" H 7950 2150 50  0001 C CNN
F 1 "GND" H 7955 2227 50  0000 C CNN
F 2 "" H 7950 2400 50  0001 C CNN
F 3 "" H 7950 2400 50  0001 C CNN
	1    7950 2400
	1    0    0    -1  
$EndComp
Wire Wire Line
	7950 2400 7950 2300
$Comp
L Device:R R2
U 1 1 5B5DC280
P 9750 2300
F 0 "R2" V 9850 2300 50  0000 C CNN
F 1 "10R" V 9750 2300 50  0000 C CNN
F 2 "Resistor_THT:R_Axial_DIN0207_L6.3mm_D2.5mm_P7.62mm_Horizontal" V 9680 2300 50  0001 C CNN
F 3 "" H 9750 2300 50  0001 C CNN
	1    9750 2300
	0    1    1    0   
$EndComp
$Comp
L Device:CP C5
U 1 1 5B5DC339
P 9300 2450
F 0 "C5" H 9418 2496 50  0000 L CNN
F 1 "47uF" H 9418 2405 50  0000 L CNN
F 2 "w_capacitors:CP_6.3x11mm" H 9338 2300 50  0001 C CNN
F 3 "" H 9300 2450 50  0001 C CNN
	1    9300 2450
	1    0    0    -1  
$EndComp
$Comp
L power:GND #PWR026
U 1 1 5B5DC74B
P 8850 2600
F 0 "#PWR026" H 8850 2350 50  0001 C CNN
F 1 "GND" H 8855 2427 50  0000 C CNN
F 2 "" H 8850 2600 50  0001 C CNN
F 3 "" H 8850 2600 50  0001 C CNN
	1    8850 2600
	1    0    0    -1  
$EndComp
$Comp
L power:GND #PWR027
U 1 1 5B5DC77C
P 9300 2600
F 0 "#PWR027" H 9300 2350 50  0001 C CNN
F 1 "GND" H 9305 2427 50  0000 C CNN
F 2 "" H 9300 2600 50  0001 C CNN
F 3 "" H 9300 2600 50  0001 C CNN
	1    9300 2600
	1    0    0    -1  
$EndComp
$Comp
L Device:CP C4
U 1 1 5B5DD003
P 9000 1350
F 0 "C4" V 8850 1350 50  0000 C CNN
F 1 "47uF" V 8750 1350 50  0000 C CNN
F 2 "w_capacitors:CP_6.3x11mm" H 9038 1200 50  0001 C CNN
F 3 "" H 9000 1350 50  0001 C CNN
	1    9000 1350
	0    -1   -1   0   
$EndComp
$Comp
L Device:CP C3
U 1 1 5B5DD0B0
P 9000 1050
F 0 "C3" V 9255 1050 50  0000 C CNN
F 1 "47uF" V 9164 1050 50  0000 C CNN
F 2 "w_capacitors:CP_6.3x11mm" H 9038 900 50  0001 C CNN
F 3 "" H 9000 1050 50  0001 C CNN
	1    9000 1050
	0    -1   -1   0   
$EndComp
Wire Wire Line
	8650 2200 8850 2200
$Comp
L Connector:DIN-5_180degree J15
U 1 1 5B5DDC51
P 10450 4700
F 0 "J15" V 10496 4470 50  0000 R CNN
F 1 "MIDI IN" V 10405 4470 50  0000 R CNN
F 2 "w_conn_av:din-5" H 10450 4700 50  0001 C CNN
F 3 "" H 10450 4700 50  0001 C CNN
	1    10450 4700
	0    -1   -1   0   
$EndComp
Text GLabel 9600 4100 0    50   Input ~ 0
3.3V
Text GLabel 1850 2250 0    50   Input ~ 0
MIDI_OUT
Text GLabel 1850 2150 0    50   Input ~ 0
MIDI_IN
Wire Wire Line
	1850 2150 2050 2150
Wire Wire Line
	1850 2250 2050 2250
$Comp
L power:GND #PWR033
U 1 1 5B5DF371
P 10150 3800
F 0 "#PWR033" H 10150 3550 50  0001 C CNN
F 1 "GND" H 10155 3627 50  0000 C CNN
F 2 "" H 10150 3800 50  0001 C CNN
F 3 "" H 10150 3800 50  0001 C CNN
	1    10150 3800
	1    0    0    -1  
$EndComp
$Comp
L Device:R R3
U 1 1 5B5DF3C9
P 10000 3500
F 0 "R3" V 9900 3500 50  0000 C CNN
F 1 "47R" V 10000 3500 50  0000 C CNN
F 2 "Resistor_THT:R_Axial_DIN0207_L6.3mm_D2.5mm_P7.62mm_Horizontal" V 9930 3500 50  0001 C CNN
F 3 "" H 10000 3500 50  0001 C CNN
	1    10000 3500
	0    1    1    0   
$EndComp
$Comp
L Device:R R4
U 1 1 5B5DF462
P 10000 4100
F 0 "R4" V 9900 4100 50  0000 C CNN
F 1 "47R" V 10000 4100 50  0000 C CNN
F 2 "Resistor_THT:R_Axial_DIN0207_L6.3mm_D2.5mm_P7.62mm_Horizontal" V 9930 4100 50  0001 C CNN
F 3 "" H 10000 4100 50  0001 C CNN
	1    10000 4100
	0    1    1    0   
$EndComp
Text GLabel 9600 3500 0    50   Input ~ 0
MIDI_OUT
Wire Wire Line
	9600 3500 9850 3500
Wire Wire Line
	9600 4100 9850 4100
Text GLabel 7650 4650 0    50   Input ~ 0
MIDI_IN
$Comp
L Isolator:6N138 U5
U 1 1 5B5E2EC2
P 8850 4750
F 0 "U5" H 8850 4283 50  0000 C CNN
F 1 "6N138" H 8850 4374 50  0000 C CNN
F 2 "Package_DIP:DIP-8_W7.62mm_Socket_LongPads" H 9140 4450 50  0001 C CNN
F 3 "" H 9140 4450 50  0001 C CNN
	1    8850 4750
	-1   0    0    1   
$EndComp
$Comp
L Device:D D1
U 1 1 5B5E3558
P 9550 4800
F 0 "D1" H 9550 4900 50  0000 C CNN
F 1 "1N4148" H 9550 4700 50  0000 C CNN
F 2 "Diode_THT:D_DO-35_SOD27_P7.62mm_Horizontal" H 9550 4800 50  0001 C CNN
F 3 "" H 9550 4800 50  0001 C CNN
	1    9550 4800
	0    -1   -1   0   
$EndComp
Wire Wire Line
	9150 4650 9550 4650
Wire Wire Line
	9550 4650 9550 4400
Wire Wire Line
	9550 4400 10350 4400
$Comp
L Device:R R5
U 1 1 5B5E497E
P 9850 5000
F 0 "R5" V 9750 5000 50  0000 C CNN
F 1 "220R" V 9850 5000 50  0000 C CNN
F 2 "Resistor_THT:R_Axial_DIN0207_L6.3mm_D2.5mm_P7.62mm_Horizontal" V 9780 5000 50  0001 C CNN
F 3 "" H 9850 5000 50  0001 C CNN
	1    9850 5000
	0    1    1    0   
$EndComp
Wire Wire Line
	10000 5000 10350 5000
$Comp
L power:GND #PWR024
U 1 1 5B5E5B58
P 8450 4550
F 0 "#PWR024" H 8450 4300 50  0001 C CNN
F 1 "GND" H 8455 4377 50  0000 C CNN
F 2 "" H 8450 4550 50  0001 C CNN
F 3 "" H 8450 4550 50  0001 C CNN
	1    8450 4550
	-1   0    0    1   
$EndComp
Wire Wire Line
	8450 4550 8550 4550
$Comp
L Device:R R1
U 1 1 5B5E82D7
P 8000 4500
F 0 "R1" V 7900 4500 50  0000 C CNN
F 1 "470R" V 8000 4500 50  0000 C CNN
F 2 "Resistor_THT:R_Axial_DIN0207_L6.3mm_D2.5mm_P7.62mm_Horizontal" V 7930 4500 50  0001 C CNN
F 3 "" H 8000 4500 50  0001 C CNN
	1    8000 4500
	0    1    1    0   
$EndComp
Text GLabel 7650 4500 0    50   Input ~ 0
3.3V
Wire Wire Line
	7650 4500 7850 4500
Wire Wire Line
	8150 4500 8300 4500
Wire Wire Line
	8300 4500 8300 4650
Wire Wire Line
	8300 4650 8550 4650
$Comp
L Connector:USB_A J13
U 1 1 5B5F190C
P 10400 5800
F 0 "J13" H 10170 5698 50  0000 R CNN
F 1 "MIDI USB" H 10170 5789 50  0000 R CNN
F 2 "w_conn_pc:conn_usb_A-vert" H 10550 5750 50  0001 C CNN
F 3 " ~" H 10550 5750 50  0001 C CNN
	1    10400 5800
	-1   0    0    1   
$EndComp
$Comp
L Device:C C2
U 1 1 5B5F720C
P 8850 2450
F 0 "C2" H 8965 2496 50  0000 L CNN
F 1 "100nF" H 8965 2405 50  0000 L CNN
F 2 "w_capacitors:cnp_7x2mm" H 8888 2300 50  0001 C CNN
F 3 "~" H 8850 2450 50  0001 C CNN
	1    8850 2450
	1    0    0    -1  
$EndComp
$Comp
L Device:C C1
U 1 1 5B5F84E7
P 1750 1400
F 0 "C1" H 1498 1400 50  0000 C CNN
F 1 "100nF" H 1500 1500 50  0000 C CNN
F 2 "w_capacitors:cnp_7x2mm" H 1788 1250 50  0001 C CNN
F 3 "~" H 1750 1400 50  0001 C CNN
	1    1750 1400
	-1   0    0    1   
$EndComp
Wire Wire Line
	7650 4650 8300 4650
Connection ~ 8300 4650
$Comp
L Connector:Conn_01x04_Male J10
U 1 1 5B5F11DA
P 9300 5700
F 0 "J10" H 9406 5978 50  0000 C CNN
F 1 "USB HOST" H 9300 5350 50  0000 C CNN
F 2 "Connector_PinHeader_2.54mm:PinHeader_1x04_P2.54mm_Vertical" H 9300 5700 50  0001 C CNN
F 3 "~" H 9300 5700 50  0001 C CNN
	1    9300 5700
	1    0    0    -1  
$EndComp
Text Notes 8800 5850 0    50   ~ 0
USB-DATA+\n
Text Notes 8800 5750 0    50   ~ 0
USB-DATA-\n
Text Notes 8800 5950 0    50   ~ 0
USB+5V\n
NoConn ~ 8550 4850
Connection ~ 9550 4650
Wire Wire Line
	9150 4850 9150 5000
Wire Wire Line
	9150 5000 9550 5000
Wire Wire Line
	9550 4950 9550 5000
Connection ~ 9550 5000
Wire Wire Line
	9550 5000 9700 5000
$Comp
L power:GND #PWR030
U 1 1 5B616B5C
P 10400 5400
F 0 "#PWR030" H 10400 5150 50  0001 C CNN
F 1 "GND" H 10405 5227 50  0000 C CNN
F 2 "" H 10400 5400 50  0001 C CNN
F 3 "" H 10400 5400 50  0001 C CNN
	1    10400 5400
	-1   0    0    1   
$EndComp
Text GLabel 1850 2850 0    50   Input ~ 0
7_RX3_mosi0_scl0
Text GLabel 1850 2950 0    50   Input ~ 0
8_TX3_miso0_sda0
Text GLabel 1850 4250 0    50   Input ~ 0
31_A12_RX4_CS1
Text GLabel 1850 4350 0    50   Input ~ 0
32_A13_TX4_SCK1
Wire Wire Line
	1850 2850 2050 2850
Wire Wire Line
	1850 4250 2050 4250
Wire Wire Line
	1850 4350 2050 4350
$Comp
L power:GND #PWR010
U 1 1 5B62F2B9
P 1850 2050
F 0 "#PWR010" H 1850 1800 50  0001 C CNN
F 1 "GND" V 1855 1922 50  0000 R CNN
F 2 "" H 1850 2050 50  0001 C CNN
F 3 "" H 1850 2050 50  0001 C CNN
	1    1850 2050
	0    1    1    0   
$EndComp
Wire Wire Line
	1850 2050 2050 2050
$Comp
L TeensyMIDIAudio-rescue:PT8211-parasitStudio U3
U 1 1 5B63BD18
P 8300 1150
F 0 "U3" H 8300 1525 50  0000 C CNN
F 1 "PT8211_SMD_optional" H 8300 1434 50  0000 C CNN
F 2 "w_smd_dil:so-8" H 8300 1150 50  0001 C CNN
F 3 "" H 8300 1150 50  0001 C CNN
	1    8300 1150
	1    0    0    -1  
$EndComp
Wire Wire Line
	7800 1000 7950 1000
Wire Wire Line
	7800 1200 7950 1200
$Comp
L power:GND #PWR022
U 1 1 5B63BD25
P 7950 1400
F 0 "#PWR022" H 7950 1150 50  0001 C CNN
F 1 "GND" H 7955 1227 50  0000 C CNN
F 2 "" H 7950 1400 50  0001 C CNN
F 3 "" H 7950 1400 50  0001 C CNN
	1    7950 1400
	1    0    0    -1  
$EndComp
Wire Wire Line
	7950 1400 7950 1300
Wire Wire Line
	8650 1200 8850 1200
Wire Wire Line
	8650 1000 8750 1000
$Comp
L power:GND #PWR07
U 1 1 5B65662C
P 1750 1700
F 0 "#PWR07" H 1750 1450 50  0001 C CNN
F 1 "GND" V 1755 1572 50  0000 R CNN
F 2 "" H 1750 1700 50  0001 C CNN
F 3 "" H 1750 1700 50  0001 C CNN
	1    1750 1700
	0    -1   -1   0   
$EndComp
$Comp
L power:+5V #PWR06
U 1 1 5B656725
P 1750 1100
F 0 "#PWR06" H 1750 950 50  0001 C CNN
F 1 "+5V" V 1765 1228 50  0000 L CNN
F 2 "" H 1750 1100 50  0001 C CNN
F 3 "" H 1750 1100 50  0001 C CNN
	1    1750 1100
	0    1    1    0   
$EndComp
Text GLabel 4650 3950 2    50   Input ~ 0
37_A18_PWM_SCL1
Text GLabel 4650 3850 2    50   Input ~ 0
38_A19_PWM_SDA1
$Comp
L Connector:Conn_01x04_Male J7
U 1 1 5B6633CE
P 5650 4900
F 0 "J7" H 5756 5178 50  0000 C CNN
F 1 "LCD_I2C_Connector" H 5756 5087 50  0000 C CNN
F 2 "Connector_PinHeader_2.54mm:PinHeader_1x04_P2.54mm_Vertical" H 5650 4900 50  0001 C CNN
F 3 "~" H 5650 4900 50  0001 C CNN
	1    5650 4900
	1    0    0    -1  
$EndComp
$Comp
L power:+5V #PWR013
U 1 1 5B66352E
P 6300 4800
F 0 "#PWR013" H 6300 4650 50  0001 C CNN
F 1 "+5V" V 6315 4928 50  0000 L CNN
F 2 "" H 6300 4800 50  0001 C CNN
F 3 "" H 6300 4800 50  0001 C CNN
	1    6300 4800
	0    1    1    0   
$EndComp
$Comp
L power:GND #PWR014
U 1 1 5B6635CA
P 6300 5100
F 0 "#PWR014" H 6300 4850 50  0001 C CNN
F 1 "GND" V 6305 4972 50  0000 R CNN
F 2 "" H 6300 5100 50  0001 C CNN
F 3 "" H 6300 5100 50  0001 C CNN
	1    6300 5100
	0    -1   -1   0   
$EndComp
Text Notes 8800 5650 0    50   ~ 0
GND\n
Text GLabel 1850 2350 0    50   Input ~ 0
2_PWM
Text GLabel 1850 2450 0    50   Input ~ 0
3_PWM_CAN0TX_SCL2
Text GLabel 1850 2550 0    50   Input ~ 0
4_PWM_CAN0RX_SDA2
Text GLabel 1850 2650 0    50   Input ~ 0
5_PWM_tx1_miso1
Text GLabel 1850 2750 0    50   Input ~ 0
6_PWM
Text GLabel 1850 3150 0    50   Input ~ 0
10_PWM_TX2_CS0
Text GLabel 1850 3350 0    50   Input ~ 0
12_MIDO0
Text GLabel 1850 3550 0    50   Input ~ 0
24
Text GLabel 1850 3650 0    50   Input ~ 0
25
NoConn ~ 2050 3750
Text GLabel 1850 3950 0    50   Input ~ 0
D28_mosi0
Text GLabel 1850 4050 0    50   Input ~ 0
29_PWM_cano0tx_Touch
Text GLabel 1850 4150 0    50   Input ~ 0
30_PWM_can0rx_Touch
NoConn ~ 2050 3450
Text GLabel 4650 4150 2    50   Input ~ 0
35_A16_PWM
Text GLabel 4650 4050 2    50   Input ~ 0
36_A17_PWM
Text GLabel 4650 3250 2    50   Input ~ 0
14_A0_PWM_sck0
Text GLabel 4650 3150 2    50   Input ~ 0
15_A1_CS0_Touch
Text GLabel 4650 3050 2    50   Input ~ 0
16_A2_PWM_scl0_Touch
Wire Wire Line
	1850 2350 2050 2350
Wire Wire Line
	1850 2450 2050 2450
Wire Wire Line
	1850 2550 2050 2550
Wire Wire Line
	1850 2650 2050 2650
Wire Wire Line
	1850 2750 2050 2750
Wire Wire Line
	1850 3150 2050 3150
Wire Wire Line
	1850 3350 2050 3350
Wire Wire Line
	1850 3550 2050 3550
Wire Wire Line
	1850 3650 2050 3650
Wire Wire Line
	1850 3950 2050 3950
Wire Wire Line
	1850 4050 2050 4050
Wire Wire Line
	1850 4150 2050 4150
Text GLabel 4650 2950 2    50   Input ~ 0
17_A3_PWM_sda0_Touch
Text GLabel 4650 3750 2    50   Input ~ 0
39_A20
Text GLabel 4650 3650 2    50   Input ~ 0
A21_DAC0
$Comp
L Connector:Conn_01x04_Male J12
U 1 1 5B6305C3
P 10150 1250
F 0 "J12" H 10123 1130 50  0000 R CNN
F 1 "AUDIO OUT" H 10123 1221 50  0000 R CNN
F 2 "Connector_PinHeader_2.54mm:PinHeader_1x04_P2.54mm_Vertical" H 10150 1250 50  0001 C CNN
F 3 "~" H 10150 1250 50  0001 C CNN
	1    10150 1250
	-1   0    0    1   
$EndComp
$Comp
L power:GND #PWR029
U 1 1 5B630C15
P 9700 1200
F 0 "#PWR029" H 9700 950 50  0001 C CNN
F 1 "GND" V 9705 1072 50  0000 R CNN
F 2 "" H 9700 1200 50  0001 C CNN
F 3 "" H 9700 1200 50  0001 C CNN
	1    9700 1200
	0    1    1    0   
$EndComp
Wire Wire Line
	9950 1150 9950 1200
Wire Wire Line
	9950 1200 9950 1250
Connection ~ 9950 1200
Text Notes 10200 1050 0    50   ~ 0
RIGHT\n
Text Notes 10200 1400 0    50   ~ 0
LEFT\n
$Comp
L power:GND #PWR01
U 1 1 5B682701
P 1150 6050
F 0 "#PWR01" H 1150 5800 50  0001 C CNN
F 1 "GND" H 1155 5877 50  0000 C CNN
F 2 "" H 1150 6050 50  0001 C CNN
F 3 "" H 1150 6050 50  0001 C CNN
	1    1150 6050
	1    0    0    -1  
$EndComp
$Comp
L Connector_Generic:Conn_02x04_Odd_Even J4
U 1 1 5B6829A7
P 3500 6950
F 0 "J4" H 3550 7267 50  0000 C CNN
F 1 "SERIAL I/O" H 3550 7176 50  0000 C CNN
F 2 "Connector_PinHeader_2.54mm:PinHeader_2x04_P2.54mm_Vertical" H 3500 6950 50  0001 C CNN
F 3 "~" H 3500 6950 50  0001 C CNN
	1    3500 6950
	1    0    0    -1  
$EndComp
$Comp
L Connector_Generic:Conn_02x04_Odd_Even J5
U 1 1 5B6C9BDD
P 900 6950
F 0 "J5" H 950 7267 50  0000 C CNN
F 1 "POWER 5V" H 950 7176 50  0000 C CNN
F 2 "Connector_PinHeader_2.54mm:PinHeader_2x04_P2.54mm_Vertical" H 900 6950 50  0001 C CNN
F 3 "~" H 900 6950 50  0001 C CNN
	1    900  6950
	1    0    0    -1  
$EndComp
Wire Wire Line
	700  6850 700  6950
Wire Wire Line
	700  6950 700  7050
Connection ~ 700  6950
Wire Wire Line
	700  7050 700  7150
Connection ~ 700  7050
Wire Wire Line
	1200 7150 1200 7050
Wire Wire Line
	1200 7050 1200 6950
Connection ~ 1200 7050
Wire Wire Line
	1200 6950 1200 6850
Connection ~ 1200 6950
$Comp
L power:GND #PWR03
U 1 1 5B6F4D13
P 700 7150
F 0 "#PWR03" H 700 6900 50  0001 C CNN
F 1 "GND" H 705 6977 50  0000 C CNN
F 2 "" H 700 7150 50  0001 C CNN
F 3 "" H 700 7150 50  0001 C CNN
	1    700  7150
	1    0    0    -1  
$EndComp
Connection ~ 700  7150
$Comp
L power:+5V #PWR04
U 1 1 5B6F4D8A
P 1200 6850
F 0 "#PWR04" H 1200 6700 50  0001 C CNN
F 1 "+5V" H 1215 7023 50  0000 C CNN
F 2 "" H 1200 6850 50  0001 C CNN
F 3 "" H 1200 6850 50  0001 C CNN
	1    1200 6850
	1    0    0    -1  
$EndComp
Connection ~ 1200 6850
Text GLabel 3300 6850 0    50   Input ~ 0
MIDI_IN
Text GLabel 3800 6850 2    50   Input ~ 0
MIDI_OUT
Text GLabel 1650 5150 2    50   Input ~ 0
2_PWM
Text GLabel 1650 5550 2    50   Input ~ 0
24
Text GLabel 1650 5650 2    50   Input ~ 0
25
$Comp
L power:GND #PWR032
U 1 1 5B6979F7
P 10100 1950
F 0 "#PWR032" H 10100 1700 50  0001 C CNN
F 1 "GND" H 10250 1900 50  0000 C CNN
F 2 "" H 10100 1950 50  0001 C CNN
F 3 "" H 10100 1950 50  0001 C CNN
	1    10100 1950
	1    0    0    -1  
$EndComp
$Comp
L Connector:USB_B J1
U 1 1 5B70F3AF
P 1200 1300
F 0 "J1" H 1255 1767 50  0000 C CNN
F 1 "USB_Power" H 1255 1676 50  0000 C CNN
F 2 "w_conn_pc:conn_usb_B" H 1350 1250 50  0001 C CNN
F 3 " ~" H 1350 1250 50  0001 C CNN
	1    1200 1300
	1    0    0    -1  
$EndComp
Wire Wire Line
	1100 1700 1200 1700
$Comp
L TeensyMIDIAudio-rescue:Teensy-Audio-parasitStudio U2
U 1 1 5B6B1CFD
P 7650 3300
F 0 "U2" H 7625 3815 50  0000 C CNN
F 1 "Teensy-Audio" H 7625 3724 50  0000 C CNN
F 2 "Package_DIP:DIP-28_W15.24mm_Socket_LongPads" H 7650 3150 50  0001 C CNN
F 3 "" H 7650 3150 50  0001 C CNN
	1    7650 3300
	1    0    0    -1  
$EndComp
$Comp
L power:GND #PWR020
U 1 1 5B6B1DCF
P 6950 3050
F 0 "#PWR020" H 6950 2800 50  0001 C CNN
F 1 "GND" V 6955 2922 50  0000 R CNN
F 2 "" H 6950 3050 50  0001 C CNN
F 3 "" H 6950 3050 50  0001 C CNN
	1    6950 3050
	0    1    1    0   
$EndComp
Text GLabel 1850 3250 0    50   Input ~ 0
11_MOSI0
Wire Wire Line
	1850 3250 2050 3250
Wire Wire Line
	8150 3150 8350 3150
Wire Wire Line
	8150 3250 8350 3250
Wire Wire Line
	8150 3350 8350 3350
Wire Wire Line
	8150 3450 8350 3450
Wire Wire Line
	8150 3650 8350 3650
Wire Wire Line
	8150 3750 8350 3750
NoConn ~ 8150 3550
NoConn ~ 1500 1300
NoConn ~ 1500 1400
Wire Wire Line
	8850 1200 8850 1350
$Comp
L Device:Jumper JP1
U 1 1 5B7DE9C2
P 9450 1050
F 0 "JP1" H 9450 1050 50  0000 C CNN
F 1 "PT8211_AUDIO_R" H 9450 1223 50  0000 C CNN
F 2 "Connector_PinHeader_2.54mm:PinHeader_1x02_P2.54mm_Vertical" H 9450 1050 50  0001 C CNN
F 3 "~" H 9450 1050 50  0001 C CNN
	1    9450 1050
	1    0    0    -1  
$EndComp
$Comp
L Device:Jumper JP2
U 1 1 5B7DEACA
P 9450 1350
F 0 "JP2" H 9450 1350 50  0000 C CNN
F 1 "PT8211_AUDIO_L" H 9450 1250 50  0000 C CNN
F 2 "Connector_PinHeader_2.54mm:PinHeader_1x02_P2.54mm_Vertical" H 9450 1350 50  0001 C CNN
F 3 "~" H 9450 1350 50  0001 C CNN
	1    9450 1350
	1    0    0    -1  
$EndComp
$Comp
L Mechanical:MountingHole MH3
U 1 1 5B68E77B
P 11000 650
F 0 "MH3" H 11100 696 50  0000 L CNN
F 1 "MountingHole" H 11100 605 50  0000 L CNN
F 2 "MountingHole:MountingHole_3.5mm" H 11000 650 50  0001 C CNN
F 3 "~" H 11000 650 50  0001 C CNN
	1    11000 650 
	1    0    0    -1  
$EndComp
$Comp
L Mechanical:MountingHole MH1
U 1 1 5B68E867
P 650 650
F 0 "MH1" H 750 696 50  0000 L CNN
F 1 "MountingHole" H 750 605 50  0000 L CNN
F 2 "MountingHole:MountingHole_3.5mm" H 650 650 50  0001 C CNN
F 3 "~" H 650 650 50  0001 C CNN
	1    650  650 
	1    0    0    -1  
$EndComp
$Comp
L Mechanical:MountingHole MH4
U 1 1 5B68ED6D
P 11050 6400
F 0 "MH4" H 11150 6446 50  0000 L CNN
F 1 "MountingHole" H 11150 6355 50  0000 L CNN
F 2 "MountingHole:MountingHole_3.5mm" H 11050 6400 50  0001 C CNN
F 3 "~" H 11050 6400 50  0001 C CNN
	1    11050 6400
	1    0    0    -1  
$EndComp
$Comp
L Mechanical:MountingHole MH2
U 1 1 5B68EFB1
P 700 7600
F 0 "MH2" H 800 7646 50  0000 L CNN
F 1 "MountingHole" H 800 7555 50  0000 L CNN
F 2 "MountingHole:MountingHole_3.5mm" H 700 7600 50  0001 C CNN
F 3 "~" H 700 7600 50  0001 C CNN
	1    700  7600
	1    0    0    -1  
$EndComp
NoConn ~ 2050 3850
Wire Wire Line
	1500 1100 1750 1100
Wire Wire Line
	1200 1700 1750 1700
Connection ~ 1200 1700
Wire Wire Line
	1750 1550 1750 1700
Connection ~ 1750 1700
Wire Wire Line
	1750 1250 1750 1100
Connection ~ 1750 1100
$Comp
L Connector:Conn_01x03_Male J8
U 1 1 5B7A43A9
P 5850 1200
F 0 "J8" H 5956 1478 50  0000 C CNN
F 1 "AUDIO_IN_SHIELD" H 5956 1387 50  0000 C CNN
F 2 "Connector_PinHeader_2.54mm:PinHeader_1x03_P2.54mm_Vertical" H 5850 1200 50  0001 C CNN
F 3 "~" H 5850 1200 50  0001 C CNN
	1    5850 1200
	1    0    0    -1  
$EndComp
Wire Wire Line
	9950 1200 9700 1200
Wire Wire Line
	6050 1100 6250 1100
$Comp
L power:GND #PWR021
U 1 1 5B6EB78A
P 6450 1500
F 0 "#PWR021" H 6450 1250 50  0001 C CNN
F 1 "GND" H 6600 1450 50  0000 C CNN
F 2 "" H 6450 1500 50  0001 C CNN
F 3 "" H 6450 1500 50  0001 C CNN
	1    6450 1500
	1    0    0    -1  
$EndComp
Connection ~ 8850 1350
Wire Wire Line
	8850 1350 8850 2200
Wire Wire Line
	8750 1000 8750 1050
Wire Wire Line
	8850 1050 8750 1050
Connection ~ 8750 1050
Wire Wire Line
	8750 1050 8750 2000
$Comp
L Connector:Conn_Coaxial_x2 J11
U 1 1 5B6D7E2A
P 10100 1650
F 0 "J11" H 10199 1626 50  0000 L CNN
F 1 "AUDIO OUT" H 10199 1535 50  0000 L CNN
F 2 "parasitStudio:rca_black_stereo" H 10100 1550 50  0001 C CNN
F 3 " ~" H 10100 1550 50  0001 C CNN
	1    10100 1650
	1    0    0    -1  
$EndComp
$Comp
L Connector:Conn_Coaxial_x2 J9
U 1 1 5B6EA5EB
P 6450 1200
F 0 "J9" H 6549 1176 50  0000 L CNN
F 1 "AUDIO IN" H 6549 1085 50  0000 L CNN
F 2 "parasitStudio:rca_black_stereo" H 6450 1100 50  0001 C CNN
F 3 " ~" H 6450 1100 50  0001 C CNN
	1    6450 1200
	1    0    0    -1  
$EndComp
Wire Wire Line
	6050 1300 6250 1300
Wire Wire Line
	6050 1200 6200 1200
Wire Wire Line
	6200 1200 6200 1500
Wire Wire Line
	6200 1500 6450 1500
Connection ~ 6450 1500
$Comp
L power:+5V #PWR031
U 1 1 5B719CE3
P 10000 6000
F 0 "#PWR031" H 10000 5850 50  0001 C CNN
F 1 "+5V" H 10015 6173 50  0000 C CNN
F 2 "" H 10000 6000 50  0001 C CNN
F 3 "" H 10000 6000 50  0001 C CNN
	1    10000 6000
	-1   0    0    1   
$EndComp
NoConn ~ 10150 4700
NoConn ~ 10450 5000
NoConn ~ 10450 4400
NoConn ~ 10450 4100
NoConn ~ 10450 3500
$Comp
L Connector_Generic:Conn_02x04_Odd_Even J6
U 1 1 5B6E4A48
P 1600 6950
F 0 "J6" H 1650 7267 50  0000 C CNN
F 1 "POWER 3.3V" H 1650 7176 50  0000 C CNN
F 2 "Connector_PinHeader_2.54mm:PinHeader_2x04_P2.54mm_Vertical" H 1600 6950 50  0001 C CNN
F 3 "~" H 1600 6950 50  0001 C CNN
	1    1600 6950
	1    0    0    -1  
$EndComp
Wire Wire Line
	1400 6850 1400 6950
Wire Wire Line
	1400 6950 1400 7050
Connection ~ 1400 6950
Wire Wire Line
	1400 7050 1400 7150
Connection ~ 1400 7050
$Comp
L power:GND #PWR08
U 1 1 5B7004EF
P 1400 7150
F 0 "#PWR08" H 1400 6900 50  0001 C CNN
F 1 "GND" H 1405 6977 50  0000 C CNN
F 2 "" H 1400 7150 50  0001 C CNN
F 3 "" H 1400 7150 50  0001 C CNN
	1    1400 7150
	1    0    0    -1  
$EndComp
Connection ~ 1400 7150
Wire Wire Line
	1900 7150 1900 7050
Wire Wire Line
	1900 7050 1900 6950
Connection ~ 1900 7050
Wire Wire Line
	1900 6950 1900 6850
Connection ~ 1900 6950
$Comp
L Graphic:Logo_Open_Hardware_Large #LOGO1
U 1 1 5B6B6D12
P 6300 7150
F 0 "#LOGO1" H 6300 7650 50  0001 C CNN
F 1 "Logo_Open_Hardware_Large" H 6300 6750 50  0001 C CNN
F 2 "" H 6300 7150 50  0001 C CNN
F 3 "~" H 6300 7150 50  0001 C CNN
	1    6300 7150
	1    0    0    -1  
$EndComp
$Comp
L power:GND #PWR034
U 1 1 5B6CB6E8
P 1750 700
F 0 "#PWR034" H 1750 450 50  0001 C CNN
F 1 "GND" V 1755 572 50  0000 R CNN
F 2 "" H 1750 700 50  0001 C CNN
F 3 "" H 1750 700 50  0001 C CNN
	1    1750 700 
	0    -1   -1   0   
$EndComp
$Comp
L power:+5V #PWR035
U 1 1 5B6D54D4
P 2150 700
F 0 "#PWR035" H 2150 550 50  0001 C CNN
F 1 "+5V" V 2165 828 50  0000 L CNN
F 2 "" H 2150 700 50  0001 C CNN
F 3 "" H 2150 700 50  0001 C CNN
	1    2150 700 
	0    1    1    0   
$EndComp
$Comp
L Device:R R6
U 1 1 5B71B865
P 5900 6050
F 0 "R6" H 5970 6096 50  0000 L CNN
F 1 "4K7" H 5970 6005 50  0000 L CNN
F 2 "Resistor_THT:R_Axial_DIN0207_L6.3mm_D2.5mm_P7.62mm_Horizontal" V 5830 6050 50  0001 C CNN
F 3 "~" H 5900 6050 50  0001 C CNN
	1    5900 6050
	1    0    0    -1  
$EndComp
$Comp
L Device:R R7
U 1 1 5B71B950
P 6200 6050
F 0 "R7" H 6270 6096 50  0000 L CNN
F 1 "4K7" H 6270 6005 50  0000 L CNN
F 2 "Resistor_THT:R_Axial_DIN0207_L6.3mm_D2.5mm_P7.62mm_Horizontal" V 6130 6050 50  0001 C CNN
F 3 "~" H 6200 6050 50  0001 C CNN
	1    6200 6050
	1    0    0    -1  
$EndComp
Wire Wire Line
	5850 4800 6300 4800
Wire Wire Line
	5850 5100 6300 5100
$Comp
L TeensyMIDIAudio-rescue:Teensy-3.[56]-IC-socket-parasitStudio U1
U 1 1 5B71F7C1
P 3200 3250
F 0 "U1" H 3175 4715 50  0000 C CNN
F 1 "Teensy-3.[56]-IC-socket" H 3175 4624 50  0000 C CNN
F 2 "Package_DIP:DIP-48_W15.24mm_Socket_LongPads" H 3050 2400 50  0001 C CNN
F 3 "" H 3050 2400 50  0001 C CNN
	1    3200 3250
	1    0    0    -1  
$EndComp
Wire Wire Line
	6950 3050 7100 3050
Wire Wire Line
	6950 3150 7100 3150
Wire Wire Line
	6950 3250 7100 3250
Wire Wire Line
	6950 3350 7100 3350
Wire Wire Line
	6950 3450 7100 3450
Wire Wire Line
	6950 3550 7100 3550
Wire Wire Line
	6950 3650 7100 3650
Text GLabel 4650 4250 2    50   Input ~ 0
34_A15_CAN1RX_sda0_RX5
Text GLabel 4650 4350 2    50   Input ~ 0
33_A14_CAN1TX_scl0_TX5
$Comp
L power:GND #PWR0101
U 1 1 5B7796AB
P 4650 3450
F 0 "#PWR0101" H 4650 3200 50  0001 C CNN
F 1 "GND" V 4655 3322 50  0000 R CNN
F 2 "" H 4650 3450 50  0001 C CNN
F 3 "" H 4650 3450 50  0001 C CNN
	1    4650 3450
	0    -1   -1   0   
$EndComp
Text GLabel 4650 2850 2    50   Input ~ 0
18_A4_SDA0_Touch
Text GLabel 4650 2750 2    50   Input ~ 0
19_A5_SCL0_Touch
Text GLabel 4650 2650 2    50   Input ~ 0
20_A6_PWM_SC0_sck1
Text GLabel 4650 2550 2    50   Input ~ 0
21_A7_PWM_CS0_modi1_rx1
Text GLabel 4650 2450 2    50   Input ~ 0
22_A8_PWM_Touch
Text GLabel 4650 2350 2    50   Input ~ 0
23_A9_PWM_Touch
Text GLabel 4650 2250 2    50   Input ~ 0
3.3V
Text GLabel 4650 2150 2    50   Input ~ 0
AGND
$Comp
L power:+5V #PWR0102
U 1 1 5B7A0214
P 4650 2050
F 0 "#PWR0102" H 4650 1900 50  0001 C CNN
F 1 "+5V" V 4665 2178 50  0000 L CNN
F 2 "" H 4650 2050 50  0001 C CNN
F 3 "" H 4650 2050 50  0001 C CNN
	1    4650 2050
	0    1    1    0   
$EndComp
Wire Wire Line
	4450 3450 4650 3450
Wire Wire Line
	4450 3350 4650 3350
Wire Wire Line
	4450 3250 4650 3250
Wire Wire Line
	4450 3150 4650 3150
Wire Wire Line
	4450 3050 4650 3050
Wire Wire Line
	4450 2950 4650 2950
Wire Wire Line
	4450 2850 4650 2850
Wire Wire Line
	4450 2750 4650 2750
Wire Wire Line
	4450 2650 4650 2650
Wire Wire Line
	4450 2550 4650 2550
Wire Wire Line
	4450 2450 4650 2450
Wire Wire Line
	4450 2350 4650 2350
Wire Wire Line
	4450 2250 4650 2250
Wire Wire Line
	4450 2150 4650 2150
Wire Wire Line
	4450 2050 4650 2050
Text GLabel 7800 1100 0    50   Input ~ 0
23_A9_PWM_Touch
Text GLabel 7800 1200 0    50   Input ~ 0
22_A8_PWM_Touch
Wire Wire Line
	7800 1100 7950 1100
Text GLabel 7800 1000 0    50   Input ~ 0
9_PWM_RX2_CS0
Text GLabel 7800 2000 0    50   Input ~ 0
9_PWM_RX2_CS0
Text GLabel 7800 2100 0    50   Input ~ 0
23_A9_PWM_Touch
Text GLabel 7800 2200 0    50   Input ~ 0
22_A8_PWM_Touch
Text GLabel 8350 3150 2    50   Input ~ 0
23_A9_PWM_Touch
Text GLabel 8350 3250 2    50   Input ~ 0
22_A8_PWM_Touch
Text GLabel 8350 3350 2    50   Input ~ 0
19_A5_SCL0_Touch
Text GLabel 8350 3450 2    50   Input ~ 0
18_A4_SDA0_Touch
Text GLabel 8350 3650 2    50   Input ~ 0
14_A0_PWM_sck0
Text GLabel 8350 3750 2    50   Input ~ 0
13_SCK0_LED
Text GLabel 6950 3650 0    50   Input ~ 0
12_MIDO0
Text GLabel 6950 3550 0    50   Input ~ 0
11_MOSI0
Text GLabel 6950 3450 0    50   Input ~ 0
10_PWM_TX2_CS0
Text GLabel 6950 3350 0    50   Input ~ 0
9_PWM_RX2_CS0
Text GLabel 6950 3250 0    50   Input ~ 0
7_RX3_mosi0_scl0
Text GLabel 6950 3150 0    50   Input ~ 0
6_PWM
Wire Wire Line
	10150 3500 10350 3500
Wire Wire Line
	10150 4100 10350 4100
$Comp
L Connector:DIN-5_180degree J14
U 1 1 5B5DDB6E
P 10450 3800
F 0 "J14" V 10496 3571 50  0000 R CNN
F 1 "MIDI OUT" V 10405 3571 50  0000 R CNN
F 2 "w_conn_av:din-5" H 10450 3800 50  0001 C CNN
F 3 "" H 10450 3800 50  0001 C CNN
	1    10450 3800
	0    -1   -1   0   
$EndComp
Text GLabel 1650 5250 2    50   Input ~ 0
3_PWM_CAN0TX_SCL2
Text GLabel 1650 5350 2    50   Input ~ 0
4_PWM_CAN0RX_SDA2
Text GLabel 1650 5450 2    50   Input ~ 0
5_PWM_tx1_miso1
Text GLabel 1650 5750 2    50   Input ~ 0
29_PWM_cano0tx_Touch
Text GLabel 1650 5950 2    50   Input ~ 0
30_PWM_can0rx_Touch
Text GLabel 3650 5150 2    50   Input ~ 0
15_A1_CS0_Touch
Text GLabel 3650 5250 2    50   Input ~ 0
16_A2_PWM_scl0_Touch
Text GLabel 3650 5350 2    50   Input ~ 0
17_A3_PWM_sda0_Touch
Text GLabel 3650 5450 2    50   Input ~ 0
20_A6_PWM_SC0_sck1
Text GLabel 3650 5550 2    50   Input ~ 0
21_A7_PWM_CS0_modi1_rx1
Text GLabel 6300 4900 2    50   Input ~ 0
19_A5_SCL0_Touch
Text GLabel 6300 5000 2    50   Input ~ 0
18_A4_SDA0_Touch
Wire Wire Line
	4450 4350 4650 4350
Wire Wire Line
	4650 4250 4450 4250
Wire Wire Line
	4450 4150 4650 4150
Wire Wire Line
	4650 4050 4450 4050
Wire Wire Line
	4450 3950 4650 3950
Wire Wire Line
	4650 3850 4450 3850
Wire Wire Line
	4450 3750 4650 3750
Wire Wire Line
	4650 3650 4450 3650
Wire Wire Line
	4450 3550 4650 3550
Text GLabel 3300 7050 0    50   Input ~ 0
31_A12_RX4_CS1
Text GLabel 3800 7050 2    50   Input ~ 0
32_A13_TX4_SCK1
Text GLabel 3300 7150 0    50   Input ~ 0
34_A15_CAN1RX_sda0_RX5
Text GLabel 3800 7150 2    50   Input ~ 0
33_A14_CAN1TX_scl0_TX5
Wire Wire Line
	1850 2950 2050 2950
Text GLabel 3300 6950 0    50   Input ~ 0
7_RX3_mosi0_scl0
Text GLabel 3800 6950 2    50   Input ~ 0
8_TX3_miso0_sda0
Text GLabel 1650 5850 2    50   Input ~ 0
D28_mosi0
Text GLabel 3150 6350 3    50   Input ~ 0
AGND
Text GLabel 3650 6250 2    50   Input ~ 0
A22_DAC1
Text GLabel 3650 6150 2    50   Input ~ 0
A21_DAC0
Text GLabel 3650 5650 2    50   Input ~ 0
35_A16_PWM
Text GLabel 3650 5750 2    50   Input ~ 0
36_A17_PWM
Text GLabel 3650 5850 2    50   Input ~ 0
37_A18_PWM_SCL1
Text GLabel 3650 5950 2    50   Input ~ 0
38_A19_PWM_SDA1
Text GLabel 3650 6050 2    50   Input ~ 0
39_A20
$Comp
L Connector_Generic:Conn_02x12_Odd_Even J3
U 1 1 5B9C6475
P 3350 5650
F 0 "J3" H 3400 6367 50  0000 C CNN
F 1 "ANALOG I/O" H 3400 6276 50  0000 C CNN
F 2 "Connector_PinHeader_2.54mm:PinHeader_2x12_P2.54mm_Vertical" H 3350 5650 50  0001 C CNN
F 3 "~" H 3350 5650 50  0001 C CNN
	1    3350 5650
	1    0    0    -1  
$EndComp
Wire Wire Line
	3150 5150 3150 5250
Wire Wire Line
	3150 5250 3150 5350
Connection ~ 3150 5250
Wire Wire Line
	3150 5350 3150 5450
Connection ~ 3150 5350
Wire Wire Line
	3150 5450 3150 5550
Connection ~ 3150 5450
Wire Wire Line
	3150 5550 3150 5650
Connection ~ 3150 5550
Wire Wire Line
	3150 5650 3150 5750
Connection ~ 3150 5650
Wire Wire Line
	3150 5750 3150 5850
Connection ~ 3150 5750
Wire Wire Line
	3150 5850 3150 5950
Connection ~ 3150 5850
Wire Wire Line
	3150 5950 3150 6050
Connection ~ 3150 5950
Wire Wire Line
	3150 6050 3150 6150
Connection ~ 3150 6050
Wire Wire Line
	3150 6150 3150 6250
Connection ~ 3150 6150
Wire Wire Line
	3150 6250 3150 6350
Connection ~ 3150 6250
$Comp
L Connector_Generic:Conn_02x09_Odd_Even J2
U 1 1 5BA3E753
P 1350 5550
F 0 "J2" H 1400 6167 50  0000 C CNN
F 1 "DIGITAL I/O" H 1400 6076 50  0000 C CNN
F 2 "Connector_PinHeader_2.54mm:PinHeader_2x09_P2.54mm_Vertical" H 1350 5550 50  0001 C CNN
F 3 "~" H 1350 5550 50  0001 C CNN
	1    1350 5550
	1    0    0    -1  
$EndComp
Wire Wire Line
	5900 6200 6050 6200
Text GLabel 6050 6300 3    50   Input ~ 0
3.3V
Wire Wire Line
	6050 6300 6050 6200
Connection ~ 6050 6200
Wire Wire Line
	6050 6200 6200 6200
Text GLabel 1900 7250 3    50   Input ~ 0
3.3V
Wire Wire Line
	1900 7250 1900 7150
Connection ~ 1900 7150
Text GLabel 9500 3200 3    50   Input ~ 0
3.3V
Wire Wire Line
	9500 3150 9500 3200
Wire Wire Line
	8650 2000 8750 2000
$Comp
L Device:Jumper_NC_Dual JP3
U 1 1 5B6C0CEC
P 9500 3050
F 0 "JP3" H 9500 3289 50  0000 C CNN
F 1 "SELECT_I2S_AUDIO" H 9500 3198 50  0000 C CNN
F 2 "Connector_PinHeader_2.54mm:PinHeader_1x03_P2.54mm_Vertical" H 9500 3050 50  0001 C CNN
F 3 "~" H 9500 3050 50  0001 C CNN
	1    9500 3050
	1    0    0    -1  
$EndComp
Wire Wire Line
	8650 2300 8700 2300
Wire Wire Line
	8850 2300 9300 2300
Connection ~ 8850 2300
Wire Wire Line
	9300 2300 9600 2300
Connection ~ 9300 2300
Wire Wire Line
	9900 2300 10000 2300
Wire Wire Line
	10000 2300 10000 3050
Wire Wire Line
	10000 3050 9750 3050
Wire Wire Line
	9250 3050 8150 3050
Wire Wire Line
	8650 1300 8700 1300
Wire Wire Line
	8700 1300 8700 2300
Connection ~ 8700 2300
Wire Wire Line
	8700 2300 8850 2300
Wire Wire Line
	1150 5150 1150 5250
Wire Wire Line
	1150 5250 1150 5350
Connection ~ 1150 5250
Wire Wire Line
	1150 5350 1150 5450
Connection ~ 1150 5350
Wire Wire Line
	1150 5450 1150 5550
Connection ~ 1150 5450
Wire Wire Line
	1150 5550 1150 5650
Connection ~ 1150 5550
Wire Wire Line
	1150 5650 1150 5750
Connection ~ 1150 5650
Wire Wire Line
	1150 5750 1150 5850
Connection ~ 1150 5750
Wire Wire Line
	1150 5850 1150 5950
Connection ~ 1150 5850
Wire Wire Line
	1150 5950 1150 6050
Connection ~ 1150 5950
$Comp
L Device:Jumper JP5
U 1 1 5B732052
P 6200 5600
F 0 "JP5" V 6154 5726 50  0000 L CNN
F 1 "I2C_PU_ENA" V 6245 5726 50  0000 L CNN
F 2 "Connector_PinHeader_2.54mm:PinHeader_2x01_P2.54mm_Vertical" H 6200 5600 50  0001 C CNN
F 3 "~" H 6200 5600 50  0001 C CNN
	1    6200 5600
	0    1    1    0   
$EndComp
Wire Wire Line
	5850 4900 6200 4900
Wire Wire Line
	5850 5000 5900 5000
$Comp
L Device:Jumper JP4
U 1 1 5B7472AE
P 5900 5600
F 0 "JP4" V 5854 5726 50  0000 L CNN
F 1 "I2C_PU_ENA" V 5945 5726 50  0000 L CNN
F 2 "Connector_PinHeader_2.54mm:PinHeader_2x01_P2.54mm_Vertical" H 5900 5600 50  0001 C CNN
F 3 "~" H 5900 5600 50  0001 C CNN
	1    5900 5600
	0    1    1    0   
$EndComp
Wire Wire Line
	5900 5300 5900 5000
Connection ~ 5900 5000
Wire Wire Line
	5900 5000 6300 5000
Wire Wire Line
	6200 5300 6200 4900
Connection ~ 6200 4900
Wire Wire Line
	6200 4900 6300 4900
$Comp
L power:+5V #PWR0103
U 1 1 5B74BCD7
P 7650 4950
F 0 "#PWR0103" H 7650 4800 50  0001 C CNN
F 1 "+5V" V 7665 5078 50  0000 L CNN
F 2 "" H 7650 4950 50  0001 C CNN
F 3 "" H 7650 4950 50  0001 C CNN
	1    7650 4950
	0    -1   -1   0   
$EndComp
Wire Wire Line
	7650 4950 8550 4950
Wire Wire Line
	9750 1050 9800 1050
Wire Wire Line
	9750 1350 9900 1350
Wire Wire Line
	9900 1550 9900 1350
Connection ~ 9900 1350
Wire Wire Line
	9900 1350 9950 1350
Wire Wire Line
	9900 1750 9800 1750
Wire Wire Line
	9800 1750 9800 1050
Connection ~ 9800 1050
Wire Wire Line
	9800 1050 9950 1050
Wire Wire Line
	10400 5400 10500 5400
Entry Wire Line
	9900 5600 10000 5700
Entry Wire Line
	9900 5700 10000 5800
Entry Wire Line
	9600 5800 9700 5900
Entry Wire Line
	9600 5700 9700 5800
Wire Wire Line
	10000 5800 10100 5800
Wire Wire Line
	10000 5700 10100 5700
Wire Wire Line
	9500 5700 9600 5700
Wire Wire Line
	9500 5800 9600 5800
Entry Wire Line
	9900 5300 10000 5400
Entry Wire Line
	9900 5900 10000 6000
Entry Wire Line
	9600 5600 9700 5700
Entry Wire Line
	9600 5900 9700 6000
Wire Bus Line
	9700 6050 9900 6050
Wire Wire Line
	9500 5600 9600 5600
Wire Wire Line
	9500 5900 9600 5900
Wire Wire Line
	10000 5400 10400 5400
Connection ~ 10400 5400
Wire Wire Line
	10000 6000 10100 6000
Text Label 9500 5600 0    50   ~ 0
GND
Text Label 9500 5700 0    50   ~ 0
D-
Text Label 9500 5800 0    50   ~ 0
D+
Text Label 9500 5900 0    50   ~ 0
5V
Text Label 10000 6000 0    50   ~ 0
5V
Text Label 10000 5800 0    50   ~ 0
D+
Text Label 10000 5700 0    50   ~ 0
D-
Text Label 10000 5400 0    50   ~ 0
GND
Wire Bus Line
	9700 5700 9700 6050
Wire Bus Line
	9900 5300 9900 6050
$EndSCHEMATC
