  0
SECTION
  2
HEADER
  9
$MEASUREMENT
  70
  1
  9
$INSUNITS
  70
  4
  0
ENDSEC
  0
SECTION
  2
TABLES
  0
TABLE
  2
LTYPE
 70
     1
  0
LTYPE
  2
CONTINUOUS
 70
    64
  3
Ausgezogene Linie
 72
    65
 73
     0
 40
0.0
  0
ENDTAB
  0
TABLE
  2
LAYER
 70
     3
  0
LAYER
  2
Contour
 70
    64
 62
     7
  6
CONTINUOUS
  0
LAYER
  2
Engraving
 70
    64
 62
     7
  6
CONTINUOUS
  0
LAYER
  2
Reference_points
 70
    64
 62
     1
  6
CONTINUOUS
  0
ENDTAB
  0
TABLE
  2
STYLE
 70
     1
  0
STYLE
  2
TXT
 70
    64
 40
0.0
 41
1.0
 50
0.0
 71
     0
 42
3.500000
  3
TXT
  0
ENDTAB
  0
ENDSEC
  0
SECTION
  2
BLOCKS
  0
ENDSEC
  0
SECTION
  2
ENTITIES
  0
ARC
  8
Contour
 62
   7
 39
0.100
  6
CONTINUOUS
 10
129.50000
 20
34.00000
 30
 0
 40
1.50000
 50
0.00000
 51
90.00000
  0
LINE
  8
Contour
 62
   7
 39
0.100
  6
CONTINUOUS
 10
131.00000
 20
34.00000
 30
 0
 11
131.00000
 21
1.50000
  0
ARC
  8
Contour
 62
   7
 39
0.100
  6
CONTINUOUS
 10
129.50000
 20
1.50000
 30
 0
 40
1.50000
 50
270.00000
 51
360.00000
  0
LINE
  8
Contour
 62
   7
 39
0.100
  6
CONTINUOUS
 10
129.50000
 20
0.00000
 30
 0
 11
1.50000
 21
0.00000
  0
ARC
  8
Contour
 62
   7
 39
0.100
  6
CONTINUOUS
 10
1.50000
 20
1.50000
 30
 0
 40
1.50000
 50
180.00000
 51
270.00000
  0
LINE
  8
Contour
 62
   7
 39
0.100
  6
CONTINUOUS
 10
0.00000
 20
1.50000
 30
 0
 11
0.00000
 21
34.00000
  0
ARC
  8
Contour
 62
   7
 39
0.100
  6
CONTINUOUS
 10
1.50000
 20
34.00000
 30
 0
 40
1.50000
 50
90.00000
 51
180.00000
  0
LINE
  8
Contour
 62
   7
 39
0.100
  6
CONTINUOUS
 10
1.50000
 20
35.50000
 30
 0
 11
129.50000
 21
35.50000
  0
CIRCLE
  8
Contour
 62
   7
 39
0.100
  6
CONTINUOUS
 10
16.73300
 20
17.73300
 30
 0
 40
3.50000
  0
CIRCLE
  8
Contour
 62
   7
 39
0.100
  6
CONTINUOUS
 10
114.23300
 20
17.73300
 30
 0
 40
3.50000
  0
ARC
  8
Contour
 62
   7
 39
0.100
  6
CONTINUOUS
 10
29.98300
 20
5.73300
 30
 0
 40
0.50000
 50
180.00000
 51
270.00000
  0
LINE
  8
Contour
 62
   7
 39
0.100
  6
CONTINUOUS
 10
29.98300
 20
5.23300
 30
 0
 11
100.98300
 21
5.23300
  0
ARC
  8
Contour
 62
   7
 39
0.100
  6
CONTINUOUS
 10
100.98300
 20
5.73300
 30
 0
 40
0.50000
 50
270.00000
 51
360.00000
  0
LINE
  8
Contour
 62
   7
 39
0.100
  6
CONTINUOUS
 10
101.48300
 20
5.73300
 30
 0
 11
101.48300
 21
29.73300
  0
ARC
  8
Contour
 62
   7
 39
0.100
  6
CONTINUOUS
 10
100.98300
 20
29.73300
 30
 0
 40
0.50000
 50
0.00000
 51
90.00000
  0
LINE
  8
Contour
 62
   7
 39
0.100
  6
CONTINUOUS
 10
100.98300
 20
30.23300
 30
 0
 11
29.98300
 21
30.23300
  0
ARC
  8
Contour
 62
   7
 39
0.100
  6
CONTINUOUS
 10
29.98300
 20
29.73300
 30
 0
 40
0.50000
 50
90.00000
 51
180.00000
  0
LINE
  8
Contour
 62
   7
 39
0.100
  6
CONTINUOUS
 10
29.48300
 20
29.73300
 30
 0
 11
29.48300
 21
5.73300
  0
CIRCLE
  8
Contour
 62
   7
 39
0.100
  6
CONTINUOUS
 10
27.98300
 20
33.33300
 30
 0
 40
1.50000
  0
CIRCLE
  8
Contour
 62
   7
 39
0.100
  6
CONTINUOUS
 10
102.98300
 20
33.33300
 30
 0
 40
1.50000
  0
CIRCLE
  8
Contour
 62
   7
 39
0.100
  6
CONTINUOUS
 10
102.98300
 20
2.13300
 30
 0
 40
1.50000
  0
CIRCLE
  8
Contour
 62
   7
 39
0.100
  6
CONTINUOUS
 10
27.98300
 20
2.13300
 30
 0
 40
1.50000
  0
CIRCLE
  8
Contour
 62
   7
 39
0.100
  6
CONTINUOUS
 10
4.98300
 20
17.73300
 30
 0
 40
1.50000
  0
CIRCLE
  8
Contour
 62
   7
 39
0.100
  6
CONTINUOUS
 10
126.48300
 20
17.73300
 30
 0
 40
1.50000
  0
LINE
  8
Reference_points
 62
   1
 39
0.100
  6
CONTINUOUS
 10
-0.44300
 20
0.00000
 30
 0
 11
0.44300
 21
0.00000
  0
LINE
  8
Reference_points
 62
   1
 39
0.100
  6
CONTINUOUS
 10
0.00000
 20
-0.44300
 30
 0
 11
0.00000
 21
0.44300
  0
LINE
  8
Reference_points
 62
   1
 39
0.100
  6
CONTINUOUS
 10
16.29000
 20
17.73300
 30
 0
 11
17.17600
 21
17.73300
  0
LINE
  8
Reference_points
 62
   1
 39
0.100
  6
CONTINUOUS
 10
16.73300
 20
17.29000
 30
 0
 11
16.73300
 21
18.17600
  0
LINE
  8
Reference_points
 62
   1
 39
0.100
  6
CONTINUOUS
 10
113.79000
 20
17.73300
 30
 0
 11
114.67600
 21
17.73300
  0
LINE
  8
Reference_points
 62
   1
 39
0.100
  6
CONTINUOUS
 10
114.23300
 20
17.29000
 30
 0
 11
114.23300
 21
18.17600
  0
LINE
  8
Reference_points
 62
   1
 39
0.100
  6
CONTINUOUS
 10
65.04000
 20
17.73300
 30
 0
 11
65.92600
 21
17.73300
  0
LINE
  8
Reference_points
 62
   1
 39
0.100
  6
CONTINUOUS
 10
65.48300
 20
17.29000
 30
 0
 11
65.48300
 21
18.17600
  0
LINE
  8
Reference_points
 62
   1
 39
0.100
  6
CONTINUOUS
 10
27.54000
 20
33.33300
 30
 0
 11
28.42600
 21
33.33300
  0
LINE
  8
Reference_points
 62
   1
 39
0.100
  6
CONTINUOUS
 10
27.98300
 20
32.89000
 30
 0
 11
27.98300
 21
33.77600
  0
LINE
  8
Reference_points
 62
   1
 39
0.100
  6
CONTINUOUS
 10
102.54000
 20
33.33300
 30
 0
 11
103.42600
 21
33.33300
  0
LINE
  8
Reference_points
 62
   1
 39
0.100
  6
CONTINUOUS
 10
102.98300
 20
32.89000
 30
 0
 11
102.98300
 21
33.77600
  0
LINE
  8
Reference_points
 62
   1
 39
0.100
  6
CONTINUOUS
 10
102.54000
 20
2.13300
 30
 0
 11
103.42600
 21
2.13300
  0
LINE
  8
Reference_points
 62
   1
 39
0.100
  6
CONTINUOUS
 10
102.98300
 20
1.69000
 30
 0
 11
102.98300
 21
2.57600
  0
LINE
  8
Reference_points
 62
   1
 39
0.100
  6
CONTINUOUS
 10
27.54000
 20
2.13300
 30
 0
 11
28.42600
 21
2.13300
  0
LINE
  8
Reference_points
 62
   1
 39
0.100
  6
CONTINUOUS
 10
27.98300
 20
1.69000
 30
 0
 11
27.98300
 21
2.57600
  0
LINE
  8
Reference_points
 62
   1
 39
0.100
  6
CONTINUOUS
 10
4.54000
 20
17.73300
 30
 0
 11
5.42600
 21
17.73300
  0
LINE
  8
Reference_points
 62
   1
 39
0.100
  6
CONTINUOUS
 10
4.98300
 20
17.29000
 30
 0
 11
4.98300
 21
18.17600
  0
LINE
  8
Reference_points
 62
   1
 39
0.100
  6
CONTINUOUS
 10
126.04000
 20
17.73300
 30
 0
 11
126.92600
 21
17.73300
  0
LINE
  8
Reference_points
 62
   1
 39
0.100
  6
CONTINUOUS
 10
126.48300
 20
17.29000
 30
 0
 11
126.48300
 21
18.17600
  0
ENDSEC
  0
EOF
