<?xml version="1.0" standalone="no"?>
<!DOCTYPE svg PUBLIC "-//W3C//DTD SVG 1.1//EN" 
  "http://www.w3.org/Graphics/SVG/1.1/DTD/svg11.dtd">
<svg width="133.500mm" height="38.000mm" version="1.1"
     viewBox="0 0 133.500 38.000"
     xmlns="http://www.w3.org/2000/svg"  xmlns:xlink="http://www.w3.org/1999/xlink" 
     xmlns:fpd="http://www.schaeffer-ag.de">
  <desc>Created with the Front Panel Designer by the export of the file 'TeensyMIDIAudio-Back.fpd'.</desc>
  <defs>
    <pattern id="revside-fill" x="1" y="1" width="1.5" height="1.5" patternUnits="userSpaceOnUse">
      <line x1="0" y1="0" x2="1" y2="1" style="stroke-width:0.2; stroke:black; stroke-dasharray:none;" />
      <line x1="0" y1="1" x2="1" y2="0" style="stroke-width:0.2; stroke:black; stroke-dasharray:none;" />
    </pattern>
    <pattern id="revside-fill-silver" x="1" y="1" width="1.5" height="1.5" patternUnits="userSpaceOnUse">
      <line x1="0" y1="0" x2="1.5" y2="1.5" style="stroke-width:0.2; stroke:#e0e0e0; stroke-dasharray:none;" />
      <line x1="0" y1="1.5" x2="1.5" y2="0" style="stroke-width:0.2; stroke:#e0e0e0; stroke-dasharray:none;" />
    </pattern>
  </defs>
<g transform="scale(1,-1) translate( -0.000, -38.000)" 
   fill-rule="evenodd"
   style="stroke-linecap:round; stroke-linejoin:round; stroke-opacity:1.0; stroke-opacity:1.0;">
<path d="
M132.000 38.000
A1.500,1.500 0 0,0 133.500,36.500
L133.500 1.500
A1.500,1.500 0 0,0 132.000,0.000
L1.500 0.000
A1.500,1.500 0 0,0 0.000,1.500
L0.000 36.500
A1.500,1.500 0 0,0 1.500,38.000
L132.000 38.000
" 
fill="#bbbbbb" vector-effect="non-scaling-stroke" stroke="#000000" stroke-width="0.100mm" />
<path d="
M4.750 19.000
A1.500,1.500 0 1,0 7.750,19.000
A1.500,1.500 0 1,0 4.750,19.000
" 
fill="#ffffff" vector-effect="non-scaling-stroke" stroke="#000000" stroke-width="0.100mm" />
<path d="
M126.250 19.000
A1.500,1.500 0 1,0 129.250,19.000
A1.500,1.500 0 1,0 126.250,19.000
" 
fill="#ffffff" vector-effect="non-scaling-stroke" stroke="#000000" stroke-width="0.100mm" />
<path d="
M26.250 30.400
A5.500,5.500 0 1,0 37.250,30.400
A5.500,5.500 0 1,0 26.250,30.400
" 
fill="#ffffff" vector-effect="non-scaling-stroke" stroke="#000000" stroke-width="0.100mm" />
<path d="
M26.250 15.900
A5.500,5.500 0 1,0 37.250,15.900
A5.500,5.500 0 1,0 26.250,15.900
" 
fill="#ffffff" vector-effect="non-scaling-stroke" stroke="#000000" stroke-width="0.100mm" />
<path d="
M45.050 30.400
A5.500,5.500 0 1,0 56.050,30.400
A5.500,5.500 0 1,0 45.050,30.400
" 
fill="#ffffff" vector-effect="non-scaling-stroke" stroke="#000000" stroke-width="0.100mm" />
<path d="
M45.050 15.900
A5.500,5.500 0 1,0 56.050,15.900
A5.500,5.500 0 1,0 45.050,15.900
" 
fill="#ffffff" vector-effect="non-scaling-stroke" stroke="#000000" stroke-width="0.100mm" />
<path d="
M9.240 10.300
A1.000,1.000 0 0,1 10.240,9.300
L20.740 9.300
A1.000,1.000 0 0,1 21.740,10.300
L21.740 19.300
A1.000,1.000 0 0,1 20.740,20.300
L10.240 20.300
A1.000,1.000 0 0,1 9.240,19.300
L9.240 10.300
" 
fill="#ffffff" vector-effect="non-scaling-stroke" stroke="#000000" stroke-width="0.100mm" />
<path d="
M61.000 10.400
A1.000,1.000 0 0,1 62.000,9.400
L67.000 9.400
A1.000,1.000 0 0,1 68.000,10.400
L68.000 23.400
A1.000,1.000 0 0,1 67.000,24.400
L62.000 24.400
A1.000,1.000 0 0,1 61.000,23.400
L61.000 10.400
" 
fill="#ffffff" vector-effect="non-scaling-stroke" stroke="#000000" stroke-width="0.100mm" />
<path d="
M68.770 10.250
A1.000,1.000 0 0,1 69.770,9.250
L111.270 9.250
A1.000,1.000 0 0,1 112.270,10.250
L112.270 28.250
A1.000,1.000 0 0,1 111.270,29.250
L69.770 29.250
A1.000,1.000 0 0,1 68.770,28.250
L68.770 10.250
" 
fill="#ffffff" vector-effect="non-scaling-stroke" stroke="#000000" stroke-width="0.100mm" />
<path d="
M39.500 23.150
A1.250,1.250 0 1,0 42.000,23.150
A1.250,1.250 0 1,0 39.500,23.150
" 
fill="#ffffff" vector-effect="non-scaling-stroke" stroke="#000000" stroke-width="0.100mm" />
<path d="
M58.300 23.150
A1.250,1.250 0 1,0 60.800,23.150
A1.250,1.250 0 1,0 58.300,23.150
" 
fill="#ffffff" vector-effect="non-scaling-stroke" stroke="#000000" stroke-width="0.100mm" />
<path d="
M132.000 38.000
A1.500,1.500 0 0,0 133.500,36.500
L133.500 1.500
A1.500,1.500 0 0,0 132.000,0.000
L1.500 0.000
A1.500,1.500 0 0,0 0.000,1.500
L0.000 36.500
A1.500,1.500 0 0,0 1.500,38.000
L132.000 38.000
" 
fill="none" vector-effect="non-scaling-stroke" stroke="#000000" stroke-width="0.100mm" />
<path d="
M-0.451 0.000
L0.451 0.000
M0.000 -0.451
L0.000 0.451
" 
fill="none" vector-effect="non-scaling-stroke" stroke="#ff0000" stroke-width="0.100mm" />
<path d="
M5.799 19.000
L6.701 19.000
M6.250 18.549
L6.250 19.451
" 
fill="none" vector-effect="non-scaling-stroke" stroke="#ff0000" stroke-width="0.100mm" />
<path d="
M127.299 19.000
L128.201 19.000
M127.750 18.549
L127.750 19.451
" 
fill="none" vector-effect="non-scaling-stroke" stroke="#ff0000" stroke-width="0.100mm" />
<path d="
M31.299 30.400
L32.201 30.400
M31.750 29.949
L31.750 30.851
" 
fill="none" vector-effect="non-scaling-stroke" stroke="#ff0000" stroke-width="0.100mm" />
<path d="
M31.299 15.900
L32.201 15.900
M31.750 15.449
L31.750 16.351
" 
fill="none" vector-effect="non-scaling-stroke" stroke="#ff0000" stroke-width="0.100mm" />
<path d="
M50.099 30.400
L51.001 30.400
M50.550 29.949
L50.550 30.851
" 
fill="none" vector-effect="non-scaling-stroke" stroke="#ff0000" stroke-width="0.100mm" />
<path d="
M50.099 15.900
L51.001 15.900
M50.550 15.449
L50.550 16.351
" 
fill="none" vector-effect="non-scaling-stroke" stroke="#ff0000" stroke-width="0.100mm" />
<path d="
M15.039 14.800
L15.941 14.800
M15.490 14.349
L15.490 15.251
" 
fill="none" vector-effect="non-scaling-stroke" stroke="#ff0000" stroke-width="0.100mm" />
<path d="
M64.049 16.900
L64.951 16.900
M64.500 16.449
L64.500 17.351
" 
fill="none" vector-effect="non-scaling-stroke" stroke="#ff0000" stroke-width="0.100mm" />
<path d="
M90.069 19.250
L90.971 19.250
M90.520 18.799
L90.520 19.701
" 
fill="none" vector-effect="non-scaling-stroke" stroke="#ff0000" stroke-width="0.100mm" />
<path d="
M40.299 23.150
L41.201 23.150
M40.750 22.699
L40.750 23.601
" 
fill="none" vector-effect="non-scaling-stroke" stroke="#ff0000" stroke-width="0.100mm" />
<path d="
M59.099 23.150
L60.001 23.150
M59.550 22.699
L59.550 23.601
" 
fill="none" vector-effect="non-scaling-stroke" stroke="#ff0000" stroke-width="0.100mm" />
</g>
</svg>
